{
  "__type__": "cc.SpriteFrame",
  "content": {
    "name": "bg_corner7",
    "atlas": "",
    "rect": {
      "x": 0,
      "y": 0,
      "width": 50,
      "height": 50
    },
    "offset": {
      "x": 0,
      "y": 0
    },
    "originalSize": {
      "width": 50,
      "height": 50
    },
    "rotated": false,
    "capInsets": [
      18,
      18,
      18,
      18
    ],
    "texture": "58b264e9-11f4-4b9c-8f8e-c53c83445d17@6c48a",
    "packable": true
  }
}