{
  "__type__": "cc.SpriteFrame",
  "content": {
    "name": "bg",
    "atlas": "",
    "rect": {
      "x": 0,
      "y": 0,
      "width": 194,
      "height": 61
    },
    "offset": {
      "x": 0,
      "y": 0
    },
    "originalSize": {
      "width": 194,
      "height": 61
    },
    "rotated": false,
    "capInsets": [
      0,
      0,
      0,
      0
    ],
    "texture": "c0a9d975-fcd1-4f6e-84b4-bc74ddf01b31@6c48a",
    "packable": true
  }
}