[
    1,
    0,
    0,
    [
        [
            "cc.AudioClip",
            [
                "_name",
                "_native",
                "_duration"
            ],
            0
        ]
    ],
    [
        [
            0,
            0,
            1,
            2,
            4
        ]
    ],
    [
        [
            0,
            "scatter_appear3",
            ".mp3",
            0.574694
        ],
        -1
    ],
    0,
    0,
    [],
    [],
    []
]
