{
  "__type__": "cc.JsonAsset",
  "_name": "clientConfig",
  "_objFlags": 0,
  "_native": "",
  "json": {
    "task_groups": [
      {
        "task_group_id": 101,
        "name": "languageKey",
        "label": "new",
        "type": 0,
        "front_level": 1,
        "front_vip_level": 1,
        "front_task_group_ids": "",
        "task_ids": [
          10101,
          10102,
          10103,
          10104,
          10105,
          10106,
          10107,
          10108,
          10109,
          10110
        ],
        "task_num": 10,
        "group_score_tar": 100,
        "group_reward_map": []
      },
      {
        "task_group_id": 102,
        "name": "languageKey",
        "label": 1,
        "type": 0,
        "front_level": 1,
        "front_vip_level": 1,
        "front_task_group_ids": "",
        "task_ids": [
          10201,
          10202,
          10203,
          10204,
          10205,
          10206,
          10207,
          10208,
          10209
        ],
        "task_num": 9,
        "group_score_tar": 100,
        "group_reward_map": []
      },
      {
        "task_group_id": 201,
        "name": "languageKey",
        "label": 1,
        "type": 1,
        "front_level": 1,
        "front_vip_level": 1,
        "front_task_group_ids": "",
        "task_ids": [
          20101,
          20102,
          20103,
          20104,
          20105
        ],
        "task_num": 5,
        "group_score_tar": 100,
        "group_reward_map": [
          "40#1#10000",
          "80#1#100000",
          "100#1#200000"
        ]
      },
      {
        "task_group_id": 202,
        "name": "languageKey",
        "label": 2,
        "type": 1,
        "front_level": 10,
        "front_vip_level": 1,
        "front_task_group_ids": "",
        "task_ids": [
          20601,
          20602,
          20603,
          20604,
          20605
        ],
        "task_num": 5,
        "group_score_tar": 100,
        "group_reward_map": [
          "40#1#10000",
          "80#1#100000",
          "100#1#200000"
        ]
      },
      {
        "task_group_id": 203,
        "name": "languageKey",
        "label": 2,
        "type": 1,
        "front_level": 20,
        "front_vip_level": 2,
        "front_task_group_ids": "",
        "task_ids": [
          20701,
          20702,
          20703,
          20704,
          20705
        ],
        "task_num": 5,
        "group_score_tar": 100,
        "group_reward_map": [
          "40#1#10000",
          "80#1#100000",
          "100#1#200000"
        ]
      }
    ],
    "tasks": [
      {
        "task_id": 10101,
        "job_type": 101,
        "score": "",
        "task_tar": 2,
        "extra_list": [
          "leve#2"
        ],
        "desc": "languageKey",
        "task_reward_list": [
          "1#100",
          "101#1"
        ]
      },
      {
        "task_id": 10102,
        "job_type": 101,
        "score": "",
        "task_tar": 5,
        "extra_list": [
          "leve#5"
        ],
        "desc": "languageKey",
        "task_reward_list": [
          "1#100",
          "101#1"
        ]
      },
      {
        "task_id": 10103,
        "job_type": 101,
        "score": "",
        "task_tar": 8,
        "extra_list": [
          "leve#8"
        ],
        "desc": "languageKey",
        "task_reward_list": [
          "1#100",
          "101#1"
        ]
      },
      {
        "task_id": 10104,
        "job_type": 101,
        "score": "",
        "task_tar": 10,
        "extra_list": [
          "leve#10"
        ],
        "desc": "languageKey",
        "task_reward_list": [
          "1#100",
          "101#1"
        ]
      },
      {
        "task_id": 10105,
        "job_type": 101,
        "score": "",
        "task_tar": 15,
        "extra_list": [
          "leve#15"
        ],
        "desc": "languageKey",
        "task_reward_list": [
          "1#100",
          "101#1"
        ]
      },
      {
        "task_id": 10106,
        "job_type": 101,
        "score": "",
        "task_tar": 20,
        "extra_list": [
          "leve#20"
        ],
        "desc": "languageKey",
        "task_reward_list": [
          "1#100",
          "101#1"
        ]
      },
      {
        "task_id": 10107,
        "job_type": 101,
        "score": "",
        "task_tar": 25,
        "extra_list": [
          "leve#25"
        ],
        "desc": "languageKey",
        "task_reward_list": [
          "1#100",
          "101#1"
        ]
      },
      {
        "task_id": 10108,
        "job_type": 101,
        "score": "",
        "task_tar": 30,
        "extra_list": [
          "leve#30"
        ],
        "desc": "languageKey",
        "task_reward_list": [
          "1#100",
          "101#1"
        ]
      },
      {
        "task_id": 10109,
        "job_type": 101,
        "score": "",
        "task_tar": 40,
        "extra_list": [
          "leve#40"
        ],
        "desc": "languageKey",
        "task_reward_list": [
          "1#100",
          "101#1"
        ]
      },
      {
        "task_id": 10110,
        "job_type": 101,
        "score": "",
        "task_tar": 50,
        "extra_list": [
          "leve#50"
        ],
        "desc": "languageKey",
        "task_reward_list": [
          "1#100",
          "101#1"
        ]
      },
      {
        "task_id": 10111,
        "job_type": 101,
        "score": "",
        "task_tar": 60,
        "extra_list": [
          "leve#60"
        ],
        "desc": "languageKey",
        "task_reward_list": [
          "1#100",
          "101#1"
        ]
      },
      {
        "task_id": 10112,
        "job_type": 101,
        "score": "",
        "task_tar": 70,
        "extra_list": [
          "leve#70"
        ],
        "desc": "languageKey",
        "task_reward_list": [
          "1#100",
          "101#1"
        ]
      },
      {
        "task_id": 10113,
        "job_type": 101,
        "score": "",
        "task_tar": 80,
        "extra_list": [
          "leve#80"
        ],
        "desc": "languageKey",
        "task_reward_list": [
          "1#100",
          "101#1"
        ]
      },
      {
        "task_id": 10114,
        "job_type": 101,
        "score": "",
        "task_tar": 90,
        "extra_list": [
          "leve#90"
        ],
        "desc": "languageKey",
        "task_reward_list": [
          "1#100",
          "101#1"
        ]
      },
      {
        "task_id": 10115,
        "job_type": 101,
        "score": "",
        "task_tar": 100,
        "extra_list": [
          "leve#100"
        ],
        "desc": "languageKey",
        "task_reward_list": [
          "1#100",
          "101#1"
        ]
      },
      {
        "task_id": 10201,
        "job_type": 102,
        "score": "",
        "task_tar": 2,
        "extra_list": [
          "vip_leve#2"
        ],
        "desc": "languageKey",
        "task_reward_list": [
          "1#200",
          "102#1"
        ]
      },
      {
        "task_id": 10202,
        "job_type": 102,
        "score": "",
        "task_tar": 3,
        "extra_list": [
          "vip_leve#3"
        ],
        "desc": "languageKey",
        "task_reward_list": [
          "1#300",
          "102#2"
        ]
      },
      {
        "task_id": 10203,
        "job_type": 102,
        "score": "",
        "task_tar": 4,
        "extra_list": [
          "vip_leve#4"
        ],
        "desc": "languageKey",
        "task_reward_list": [
          "1#400",
          "102#3"
        ]
      },
      {
        "task_id": 10204,
        "job_type": 102,
        "score": "",
        "task_tar": 5,
        "extra_list": [
          "vip_leve#5"
        ],
        "desc": "languageKey",
        "task_reward_list": [
          "1#500",
          "102#4"
        ]
      },
      {
        "task_id": 10205,
        "job_type": 102,
        "score": "",
        "task_tar": 6,
        "extra_list": [
          "vip_leve#6"
        ],
        "desc": "languageKey",
        "task_reward_list": [
          "1#600",
          "102#5"
        ]
      },
      {
        "task_id": 10206,
        "job_type": 102,
        "score": "",
        "task_tar": 7,
        "extra_list": [
          "vip_leve#7"
        ],
        "desc": "languageKey",
        "task_reward_list": [
          "1#700",
          "102#6"
        ]
      },
      {
        "task_id": 10207,
        "job_type": 102,
        "score": "",
        "task_tar": 8,
        "extra_list": [
          "vip_leve#8"
        ],
        "desc": "languageKey",
        "task_reward_list": [
          "1#800",
          "102#7"
        ]
      },
      {
        "task_id": 10208,
        "job_type": 102,
        "score": "",
        "task_tar": 9,
        "extra_list": [
          "vip_leve#9"
        ],
        "desc": "languageKey",
        "task_reward_list": [
          "1#900",
          "102#8"
        ]
      },
      {
        "task_id": 20101,
        "job_type": 201,
        "score": "",
        "task_tar": 1,
        "extra_list": [
          "reason#coin_buy",
          "triggercount#1"
        ],
        "desc": "languageKey",
        "task_reward_list": [
          "1#10000",
          "201#1"
        ]
      },
      {
        "task_id": 20102,
        "job_type": 201,
        "score": "",
        "task_tar": 2,
        "extra_list": [
          "reason#coin_buy",
          "triggercount#2"
        ],
        "desc": "languageKey",
        "task_reward_list": [
          "1#20000",
          "201#2"
        ]
      },
      {
        "task_id": 20103,
        "job_type": 201,
        "score": "",
        "task_tar": 3,
        "extra_list": [
          "reason#coin_buy",
          "triggercount#3"
        ],
        "desc": "languageKey",
        "task_reward_list": [
          "1#30000",
          "201#3"
        ]
      },
      {
        "task_id": 20104,
        "job_type": 201,
        "score": "",
        "task_tar": 4,
        "extra_list": [
          "reason#coin_buy",
          "triggercount#4"
        ],
        "desc": "languageKey",
        "task_reward_list": [
          "1#40000",
          "201#4"
        ]
      },
      {
        "task_id": 20105,
        "job_type": 201,
        "score": "",
        "task_tar": 5,
        "extra_list": [
          "reason#coin_buy",
          "triggercount#5"
        ],
        "desc": "languageKey",
        "task_reward_list": [
          "1#50000",
          "201#5"
        ]
      },
      {
        "task_id": 20601,
        "job_type": 206,
        "score": "",
        "task_tar": "",
        "extra_list": [
          "game_id#101",
          "triggersum#10000"
        ],
        "desc": "languageKey",
        "task_reward_list": [
          "1#10000",
          "301#1"
        ]
      },
      {
        "task_id": 20602,
        "job_type": 206,
        "score": "",
        "task_tar": "",
        "extra_list": [
          "game_id#101",
          "triggersum#50000"
        ],
        "desc": "languageKey",
        "task_reward_list": [
          "1#20000",
          "301#2"
        ]
      },
      {
        "task_id": 20603,
        "job_type": 206,
        "score": "",
        "task_tar": "",
        "extra_list": [
          "game_id#101",
          "triggersum#100000"
        ],
        "desc": "languageKey",
        "task_reward_list": [
          "1#30000",
          "301#3"
        ]
      },
      {
        "task_id": 20604,
        "job_type": 206,
        "score": "",
        "task_tar": "",
        "extra_list": [
          "game_id#101",
          "triggersum#500000"
        ],
        "desc": "languageKey",
        "task_reward_list": [
          "1#40000",
          "301#4"
        ]
      },
      {
        "task_id": 20605,
        "job_type": 206,
        "score": "",
        "task_tar": "",
        "extra_list": [
          "game_id#101",
          "triggersum#1000000"
        ],
        "desc": "languageKey",
        "task_reward_list": [
          "1#50000",
          "301#5"
        ]
      },
      {
        "task_id": 20701,
        "job_type": 207,
        "score": "",
        "task_tar": "",
        "extra_list": [
          "game_id#102",
          "slots_rate#500",
          "triggersum#10000"
        ],
        "desc": "languageKey",
        "task_reward_list": [
          "1#10000",
          "301#6"
        ]
      },
      {
        "task_id": 20702,
        "job_type": 207,
        "score": "",
        "task_tar": "",
        "extra_list": [
          "game_id#102",
          "slots_rate#500",
          "triggersum#50000"
        ],
        "desc": "languageKey",
        "task_reward_list": [
          "1#20000",
          "301#7"
        ]
      },
      {
        "task_id": 20703,
        "job_type": 207,
        "score": "",
        "task_tar": "",
        "extra_list": [
          "game_id#102",
          "slots_rate#500",
          "triggersum#100000"
        ],
        "desc": "languageKey",
        "task_reward_list": [
          "1#30000",
          "301#8"
        ]
      },
      {
        "task_id": 20704,
        "job_type": 207,
        "score": "",
        "task_tar": "",
        "extra_list": [
          "game_id#102",
          "slots_rate#500",
          "triggersum#500000"
        ],
        "desc": "languageKey",
        "task_reward_list": [
          "1#40000",
          "301#9"
        ]
      },
      {
        "task_id": 20705,
        "job_type": 207,
        "score": "",
        "task_tar": "",
        "extra_list": [
          "game_id#102",
          "slots_rate#500",
          "triggersum#1000000"
        ],
        "desc": "languageKey",
        "task_reward_list": [
          "1#50000",
          "301#10"
        ]
      }
    ],
    "items": [
      {
        "item_id": 1011,
        "name": "languageKey",
        "desc": "languageKey",
        "detail": "languageKey",
        "label": "slots",
        "func_type": "game_card",
        "transfer": "",
        "quality": 1,
        "game_id": 101,
        "func_param": [
          "1#10"
        ]
      },
      {
        "item_id": 1012,
        "name": "languageKey",
        "desc": "languageKey",
        "detail": "languageKey",
        "label": "slots",
        "func_type": "game_card",
        "transfer": "",
        "quality": 2,
        "game_id": 101,
        "func_param": [
          "2#50"
        ]
      },
      {
        "item_id": 1013,
        "name": "languageKey",
        "desc": "languageKey",
        "detail": "languageKey",
        "label": "slots",
        "func_type": "game_card",
        "transfer": "",
        "quality": 3,
        "game_id": 101,
        "func_param": [
          "3#100"
        ]
      },
      {
        "item_id": 1014,
        "name": "languageKey",
        "desc": "languageKey",
        "detail": "languageKey",
        "label": "slots",
        "func_type": "game_card",
        "transfer": "",
        "quality": 4,
        "game_id": 101,
        "func_param": [
          "4#500"
        ]
      },
      {
        "item_id": 1015,
        "name": "languageKey",
        "desc": "languageKey",
        "detail": "languageKey",
        "label": "slots",
        "func_type": "game_card",
        "transfer": "",
        "quality": 5,
        "game_id": 101,
        "func_param": [
          "5#3000"
        ]
      },
      {
        "item_id": 1021,
        "name": "languageKey",
        "desc": "languageKey",
        "detail": "languageKey",
        "label": "slots",
        "func_type": "game_card",
        "transfer": "",
        "quality": 1,
        "game_id": 102,
        "func_param": [
          "1#10"
        ]
      },
      {
        "item_id": 1022,
        "name": "languageKey",
        "desc": "languageKey",
        "detail": "languageKey",
        "label": "slots",
        "func_type": "game_card",
        "transfer": "",
        "quality": 2,
        "game_id": 102,
        "func_param": [
          "2#50"
        ]
      },
      {
        "item_id": 1023,
        "name": "languageKey",
        "desc": "languageKey",
        "detail": "languageKey",
        "label": "slots",
        "func_type": "game_card",
        "transfer": "",
        "quality": 3,
        "game_id": 102,
        "func_param": [
          "3#100"
        ]
      },
      {
        "item_id": 1024,
        "name": "languageKey",
        "desc": "languageKey",
        "detail": "languageKey",
        "label": "slots",
        "func_type": "game_card",
        "transfer": "",
        "quality": 4,
        "game_id": 102,
        "func_param": [
          "4#500"
        ]
      },
      {
        "item_id": 1025,
        "name": "languageKey",
        "desc": "languageKey",
        "detail": "languageKey",
        "label": "slots",
        "func_type": "game_card",
        "transfer": "",
        "quality": 5,
        "game_id": 102,
        "func_param": [
          "5#3000"
        ]
      },
      {
        "item_id": 1031,
        "name": "languageKey",
        "desc": "languageKey",
        "detail": "languageKey",
        "label": "slots",
        "func_type": "game_card",
        "transfer": "",
        "quality": 1,
        "game_id": 103,
        "func_param": [
          "1#10"
        ]
      },
      {
        "item_id": 1032,
        "name": "languageKey",
        "desc": "languageKey",
        "detail": "languageKey",
        "label": "slots",
        "func_type": "game_card",
        "transfer": "",
        "quality": 2,
        "game_id": 103,
        "func_param": [
          "2#50"
        ]
      },
      {
        "item_id": 1033,
        "name": "languageKey",
        "desc": "languageKey",
        "detail": "languageKey",
        "label": "slots",
        "func_type": "game_card",
        "transfer": "",
        "quality": 3,
        "game_id": 103,
        "func_param": [
          "3#100"
        ]
      },
      {
        "item_id": 1034,
        "name": "languageKey",
        "desc": "languageKey",
        "detail": "languageKey",
        "label": "slots",
        "func_type": "game_card",
        "transfer": "",
        "quality": 4,
        "game_id": 103,
        "func_param": [
          "4#500"
        ]
      },
      {
        "item_id": 1035,
        "name": "languageKey",
        "desc": "languageKey",
        "detail": "languageKey",
        "label": "slots",
        "func_type": "game_card",
        "transfer": "",
        "quality": 5,
        "game_id": 103,
        "func_param": [
          "5#3000"
        ]
      },
      {
        "item_id": 9001,
        "name": "languageKey",
        "desc": "languageKey",
        "detail": "languageKey",
        "label": "box",
        "func_type": "box",
        "transfer": 1,
        "quality": "",
        "game_id": "",
        "func_param": [
          "1#1000000",
          "2#1000",
          "9101#1"
        ]
      },
      {
        "item_id": 9002,
        "name": "languageKey",
        "desc": "languageKey",
        "detail": "languageKey",
        "label": "box",
        "func_type": "box",
        "transfer": 1,
        "quality": "",
        "game_id": "",
        "func_param": [
          "1#10000000",
          "2#2000",
          "9101#2"
        ]
      },
      {
        "item_id": 9003,
        "name": "languageKey",
        "desc": "languageKey",
        "detail": "languageKey",
        "label": "box",
        "func_type": "box",
        "transfer": 1,
        "quality": "",
        "game_id": "",
        "func_param": [
          "1#100000000",
          "2#3000",
          "9101#3"
        ]
      },
      {
        "item_id": 9101,
        "name": "languageKey",
        "desc": "languageKey",
        "detail": "languageKey",
        "label": "frag",
        "func_type": "game_card_frag",
        "transfer": "",
        "quality": 1,
        "game_id": "",
        "func_param": [
          10
        ]
      },
      {
        "item_id": 9102,
        "name": "languageKey",
        "desc": "languageKey",
        "detail": "languageKey",
        "label": "frag",
        "func_type": "game_card_frag",
        "transfer": "",
        "quality": 2,
        "game_id": "",
        "func_param": [
          20
        ]
      },
      {
        "item_id": 9103,
        "name": "languageKey",
        "desc": "languageKey",
        "detail": "languageKey",
        "label": "frag",
        "func_type": "game_card_frag",
        "transfer": "",
        "quality": 3,
        "game_id": "",
        "func_param": [
          50
        ]
      },
      {
        "item_id": 9104,
        "name": "languageKey",
        "desc": "languageKey",
        "detail": "languageKey",
        "label": "frag",
        "func_type": "game_card_frag",
        "transfer": "",
        "quality": 4,
        "game_id": "",
        "func_param": [
          100
        ]
      },
      {
        "item_id": 9105,
        "name": "languageKey",
        "desc": "languageKey",
        "detail": "languageKey",
        "label": "frag",
        "func_type": "game_card_frag",
        "transfer": "",
        "quality": 5,
        "game_id": "",
        "func_param": [
          200
        ]
      },
      {
        "item_id": 9201,
        "name": "languageKey",
        "desc": "languageKey",
        "detail": "languageKey",
        "label": "gift",
        "func_type": "gift_a",
        "transfer": 1,
        "quality": "",
        "game_id": "",
        "func_param": [
          "1#10#50",
          "2#10#50"
        ]
      },
      {
        "item_id": 9202,
        "name": "languageKey",
        "desc": "languageKey",
        "detail": "languageKey",
        "label": "gift",
        "func_type": "gift_a",
        "transfer": 1,
        "quality": "",
        "game_id": "",
        "func_param": [
          "1#20#80",
          "2#20#80"
        ]
      },
      {
        "item_id": 9203,
        "name": "languageKey",
        "desc": "languageKey",
        "detail": "languageKey",
        "label": "gift",
        "func_type": "gift_a",
        "transfer": 1,
        "quality": "",
        "game_id": "",
        "func_param": [
          "1#50#100",
          "2#50#100"
        ]
      },
      {
        "item_id": 9204,
        "name": "languageKey",
        "desc": "languageKey",
        "detail": "languageKey",
        "label": "gift",
        "func_type": "gift_a",
        "transfer": 1,
        "quality": "",
        "game_id": "",
        "func_param": [
          "1#100#500",
          "2#100#500"
        ]
      },
      {
        "item_id": 9205,
        "name": "languageKey",
        "desc": "languageKey",
        "detail": "languageKey",
        "label": "gift",
        "func_type": "gift_a",
        "transfer": 1,
        "quality": "",
        "game_id": "",
        "func_param": [
          "1#500#1000",
          "2#500#1000"
        ]
      }
    ],
    "levels": [
      {
        "level": 1,
        "exp": 0,
        "max_bet": 10,
        "rewards": [
          "1#100",
          "101#1"
        ],
        "exp_a": 120
      },
      {
        "level": 2,
        "exp": 100,
        "max_bet": 10,
        "rewards": [
          "1#100",
          "101#1"
        ],
        "exp_a": 120
      },
      {
        "level": 3,
        "exp": 200,
        "max_bet": 10,
        "rewards": [
          "1#100",
          "101#1"
        ],
        "exp_a": 120
      },
      {
        "level": 4,
        "exp": 300,
        "max_bet": 10,
        "rewards": [
          "1#100",
          "101#1"
        ],
        "exp_a": 120
      },
      {
        "level": 5,
        "exp": 400,
        "max_bet": 10,
        "rewards": [
          "1#100",
          "101#1"
        ],
        "exp_a": 120
      },
      {
        "level": 6,
        "exp": 500,
        "max_bet": 20,
        "rewards": [
          "1#100",
          "101#1"
        ],
        "exp_a": 120
      },
      {
        "level": 7,
        "exp": 600,
        "max_bet": 20,
        "rewards": [
          "1#100",
          "101#1"
        ],
        "exp_a": 120
      },
      {
        "level": 8,
        "exp": 700,
        "max_bet": 20,
        "rewards": [
          "1#100",
          "101#1"
        ],
        "exp_a": 120
      },
      {
        "level": 9,
        "exp": 800,
        "max_bet": 20,
        "rewards": [
          "1#100",
          "101#1"
        ],
        "exp_a": 120
      },
      {
        "level": 10,
        "exp": 900,
        "max_bet": 20,
        "rewards": [
          "1#100",
          "101#1"
        ],
        "exp_a": 120
      },
      {
        "level": 11,
        "exp": 1000,
        "max_bet": 50,
        "rewards": [
          "1#100",
          "101#1"
        ],
        "exp_a": 120
      },
      {
        "level": 12,
        "exp": 1100,
        "max_bet": 50,
        "rewards": [
          "1#100",
          "101#1"
        ],
        "exp_a": 120
      },
      {
        "level": 13,
        "exp": 1200,
        "max_bet": 50,
        "rewards": [
          "1#100",
          "101#1"
        ],
        "exp_a": 120
      },
      {
        "level": 14,
        "exp": 1300,
        "max_bet": 50,
        "rewards": [
          "1#100",
          "101#1"
        ],
        "exp_a": 120
      },
      {
        "level": 15,
        "exp": 1400,
        "max_bet": 50,
        "rewards": [
          "1#100",
          "101#1"
        ],
        "exp_a": 120
      },
      {
        "level": 16,
        "exp": 1500,
        "max_bet": 50,
        "rewards": [
          "1#100",
          "101#1"
        ],
        "exp_a": 120
      },
      {
        "level": 17,
        "exp": 1600,
        "max_bet": 50,
        "rewards": [
          "1#100",
          "101#1"
        ],
        "exp_a": 120
      },
      {
        "level": 18,
        "exp": 1700,
        "max_bet": 50,
        "rewards": [
          "1#100",
          "101#1"
        ],
        "exp_a": 120
      },
      {
        "level": 19,
        "exp": 1800,
        "max_bet": 50,
        "rewards": [
          "1#100",
          "101#1"
        ],
        "exp_a": 120
      },
      {
        "level": 20,
        "exp": 1900,
        "max_bet": 50,
        "rewards": [
          "1#100",
          "101#1"
        ],
        "exp_a": 120
      },
      {
        "level": 21,
        "exp": 2000,
        "max_bet": 100,
        "rewards": [
          "1#100",
          "101#1"
        ],
        "exp_a": 120
      },
      {
        "level": 22,
        "exp": 2100,
        "max_bet": 100,
        "rewards": [
          "1#100",
          "101#1"
        ],
        "exp_a": 120
      },
      {
        "level": 23,
        "exp": 2200,
        "max_bet": 100,
        "rewards": [
          "1#100",
          "101#1"
        ],
        "exp_a": 120
      },
      {
        "level": 24,
        "exp": 2300,
        "max_bet": 100,
        "rewards": [
          "1#100",
          "101#1"
        ],
        "exp_a": 120
      },
      {
        "level": 25,
        "exp": 2400,
        "max_bet": 100,
        "rewards": [
          "1#100",
          "101#1"
        ],
        "exp_a": 120
      },
      {
        "level": 26,
        "exp": 2500,
        "max_bet": 100,
        "rewards": [
          "1#100",
          "101#1"
        ],
        "exp_a": 120
      },
      {
        "level": 27,
        "exp": 2600,
        "max_bet": 100,
        "rewards": [
          "1#100",
          "101#1"
        ],
        "exp_a": 120
      },
      {
        "level": 28,
        "exp": 2700,
        "max_bet": 100,
        "rewards": [
          "1#100",
          "101#1"
        ],
        "exp_a": 120
      },
      {
        "level": 29,
        "exp": 2800,
        "max_bet": 100,
        "rewards": [
          "1#100",
          "101#1"
        ],
        "exp_a": 120
      },
      {
        "level": 30,
        "exp": 2900,
        "max_bet": 100,
        "rewards": [
          "1#100",
          "101#1"
        ],
        "exp_a": 120
      },
      {
        "level": 31,
        "exp": 3000,
        "max_bet": 200,
        "rewards": [
          "1#100",
          "101#1"
        ],
        "exp_a": 120
      },
      {
        "level": 32,
        "exp": 3100,
        "max_bet": 200,
        "rewards": [
          "1#100",
          "101#1"
        ],
        "exp_a": 120
      },
      {
        "level": 33,
        "exp": 3200,
        "max_bet": 200,
        "rewards": [
          "1#100",
          "101#1"
        ],
        "exp_a": 120
      },
      {
        "level": 34,
        "exp": 3300,
        "max_bet": 200,
        "rewards": [
          "1#100",
          "101#1"
        ],
        "exp_a": 120
      },
      {
        "level": 35,
        "exp": 3400,
        "max_bet": 200,
        "rewards": [
          "1#100",
          "101#1"
        ],
        "exp_a": 120
      },
      {
        "level": 36,
        "exp": 3500,
        "max_bet": 200,
        "rewards": [
          "1#100",
          "101#1"
        ],
        "exp_a": 120
      },
      {
        "level": 37,
        "exp": 3600,
        "max_bet": 200,
        "rewards": [
          "1#100",
          "101#1"
        ],
        "exp_a": 120
      },
      {
        "level": 38,
        "exp": 3700,
        "max_bet": 200,
        "rewards": [
          "1#100",
          "101#1"
        ],
        "exp_a": 120
      },
      {
        "level": 39,
        "exp": 3800,
        "max_bet": 200,
        "rewards": [
          "1#100",
          "101#1"
        ],
        "exp_a": 120
      },
      {
        "level": 40,
        "exp": 3900,
        "max_bet": 200,
        "rewards": [
          "1#100",
          "101#1"
        ],
        "exp_a": 120
      },
      {
        "level": 41,
        "exp": 4000,
        "max_bet": 500,
        "rewards": [
          "1#100",
          "101#1"
        ],
        "exp_a": 120
      },
      {
        "level": 42,
        "exp": 4100,
        "max_bet": 500,
        "rewards": [
          "1#100",
          "101#1"
        ],
        "exp_a": 120
      },
      {
        "level": 43,
        "exp": 4200,
        "max_bet": 500,
        "rewards": [
          "1#100",
          "101#1"
        ],
        "exp_a": 120
      },
      {
        "level": 44,
        "exp": 4300,
        "max_bet": 500,
        "rewards": [
          "1#100",
          "101#1"
        ],
        "exp_a": 120
      },
      {
        "level": 45,
        "exp": 4400,
        "max_bet": 500,
        "rewards": [
          "1#100",
          "101#1"
        ],
        "exp_a": 120
      },
      {
        "level": 46,
        "exp": 4500,
        "max_bet": 500,
        "rewards": [
          "1#100",
          "101#1"
        ],
        "exp_a": 120
      },
      {
        "level": 47,
        "exp": 4600,
        "max_bet": 500,
        "rewards": [
          "1#100",
          "101#1"
        ],
        "exp_a": 120
      },
      {
        "level": 48,
        "exp": 4700,
        "max_bet": 500,
        "rewards": [
          "1#100",
          "101#1"
        ],
        "exp_a": 120
      },
      {
        "level": 49,
        "exp": 4800,
        "max_bet": 500,
        "rewards": [
          "1#100",
          "101#1"
        ],
        "exp_a": 120
      },
      {
        "level": 50,
        "exp": 4900,
        "max_bet": 500,
        "rewards": [
          "1#100",
          "101#1"
        ],
        "exp_a": 120
      },
      {
        "level": 51,
        "exp": 5000,
        "max_bet": 500,
        "rewards": [
          "1#100",
          "101#1"
        ],
        "exp_a": 120
      },
      {
        "level": 52,
        "exp": 5100,
        "max_bet": 500,
        "rewards": [
          "1#100",
          "101#1"
        ],
        "exp_a": 120
      },
      {
        "level": 53,
        "exp": 5200,
        "max_bet": 500,
        "rewards": [
          "1#100",
          "101#1"
        ],
        "exp_a": 120
      },
      {
        "level": 54,
        "exp": 5300,
        "max_bet": 500,
        "rewards": [
          "1#100",
          "101#1"
        ],
        "exp_a": 120
      },
      {
        "level": 55,
        "exp": 5400,
        "max_bet": 500,
        "rewards": [
          "1#100",
          "101#1"
        ],
        "exp_a": 120
      },
      {
        "level": 56,
        "exp": 5500,
        "max_bet": 500,
        "rewards": [
          "1#100",
          "101#1"
        ],
        "exp_a": 120
      },
      {
        "level": 57,
        "exp": 5600,
        "max_bet": 500,
        "rewards": [
          "1#100",
          "101#1"
        ],
        "exp_a": 120
      },
      {
        "level": 58,
        "exp": 5700,
        "max_bet": 500,
        "rewards": [
          "1#100",
          "101#1"
        ],
        "exp_a": 120
      },
      {
        "level": 59,
        "exp": 5800,
        "max_bet": 500,
        "rewards": [
          "1#100",
          "101#1"
        ],
        "exp_a": 120
      },
      {
        "level": 60,
        "exp": 5900,
        "max_bet": 500,
        "rewards": [
          "1#100",
          "101#1"
        ],
        "exp_a": 120
      },
      {
        "level": 61,
        "exp": 6000,
        "max_bet": 1000,
        "rewards": [
          "1#100",
          "101#1"
        ],
        "exp_a": 120
      },
      {
        "level": 62,
        "exp": 6100,
        "max_bet": 1000,
        "rewards": [
          "1#100",
          "101#1"
        ],
        "exp_a": 120
      },
      {
        "level": 63,
        "exp": 6200,
        "max_bet": 1000,
        "rewards": [
          "1#100",
          "101#1"
        ],
        "exp_a": 120
      },
      {
        "level": 64,
        "exp": 6300,
        "max_bet": 1000,
        "rewards": [
          "1#100",
          "101#1"
        ],
        "exp_a": 120
      },
      {
        "level": 65,
        "exp": 6400,
        "max_bet": 1000,
        "rewards": [
          "1#100",
          "101#1"
        ],
        "exp_a": 120
      },
      {
        "level": 66,
        "exp": 6500,
        "max_bet": 1000,
        "rewards": [
          "1#100",
          "101#1"
        ],
        "exp_a": 120
      },
      {
        "level": 67,
        "exp": 6600,
        "max_bet": 1000,
        "rewards": [
          "1#100",
          "101#1"
        ],
        "exp_a": 120
      },
      {
        "level": 68,
        "exp": 6700,
        "max_bet": 1000,
        "rewards": [
          "1#100",
          "101#1"
        ],
        "exp_a": 120
      },
      {
        "level": 69,
        "exp": 6800,
        "max_bet": 1000,
        "rewards": [
          "1#100",
          "101#1"
        ],
        "exp_a": 120
      },
      {
        "level": 70,
        "exp": 6900,
        "max_bet": 1000,
        "rewards": [
          "1#100",
          "101#1"
        ],
        "exp_a": 120
      },
      {
        "level": 71,
        "exp": 7000,
        "max_bet": 1000,
        "rewards": [
          "1#100",
          "101#1"
        ],
        "exp_a": 120
      },
      {
        "level": 72,
        "exp": 7100,
        "max_bet": 1000,
        "rewards": [
          "1#100",
          "101#1"
        ],
        "exp_a": 120
      },
      {
        "level": 73,
        "exp": 7200,
        "max_bet": 1000,
        "rewards": [
          "1#100",
          "101#1"
        ],
        "exp_a": 120
      },
      {
        "level": 74,
        "exp": 7300,
        "max_bet": 1000,
        "rewards": [
          "1#100",
          "101#1"
        ],
        "exp_a": 120
      },
      {
        "level": 75,
        "exp": 7400,
        "max_bet": 1000,
        "rewards": [
          "1#100",
          "101#1"
        ],
        "exp_a": 120
      },
      {
        "level": 76,
        "exp": 7500,
        "max_bet": 1000,
        "rewards": [
          "1#100",
          "101#1"
        ],
        "exp_a": 120
      },
      {
        "level": 77,
        "exp": 7600,
        "max_bet": 1000,
        "rewards": [
          "1#100",
          "101#1"
        ],
        "exp_a": 120
      },
      {
        "level": 78,
        "exp": 7700,
        "max_bet": 1000,
        "rewards": [
          "1#100",
          "101#1"
        ],
        "exp_a": 120
      },
      {
        "level": 79,
        "exp": 7800,
        "max_bet": 1000,
        "rewards": [
          "1#100",
          "101#1"
        ],
        "exp_a": 120
      },
      {
        "level": 80,
        "exp": 7900,
        "max_bet": 1000,
        "rewards": [
          "1#100",
          "101#1"
        ],
        "exp_a": 120
      },
      {
        "level": 81,
        "exp": 8000,
        "max_bet": 1000,
        "rewards": [
          "1#100",
          "101#1"
        ],
        "exp_a": 120
      },
      {
        "level": 82,
        "exp": 8100,
        "max_bet": 1000,
        "rewards": [
          "1#100",
          "101#1"
        ],
        "exp_a": 120
      },
      {
        "level": 83,
        "exp": 8200,
        "max_bet": 1000,
        "rewards": [
          "1#100",
          "101#1"
        ],
        "exp_a": 120
      },
      {
        "level": 84,
        "exp": 8300,
        "max_bet": 1000,
        "rewards": [
          "1#100",
          "101#1"
        ],
        "exp_a": 120
      },
      {
        "level": 85,
        "exp": 8400,
        "max_bet": 1000,
        "rewards": [
          "1#100",
          "101#1"
        ],
        "exp_a": 120
      },
      {
        "level": 86,
        "exp": 8500,
        "max_bet": 1000,
        "rewards": [
          "1#100",
          "101#1"
        ],
        "exp_a": 120
      },
      {
        "level": 87,
        "exp": 8600,
        "max_bet": 1000,
        "rewards": [
          "1#100",
          "101#1"
        ],
        "exp_a": 120
      },
      {
        "level": 88,
        "exp": 8700,
        "max_bet": 1000,
        "rewards": [
          "1#100",
          "101#1"
        ],
        "exp_a": 120
      },
      {
        "level": 89,
        "exp": 8800,
        "max_bet": 1000,
        "rewards": [
          "1#100",
          "101#1"
        ],
        "exp_a": 120
      },
      {
        "level": 90,
        "exp": 8900,
        "max_bet": 1000,
        "rewards": [
          "1#100",
          "101#1"
        ],
        "exp_a": 120
      },
      {
        "level": 91,
        "exp": 9000,
        "max_bet": 1000,
        "rewards": [
          "1#100",
          "101#1"
        ],
        "exp_a": 120
      },
      {
        "level": 92,
        "exp": 9100,
        "max_bet": 1000,
        "rewards": [
          "1#100",
          "101#1"
        ],
        "exp_a": 120
      },
      {
        "level": 93,
        "exp": 9200,
        "max_bet": 1000,
        "rewards": [
          "1#100",
          "101#1"
        ],
        "exp_a": 120
      },
      {
        "level": 94,
        "exp": 9300,
        "max_bet": 1000,
        "rewards": [
          "1#100",
          "101#1"
        ],
        "exp_a": 120
      },
      {
        "level": 95,
        "exp": 9400,
        "max_bet": 1000,
        "rewards": [
          "1#100",
          "101#1"
        ],
        "exp_a": 120
      },
      {
        "level": 96,
        "exp": 9500,
        "max_bet": 1000,
        "rewards": [
          "1#100",
          "101#1"
        ],
        "exp_a": 120
      },
      {
        "level": 97,
        "exp": 9600,
        "max_bet": 1000,
        "rewards": [
          "1#100",
          "101#1"
        ],
        "exp_a": 120
      },
      {
        "level": 98,
        "exp": 9700,
        "max_bet": 1000,
        "rewards": [
          "1#100",
          "101#1"
        ],
        "exp_a": 120
      },
      {
        "level": 99,
        "exp": 9800,
        "max_bet": 1000,
        "rewards": [
          "1#100",
          "101#1"
        ],
        "exp_a": 120
      },
      {
        "level": 100,
        "exp": 9900,
        "max_bet": 1000,
        "rewards": [
          "1#100",
          "101#1"
        ],
        "exp_a": 120
      }
    ],
    "vip_levels": [
      {
        "vip_level": 1,
        "vip_exp": 100,
        "max_bet": 10,
        "max_draw": 1,
        "rewards": [
          "1#100",
          "101#1"
        ],
        "exp_b": 100,
        "per_exp_a": 0
      },
      {
        "vip_level": 2,
        "vip_exp": 200,
        "max_bet": 100,
        "max_draw": 2,
        "rewards": [
          "1#100",
          "101#1"
        ],
        "exp_b": 200,
        "per_exp_a": 100
      },
      {
        "vip_level": 3,
        "vip_exp": 300,
        "max_bet": 1000,
        "max_draw": 3,
        "exp_b": 200,
        "per_exp_a": 100,
        "rewards": []
      },
      {
        "vip_level": 4,
        "vip_exp": 400,
        "max_bet": 10000,
        "max_draw": 4,
        "exp_b": 200,
        "per_exp_a": 100,
        "rewards": []
      },
      {
        "vip_level": 5,
        "vip_exp": 500,
        "max_bet": 10000,
        "max_draw": 5,
        "exp_b": 200,
        "per_exp_a": 100,
        "rewards": []
      },
      {
        "vip_level": 6,
        "vip_exp": 600,
        "max_bet": 10000,
        "max_draw": 6,
        "exp_b": 200,
        "per_exp_a": 100,
        "rewards": []
      },
      {
        "vip_level": 7,
        "vip_exp": 700,
        "max_bet": 10000,
        "max_draw": 7,
        "exp_b": 200,
        "per_exp_a": 100,
        "rewards": []
      },
      {
        "vip_level": 8,
        "vip_exp": 800,
        "max_bet": 10000,
        "max_draw": 8,
        "exp_b": 200,
        "per_exp_a": 100,
        "rewards": []
      },
      {
        "vip_level": 9,
        "vip_exp": 900,
        "max_bet": 10000,
        "max_draw": 9,
        "exp_b": 200,
        "per_exp_a": 100,
        "rewards": []
      }
    ],
    "per_levels": [
      {
        "per_level": 1,
        "per_exp": 10000,
        "per_exp_b": 100
      },
      {
        "per_level": 2,
        "per_exp": 20000,
        "per_exp_b": 100
      },
      {
        "per_level": 3,
        "per_exp": 30000,
        "per_exp_b": 100
      },
      {
        "per_level": 4,
        "per_exp": 40000,
        "per_exp_b": 100
      },
      {
        "per_level": 5,
        "per_exp": 50000,
        "per_exp_b": 100
      },
      {
        "per_level": 6,
        "per_exp": 60000,
        "per_exp_b": 100
      },
      {
        "per_level": 7,
        "per_exp": 70000,
        "per_exp_b": 100
      },
      {
        "per_level": 8,
        "per_exp": 80000,
        "per_exp_b": 100
      },
      {
        "per_level": 9,
        "per_exp": 90000,
        "per_exp_b": 100
      },
      {
        "per_level": 10,
        "per_exp": 100000,
        "per_exp_b": 100
      }
    ],
    "games": [
      {
        "game_id": 101,
        "game_name": "Medusa",
        "bet_multiple": 50,
        "vip_limit": 0,
        "pos_seq": 0,
        "orition": 0,
        "resolution": "756,1638",
        "is_hot": 0
      },
      {
        "game_id": 102,
        "game_name": "FuXingGaoZhao",
        "bet_multiple": 88,
        "vip_limit": 0,
        "pos_seq": 1,
        "orition": 0,
        "resolution": "756,1638",
        "is_hot": 1
      },
      {
        "game_id": 103,
        "game_name": "Easter",
        "bet_multiple": 100,
        "vip_limit": 0,
        "pos_seq": 2,
        "orition": 0,
        "resolution": "756,1638",
        "is_hot": 0
      },
      {
        "game_id": 104,
        "game_name": "FireSpin",
        "bet_multiple": 50,
        "vip_limit": 0,
        "pos_seq": 3,
        "orition": 0,
        "resolution": "756,1638",
        "is_hot": 0
      },
      {
        "game_id": 105,
        "game_name": "Samba",
        "bet_multiple": 50,
        "vip_limit": 0,
        "pos_seq": 4,
        "orition": 0,
        "resolution": "756,1638",
        "is_hot": 0
      },
      {
        "game_id": 106,
        "game_name": "MoneyMage",
        "bet_multiple": 50,
        "vip_limit": 0,
        "pos_seq": 5,
        "orition": 0,
        "resolution": "756,1638",
        "is_hot": 0
      },
      {
        "game_id": 107,
        "game_name": "Luckycat",
        "bet_multiple": 40,
        "vip_limit": 0,
        "pos_seq": 6,
        "orition": 0,
        "resolution": "756,1638",
        "is_hot": 0
      },
      {
        "game_id": 108,
        "game_name": "WuFuLinMen",
        "bet_multiple": 88,
        "vip_limit": 0,
        "pos_seq": 7,
        "orition": 0,
        "resolution": "756,1638",
        "is_hot": 0
      },
      {
        "game_id": 109,
        "game_name": "Hercules",
        "bet_multiple": 50,
        "vip_limit": 0,
        "pos_seq": 8,
        "orition": 0,
        "resolution": "756,1638",
        "is_hot": 0
      },
      {
        "game_id": 110,
        "game_name": "HomerunBaseball",
        "bet_multiple": 25,
        "vip_limit": 0,
        "pos_seq": 9,
        "orition": 0,
        "resolution": "756,1638",
        "is_hot": 0
      },
      {
        "game_id": 111,
        "game_name": "bikini",
        "bet_multiple": 25,
        "vip_limit": 0,
        "pos_seq": 10,
        "orition": 1,
        "resolution": "756,1638",
        "is_hot": 1
      },
      {
        "game_id": 112,
        "game_name": "ganeshagold",
        "bet_multiple": 88,
        "vip_limit": 0,
        "pos_seq": 11,
        "orition": 1,
        "resolution": "756,1638",
        "is_hot": 0
      },
      {
        "game_id": 113,
        "game_name": "113",
        "bet_multiple": 50,
        "vip_limit": 9,
        "pos_seq": 12,
        "orition": 1,
        "resolution": "756,1638",
        "is_hot": 0
      },
      {
        "game_id": 114,
        "game_name": "114",
        "bet_multiple": 50,
        "vip_limit": 9,
        "pos_seq": 13,
        "orition": 1,
        "resolution": "756,1638",
        "is_hot": 0
      },
      {
        "game_id": 115,
        "game_name": "115",
        "bet_multiple": 50,
        "vip_limit": 9,
        "pos_seq": 14,
        "orition": 1,
        "resolution": "756,1638",
        "is_hot": 0
      },
      {
        "game_id": 116,
        "game_name": "116",
        "bet_multiple": 50,
        "vip_limit": 9,
        "pos_seq": 15,
        "orition": 1,
        "resolution": "756,1638",
        "is_hot": 0
      },
      {
        "game_id": 117,
        "game_name": "117",
        "bet_multiple": 50,
        "vip_limit": 9,
        "pos_seq": 16,
        "orition": 1,
        "resolution": "756,1638",
        "is_hot": 0
      },
      {
        "game_id": 118,
        "game_name": "118",
        "bet_multiple": 50,
        "vip_limit": 9,
        "pos_seq": 17,
        "orition": 1,
        "resolution": "756,1638",
        "is_hot": 0
      },
      {
        "game_id": 119,
        "game_name": "119",
        "bet_multiple": 50,
        "vip_limit": 9,
        "pos_seq": 18,
        "orition": 1,
        "resolution": "756,1638",
        "is_hot": 0
      },
      {
        "game_id": 120,
        "game_name": "120",
        "bet_multiple": 50,
        "vip_limit": 9,
        "pos_seq": 19,
        "orition": 1,
        "resolution": "756,1638",
        "is_hot": 0
      },
      {
        "game_id": 121,
        "game_name": "121",
        "bet_multiple": 50,
        "vip_limit": 9,
        "pos_seq": 20,
        "orition": 1,
        "resolution": "756,1638",
        "is_hot": 0
      },
      {
        "game_id": 142,
        "game_name": "142",
        "bet_multiple": 5,
        "vip_limit": 0,
        "pos_seq": 10,
        "orition": 1,
        "resolution": "756,1638",
        "is_hot": 1
      },
      {
        "game_id": 149,
        "game_name": "149",
        "bet_multiple": 5,
        "vip_limit": 0,
        "pos_seq": 10,
        "orition": 1,
        "resolution": "1280,720",
        "is_hot": 1
      }
    ],
    "bet_types": [
      {
        "game_id": 101,
        "bet_type": 1,
        "bet_amount": 10,
        "game_mode": 1,
        "bet_multiple": 50
      },
      {
        "game_id": 101,
        "bet_type": 2,
        "bet_amount": 20,
        "game_mode": 1,
        "bet_multiple": 50
      },
      {
        "game_id": 101,
        "bet_type": 3,
        "bet_amount": 40,
        "game_mode": 1,
        "bet_multiple": 50
      },
      {
        "game_id": 101,
        "bet_type": 4,
        "bet_amount": 80,
        "game_mode": 1,
        "bet_multiple": 50
      },
      {
        "game_id": 101,
        "bet_type": 5,
        "bet_amount": 150,
        "game_mode": 1,
        "bet_multiple": 50
      },
      {
        "game_id": 101,
        "bet_type": 6,
        "bet_amount": 300,
        "game_mode": 1,
        "bet_multiple": 50
      },
      {
        "game_id": 101,
        "bet_type": 7,
        "bet_amount": 600,
        "game_mode": 1,
        "bet_multiple": 50
      },
      {
        "game_id": 101,
        "bet_type": 8,
        "bet_amount": 1200,
        "game_mode": 1,
        "bet_multiple": 50
      },
      {
        "game_id": 101,
        "bet_type": 9,
        "bet_amount": 2500,
        "game_mode": 1,
        "bet_multiple": 50
      },
      {
        "game_id": 101,
        "bet_type": 10,
        "bet_amount": 5000,
        "game_mode": 1,
        "bet_multiple": 50
      },
      {
        "game_id": 101,
        "bet_type": 11,
        "bet_amount": 10000,
        "game_mode": 1,
        "bet_multiple": 50
      },
      {
        "game_id": 101,
        "bet_type": 12,
        "bet_amount": 20000,
        "game_mode": 1,
        "bet_multiple": 50
      },
      {
        "game_id": 101,
        "bet_type": 13,
        "bet_amount": 40000,
        "game_mode": 1,
        "bet_multiple": 50
      },
      {
        "game_id": 101,
        "bet_type": 14,
        "bet_amount": 80000,
        "game_mode": 1,
        "bet_multiple": 50
      },
      {
        "game_id": 102,
        "bet_type": 1,
        "bet_amount": 10,
        "game_mode": 1,
        "bet_multiple": 88
      },
      {
        "game_id": 102,
        "bet_type": 2,
        "bet_amount": 20,
        "game_mode": 1,
        "bet_multiple": 88
      },
      {
        "game_id": 102,
        "bet_type": 3,
        "bet_amount": 40,
        "game_mode": 1,
        "bet_multiple": 88
      },
      {
        "game_id": 102,
        "bet_type": 4,
        "bet_amount": 80,
        "game_mode": 1,
        "bet_multiple": 88
      },
      {
        "game_id": 102,
        "bet_type": 5,
        "bet_amount": 150,
        "game_mode": 1,
        "bet_multiple": 88
      },
      {
        "game_id": 102,
        "bet_type": 6,
        "bet_amount": 300,
        "game_mode": 1,
        "bet_multiple": 88
      },
      {
        "game_id": 102,
        "bet_type": 7,
        "bet_amount": 600,
        "game_mode": 1,
        "bet_multiple": 88
      },
      {
        "game_id": 102,
        "bet_type": 8,
        "bet_amount": 1200,
        "game_mode": 1,
        "bet_multiple": 88
      },
      {
        "game_id": 102,
        "bet_type": 9,
        "bet_amount": 2500,
        "game_mode": 1,
        "bet_multiple": 88
      },
      {
        "game_id": 102,
        "bet_type": 10,
        "bet_amount": 5000,
        "game_mode": 1,
        "bet_multiple": 88
      },
      {
        "game_id": 102,
        "bet_type": 11,
        "bet_amount": 10000,
        "game_mode": 1,
        "bet_multiple": 88
      },
      {
        "game_id": 102,
        "bet_type": 12,
        "bet_amount": 20000,
        "game_mode": 1,
        "bet_multiple": 88
      },
      {
        "game_id": 102,
        "bet_type": 13,
        "bet_amount": 40000,
        "game_mode": 1,
        "bet_multiple": 88
      },
      {
        "game_id": 102,
        "bet_type": 14,
        "bet_amount": 80000,
        "game_mode": 1,
        "bet_multiple": 88
      },
      {
        "game_id": 103,
        "bet_type": 1,
        "bet_amount": 10,
        "game_mode": 1,
        "bet_multiple": 100
      },
      {
        "game_id": 103,
        "bet_type": 2,
        "bet_amount": 20,
        "game_mode": 1,
        "bet_multiple": 100
      },
      {
        "game_id": 103,
        "bet_type": 3,
        "bet_amount": 40,
        "game_mode": 1,
        "bet_multiple": 100
      },
      {
        "game_id": 103,
        "bet_type": 4,
        "bet_amount": 80,
        "game_mode": 1,
        "bet_multiple": 100
      },
      {
        "game_id": 103,
        "bet_type": 5,
        "bet_amount": 150,
        "game_mode": 1,
        "bet_multiple": 100
      },
      {
        "game_id": 103,
        "bet_type": 6,
        "bet_amount": 300,
        "game_mode": 1,
        "bet_multiple": 100
      },
      {
        "game_id": 103,
        "bet_type": 7,
        "bet_amount": 600,
        "game_mode": 1,
        "bet_multiple": 100
      },
      {
        "game_id": 103,
        "bet_type": 8,
        "bet_amount": 1200,
        "game_mode": 1,
        "bet_multiple": 100
      },
      {
        "game_id": 103,
        "bet_type": 9,
        "bet_amount": 2500,
        "game_mode": 1,
        "bet_multiple": 100
      },
      {
        "game_id": 103,
        "bet_type": 10,
        "bet_amount": 5000,
        "game_mode": 1,
        "bet_multiple": 100
      },
      {
        "game_id": 103,
        "bet_type": 11,
        "bet_amount": 10000,
        "game_mode": 1,
        "bet_multiple": 100
      },
      {
        "game_id": 103,
        "bet_type": 12,
        "bet_amount": 20000,
        "game_mode": 1,
        "bet_multiple": 100
      },
      {
        "game_id": 103,
        "bet_type": 13,
        "bet_amount": 40000,
        "game_mode": 1,
        "bet_multiple": 100
      },
      {
        "game_id": 103,
        "bet_type": 14,
        "bet_amount": 80000,
        "game_mode": 1,
        "bet_multiple": 100
      },
      {
        "game_id": 104,
        "bet_type": 1,
        "bet_amount": 10,
        "game_mode": 1,
        "bet_multiple": 50
      },
      {
        "game_id": 104,
        "bet_type": 2,
        "bet_amount": 20,
        "game_mode": 1,
        "bet_multiple": 50
      },
      {
        "game_id": 104,
        "bet_type": 3,
        "bet_amount": 40,
        "game_mode": 1,
        "bet_multiple": 50
      },
      {
        "game_id": 104,
        "bet_type": 4,
        "bet_amount": 80,
        "game_mode": 1,
        "bet_multiple": 50
      },
      {
        "game_id": 104,
        "bet_type": 5,
        "bet_amount": 150,
        "game_mode": 1,
        "bet_multiple": 50
      },
      {
        "game_id": 104,
        "bet_type": 6,
        "bet_amount": 300,
        "game_mode": 1,
        "bet_multiple": 50
      },
      {
        "game_id": 104,
        "bet_type": 7,
        "bet_amount": 600,
        "game_mode": 1,
        "bet_multiple": 50
      },
      {
        "game_id": 104,
        "bet_type": 8,
        "bet_amount": 1200,
        "game_mode": 1,
        "bet_multiple": 50
      },
      {
        "game_id": 104,
        "bet_type": 9,
        "bet_amount": 2500,
        "game_mode": 1,
        "bet_multiple": 50
      },
      {
        "game_id": 104,
        "bet_type": 10,
        "bet_amount": 5000,
        "game_mode": 1,
        "bet_multiple": 50
      },
      {
        "game_id": 104,
        "bet_type": 11,
        "bet_amount": 10000,
        "game_mode": 1,
        "bet_multiple": 50
      },
      {
        "game_id": 104,
        "bet_type": 12,
        "bet_amount": 20000,
        "game_mode": 1,
        "bet_multiple": 50
      },
      {
        "game_id": 104,
        "bet_type": 13,
        "bet_amount": 40000,
        "game_mode": 1,
        "bet_multiple": 50
      },
      {
        "game_id": 104,
        "bet_type": 14,
        "bet_amount": 80000,
        "game_mode": 1,
        "bet_multiple": 50
      },
      {
        "game_id": 105,
        "bet_type": 1,
        "bet_amount": 10,
        "game_mode": 1,
        "bet_multiple": 50
      },
      {
        "game_id": 105,
        "bet_type": 2,
        "bet_amount": 20,
        "game_mode": 1,
        "bet_multiple": 50
      },
      {
        "game_id": 105,
        "bet_type": 3,
        "bet_amount": 40,
        "game_mode": 1,
        "bet_multiple": 50
      },
      {
        "game_id": 105,
        "bet_type": 4,
        "bet_amount": 80,
        "game_mode": 1,
        "bet_multiple": 50
      },
      {
        "game_id": 105,
        "bet_type": 5,
        "bet_amount": 150,
        "game_mode": 1,
        "bet_multiple": 50
      },
      {
        "game_id": 105,
        "bet_type": 6,
        "bet_amount": 300,
        "game_mode": 1,
        "bet_multiple": 50
      },
      {
        "game_id": 105,
        "bet_type": 7,
        "bet_amount": 600,
        "game_mode": 1,
        "bet_multiple": 50
      },
      {
        "game_id": 105,
        "bet_type": 8,
        "bet_amount": 1200,
        "game_mode": 1,
        "bet_multiple": 50
      },
      {
        "game_id": 105,
        "bet_type": 9,
        "bet_amount": 2500,
        "game_mode": 1,
        "bet_multiple": 50
      },
      {
        "game_id": 105,
        "bet_type": 10,
        "bet_amount": 5000,
        "game_mode": 1,
        "bet_multiple": 50
      },
      {
        "game_id": 105,
        "bet_type": 11,
        "bet_amount": 10000,
        "game_mode": 1,
        "bet_multiple": 50
      },
      {
        "game_id": 105,
        "bet_type": 12,
        "bet_amount": 20000,
        "game_mode": 1,
        "bet_multiple": 50
      },
      {
        "game_id": 105,
        "bet_type": 13,
        "bet_amount": 40000,
        "game_mode": 1,
        "bet_multiple": 50
      },
      {
        "game_id": 105,
        "bet_type": 14,
        "bet_amount": 80000,
        "game_mode": 1,
        "bet_multiple": 50
      },
      {
        "game_id": 106,
        "bet_type": 1,
        "bet_amount": 10,
        "game_mode": 1,
        "bet_multiple": 50
      },
      {
        "game_id": 106,
        "bet_type": 2,
        "bet_amount": 20,
        "game_mode": 1,
        "bet_multiple": 50
      },
      {
        "game_id": 106,
        "bet_type": 3,
        "bet_amount": 40,
        "game_mode": 1,
        "bet_multiple": 50
      },
      {
        "game_id": 106,
        "bet_type": 4,
        "bet_amount": 80,
        "game_mode": 1,
        "bet_multiple": 50
      },
      {
        "game_id": 106,
        "bet_type": 5,
        "bet_amount": 150,
        "game_mode": 1,
        "bet_multiple": 50
      },
      {
        "game_id": 106,
        "bet_type": 6,
        "bet_amount": 300,
        "game_mode": 1,
        "bet_multiple": 50
      },
      {
        "game_id": 106,
        "bet_type": 7,
        "bet_amount": 600,
        "game_mode": 1,
        "bet_multiple": 50
      },
      {
        "game_id": 106,
        "bet_type": 8,
        "bet_amount": 1200,
        "game_mode": 1,
        "bet_multiple": 50
      },
      {
        "game_id": 106,
        "bet_type": 9,
        "bet_amount": 2500,
        "game_mode": 1,
        "bet_multiple": 50
      },
      {
        "game_id": 106,
        "bet_type": 10,
        "bet_amount": 5000,
        "game_mode": 1,
        "bet_multiple": 50
      },
      {
        "game_id": 106,
        "bet_type": 11,
        "bet_amount": 10000,
        "game_mode": 1,
        "bet_multiple": 50
      },
      {
        "game_id": 106,
        "bet_type": 12,
        "bet_amount": 20000,
        "game_mode": 1,
        "bet_multiple": 50
      },
      {
        "game_id": 106,
        "bet_type": 13,
        "bet_amount": 40000,
        "game_mode": 1,
        "bet_multiple": 50
      },
      {
        "game_id": 106,
        "bet_type": 14,
        "bet_amount": 80000,
        "game_mode": 1,
        "bet_multiple": 50
      },
      {
        "game_id": 107,
        "bet_type": 1,
        "bet_amount": 10,
        "game_mode": 1,
        "bet_multiple": 40
      },
      {
        "game_id": 107,
        "bet_type": 2,
        "bet_amount": 20,
        "game_mode": 1,
        "bet_multiple": 40
      },
      {
        "game_id": 107,
        "bet_type": 3,
        "bet_amount": 40,
        "game_mode": 1,
        "bet_multiple": 40
      },
      {
        "game_id": 107,
        "bet_type": 4,
        "bet_amount": 80,
        "game_mode": 1,
        "bet_multiple": 40
      },
      {
        "game_id": 107,
        "bet_type": 5,
        "bet_amount": 150,
        "game_mode": 1,
        "bet_multiple": 40
      },
      {
        "game_id": 107,
        "bet_type": 6,
        "bet_amount": 300,
        "game_mode": 1,
        "bet_multiple": 40
      },
      {
        "game_id": 107,
        "bet_type": 7,
        "bet_amount": 600,
        "game_mode": 1,
        "bet_multiple": 40
      },
      {
        "game_id": 107,
        "bet_type": 8,
        "bet_amount": 1200,
        "game_mode": 1,
        "bet_multiple": 40
      },
      {
        "game_id": 107,
        "bet_type": 9,
        "bet_amount": 2500,
        "game_mode": 1,
        "bet_multiple": 40
      },
      {
        "game_id": 107,
        "bet_type": 10,
        "bet_amount": 5000,
        "game_mode": 1,
        "bet_multiple": 40
      },
      {
        "game_id": 107,
        "bet_type": 11,
        "bet_amount": 10000,
        "game_mode": 1,
        "bet_multiple": 40
      },
      {
        "game_id": 107,
        "bet_type": 12,
        "bet_amount": 20000,
        "game_mode": 1,
        "bet_multiple": 40
      },
      {
        "game_id": 107,
        "bet_type": 13,
        "bet_amount": 40000,
        "game_mode": 1,
        "bet_multiple": 40
      },
      {
        "game_id": 107,
        "bet_type": 14,
        "bet_amount": 80000,
        "game_mode": 1,
        "bet_multiple": 40
      },
      {
        "game_id": 108,
        "bet_type": 1,
        "bet_amount": 10,
        "game_mode": 1,
        "bet_multiple": 88
      },
      {
        "game_id": 108,
        "bet_type": 2,
        "bet_amount": 20,
        "game_mode": 1,
        "bet_multiple": 88
      },
      {
        "game_id": 108,
        "bet_type": 3,
        "bet_amount": 40,
        "game_mode": 1,
        "bet_multiple": 88
      },
      {
        "game_id": 108,
        "bet_type": 4,
        "bet_amount": 80,
        "game_mode": 1,
        "bet_multiple": 88
      },
      {
        "game_id": 108,
        "bet_type": 5,
        "bet_amount": 150,
        "game_mode": 1,
        "bet_multiple": 88
      },
      {
        "game_id": 108,
        "bet_type": 6,
        "bet_amount": 300,
        "game_mode": 1,
        "bet_multiple": 88
      },
      {
        "game_id": 108,
        "bet_type": 7,
        "bet_amount": 600,
        "game_mode": 1,
        "bet_multiple": 88
      },
      {
        "game_id": 108,
        "bet_type": 8,
        "bet_amount": 1200,
        "game_mode": 1,
        "bet_multiple": 88
      },
      {
        "game_id": 108,
        "bet_type": 9,
        "bet_amount": 2500,
        "game_mode": 1,
        "bet_multiple": 88
      },
      {
        "game_id": 108,
        "bet_type": 10,
        "bet_amount": 5000,
        "game_mode": 1,
        "bet_multiple": 88
      },
      {
        "game_id": 108,
        "bet_type": 11,
        "bet_amount": 10000,
        "game_mode": 1,
        "bet_multiple": 88
      },
      {
        "game_id": 108,
        "bet_type": 12,
        "bet_amount": 20000,
        "game_mode": 1,
        "bet_multiple": 88
      },
      {
        "game_id": 108,
        "bet_type": 13,
        "bet_amount": 40000,
        "game_mode": 1,
        "bet_multiple": 88
      },
      {
        "game_id": 108,
        "bet_type": 14,
        "bet_amount": 80000,
        "game_mode": 1,
        "bet_multiple": 88
      },
      {
        "game_id": 109,
        "bet_type": 1,
        "bet_amount": 10,
        "game_mode": 1,
        "bet_multiple": 50
      },
      {
        "game_id": 109,
        "bet_type": 2,
        "bet_amount": 20,
        "game_mode": 1,
        "bet_multiple": 50
      },
      {
        "game_id": 109,
        "bet_type": 3,
        "bet_amount": 40,
        "game_mode": 1,
        "bet_multiple": 50
      },
      {
        "game_id": 109,
        "bet_type": 4,
        "bet_amount": 80,
        "game_mode": 1,
        "bet_multiple": 50
      },
      {
        "game_id": 109,
        "bet_type": 5,
        "bet_amount": 150,
        "game_mode": 1,
        "bet_multiple": 50
      },
      {
        "game_id": 109,
        "bet_type": 6,
        "bet_amount": 300,
        "game_mode": 1,
        "bet_multiple": 50
      },
      {
        "game_id": 109,
        "bet_type": 7,
        "bet_amount": 600,
        "game_mode": 1,
        "bet_multiple": 50
      },
      {
        "game_id": 109,
        "bet_type": 8,
        "bet_amount": 1200,
        "game_mode": 1,
        "bet_multiple": 50
      },
      {
        "game_id": 109,
        "bet_type": 9,
        "bet_amount": 2500,
        "game_mode": 1,
        "bet_multiple": 50
      },
      {
        "game_id": 109,
        "bet_type": 10,
        "bet_amount": 5000,
        "game_mode": 1,
        "bet_multiple": 50
      },
      {
        "game_id": 109,
        "bet_type": 11,
        "bet_amount": 10000,
        "game_mode": 1,
        "bet_multiple": 50
      },
      {
        "game_id": 109,
        "bet_type": 12,
        "bet_amount": 20000,
        "game_mode": 1,
        "bet_multiple": 50
      },
      {
        "game_id": 109,
        "bet_type": 13,
        "bet_amount": 40000,
        "game_mode": 1,
        "bet_multiple": 50
      },
      {
        "game_id": 109,
        "bet_type": 14,
        "bet_amount": 80000,
        "game_mode": 1,
        "bet_multiple": 50
      },
      {
        "game_id": 110,
        "bet_type": 1,
        "bet_amount": 10,
        "game_mode": 1,
        "bet_multiple": 50
      },
      {
        "game_id": 110,
        "bet_type": 2,
        "bet_amount": 20,
        "game_mode": 1,
        "bet_multiple": 50
      },
      {
        "game_id": 110,
        "bet_type": 3,
        "bet_amount": 40,
        "game_mode": 1,
        "bet_multiple": 50
      },
      {
        "game_id": 110,
        "bet_type": 4,
        "bet_amount": 80,
        "game_mode": 1,
        "bet_multiple": 50
      },
      {
        "game_id": 110,
        "bet_type": 5,
        "bet_amount": 150,
        "game_mode": 1,
        "bet_multiple": 50
      },
      {
        "game_id": 110,
        "bet_type": 6,
        "bet_amount": 300,
        "game_mode": 1,
        "bet_multiple": 50
      },
      {
        "game_id": 110,
        "bet_type": 7,
        "bet_amount": 600,
        "game_mode": 1,
        "bet_multiple": 50
      },
      {
        "game_id": 110,
        "bet_type": 8,
        "bet_amount": 1200,
        "game_mode": 1,
        "bet_multiple": 50
      },
      {
        "game_id": 110,
        "bet_type": 9,
        "bet_amount": 2500,
        "game_mode": 1,
        "bet_multiple": 50
      },
      {
        "game_id": 110,
        "bet_type": 10,
        "bet_amount": 5000,
        "game_mode": 1,
        "bet_multiple": 50
      },
      {
        "game_id": 110,
        "bet_type": 11,
        "bet_amount": 10000,
        "game_mode": 1,
        "bet_multiple": 50
      },
      {
        "game_id": 110,
        "bet_type": 12,
        "bet_amount": 20000,
        "game_mode": 1,
        "bet_multiple": 50
      },
      {
        "game_id": 110,
        "bet_type": 13,
        "bet_amount": 40000,
        "game_mode": 1,
        "bet_multiple": 50
      },
      {
        "game_id": 110,
        "bet_type": 14,
        "bet_amount": 80000,
        "game_mode": 1,
        "bet_multiple": 50
      },
      {
        "game_id": 111,
        "bet_type": 1,
        "bet_amount": 10,
        "game_mode": 1,
        "bet_multiple": 50
      },
      {
        "game_id": 111,
        "bet_type": 2,
        "bet_amount": 20,
        "game_mode": 1,
        "bet_multiple": 50
      },
      {
        "game_id": 111,
        "bet_type": 3,
        "bet_amount": 40,
        "game_mode": 1,
        "bet_multiple": 50
      },
      {
        "game_id": 111,
        "bet_type": 4,
        "bet_amount": 80,
        "game_mode": 1,
        "bet_multiple": 50
      },
      {
        "game_id": 111,
        "bet_type": 5,
        "bet_amount": 150,
        "game_mode": 1,
        "bet_multiple": 50
      },
      {
        "game_id": 111,
        "bet_type": 6,
        "bet_amount": 300,
        "game_mode": 1,
        "bet_multiple": 50
      },
      {
        "game_id": 111,
        "bet_type": 7,
        "bet_amount": 600,
        "game_mode": 1,
        "bet_multiple": 50
      },
      {
        "game_id": 111,
        "bet_type": 8,
        "bet_amount": 1200,
        "game_mode": 1,
        "bet_multiple": 50
      },
      {
        "game_id": 111,
        "bet_type": 9,
        "bet_amount": 2500,
        "game_mode": 1,
        "bet_multiple": 50
      },
      {
        "game_id": 111,
        "bet_type": 10,
        "bet_amount": 5000,
        "game_mode": 1,
        "bet_multiple": 50
      },
      {
        "game_id": 111,
        "bet_type": 11,
        "bet_amount": 10000,
        "game_mode": 1,
        "bet_multiple": 50
      },
      {
        "game_id": 111,
        "bet_type": 12,
        "bet_amount": 20000,
        "game_mode": 1,
        "bet_multiple": 50
      },
      {
        "game_id": 111,
        "bet_type": 13,
        "bet_amount": 40000,
        "game_mode": 1,
        "bet_multiple": 50
      },
      {
        "game_id": 111,
        "bet_type": 14,
        "bet_amount": 80000,
        "game_mode": 1,
        "bet_multiple": 50
      },
      {
        "game_id": 112,
        "bet_type": 1,
        "bet_amount": 10,
        "game_mode": 1,
        "bet_multiple": 60
      },
      {
        "game_id": 112,
        "bet_type": 2,
        "bet_amount": 20,
        "game_mode": 1,
        "bet_multiple": 60
      },
      {
        "game_id": 112,
        "bet_type": 3,
        "bet_amount": 40,
        "game_mode": 1,
        "bet_multiple": 60
      },
      {
        "game_id": 112,
        "bet_type": 4,
        "bet_amount": 80,
        "game_mode": 1,
        "bet_multiple": 60
      },
      {
        "game_id": 112,
        "bet_type": 5,
        "bet_amount": 150,
        "game_mode": 1,
        "bet_multiple": 60
      },
      {
        "game_id": 112,
        "bet_type": 6,
        "bet_amount": 300,
        "game_mode": 1,
        "bet_multiple": 60
      },
      {
        "game_id": 112,
        "bet_type": 7,
        "bet_amount": 600,
        "game_mode": 1,
        "bet_multiple": 60
      },
      {
        "game_id": 112,
        "bet_type": 8,
        "bet_amount": 1200,
        "game_mode": 1,
        "bet_multiple": 60
      },
      {
        "game_id": 112,
        "bet_type": 9,
        "bet_amount": 2500,
        "game_mode": 1,
        "bet_multiple": 60
      },
      {
        "game_id": 112,
        "bet_type": 10,
        "bet_amount": 5000,
        "game_mode": 1,
        "bet_multiple": 60
      },
      {
        "game_id": 112,
        "bet_type": 11,
        "bet_amount": 10000,
        "game_mode": 1,
        "bet_multiple": 60
      },
      {
        "game_id": 112,
        "bet_type": 12,
        "bet_amount": 20000,
        "game_mode": 1,
        "bet_multiple": 60
      },
      {
        "game_id": 112,
        "bet_type": 13,
        "bet_amount": 40000,
        "game_mode": 1,
        "bet_multiple": 60
      },
      {
        "game_id": 112,
        "bet_type": 14,
        "bet_amount": 80000,
        "game_mode": 1,
        "bet_multiple": 60
      },
      {
        "game_id": 113,
        "bet_type": 1,
        "bet_amount": 10,
        "game_mode": 1,
        "bet_multiple": 50
      },
      {
        "game_id": 113,
        "bet_type": 2,
        "bet_amount": 20,
        "game_mode": 1,
        "bet_multiple": 50
      },
      {
        "game_id": 113,
        "bet_type": 3,
        "bet_amount": 40,
        "game_mode": 1,
        "bet_multiple": 50
      },
      {
        "game_id": 113,
        "bet_type": 4,
        "bet_amount": 80,
        "game_mode": 1,
        "bet_multiple": 50
      },
      {
        "game_id": 113,
        "bet_type": 5,
        "bet_amount": 150,
        "game_mode": 1,
        "bet_multiple": 50
      },
      {
        "game_id": 113,
        "bet_type": 6,
        "bet_amount": 300,
        "game_mode": 1,
        "bet_multiple": 50
      },
      {
        "game_id": 113,
        "bet_type": 7,
        "bet_amount": 600,
        "game_mode": 1,
        "bet_multiple": 50
      },
      {
        "game_id": 113,
        "bet_type": 8,
        "bet_amount": 1200,
        "game_mode": 1,
        "bet_multiple": 50
      },
      {
        "game_id": 113,
        "bet_type": 9,
        "bet_amount": 2500,
        "game_mode": 1,
        "bet_multiple": 50
      },
      {
        "game_id": 113,
        "bet_type": 10,
        "bet_amount": 5000,
        "game_mode": 1,
        "bet_multiple": 50
      },
      {
        "game_id": 113,
        "bet_type": 11,
        "bet_amount": 10000,
        "game_mode": 1,
        "bet_multiple": 50
      },
      {
        "game_id": 113,
        "bet_type": 12,
        "bet_amount": 20000,
        "game_mode": 1,
        "bet_multiple": 50
      },
      {
        "game_id": 113,
        "bet_type": 13,
        "bet_amount": 40000,
        "game_mode": 1,
        "bet_multiple": 50
      },
      {
        "game_id": 113,
        "bet_type": 14,
        "bet_amount": 80000,
        "game_mode": 1,
        "bet_multiple": 50
      },
      {
        "game_id": 114,
        "bet_type": 1,
        "bet_amount": 10,
        "game_mode": 1,
        "bet_multiple": 50
      },
      {
        "game_id": 114,
        "bet_type": 2,
        "bet_amount": 20,
        "game_mode": 1,
        "bet_multiple": 50
      },
      {
        "game_id": 114,
        "bet_type": 3,
        "bet_amount": 40,
        "game_mode": 1,
        "bet_multiple": 50
      },
      {
        "game_id": 114,
        "bet_type": 4,
        "bet_amount": 80,
        "game_mode": 1,
        "bet_multiple": 50
      },
      {
        "game_id": 114,
        "bet_type": 5,
        "bet_amount": 150,
        "game_mode": 1,
        "bet_multiple": 50
      },
      {
        "game_id": 114,
        "bet_type": 6,
        "bet_amount": 300,
        "game_mode": 1,
        "bet_multiple": 50
      },
      {
        "game_id": 114,
        "bet_type": 7,
        "bet_amount": 600,
        "game_mode": 1,
        "bet_multiple": 50
      },
      {
        "game_id": 114,
        "bet_type": 8,
        "bet_amount": 1200,
        "game_mode": 1,
        "bet_multiple": 50
      },
      {
        "game_id": 114,
        "bet_type": 9,
        "bet_amount": 2500,
        "game_mode": 1,
        "bet_multiple": 50
      },
      {
        "game_id": 114,
        "bet_type": 10,
        "bet_amount": 5000,
        "game_mode": 1,
        "bet_multiple": 50
      },
      {
        "game_id": 114,
        "bet_type": 11,
        "bet_amount": 10000,
        "game_mode": 1,
        "bet_multiple": 50
      },
      {
        "game_id": 114,
        "bet_type": 12,
        "bet_amount": 20000,
        "game_mode": 1,
        "bet_multiple": 50
      },
      {
        "game_id": 114,
        "bet_type": 13,
        "bet_amount": 40000,
        "game_mode": 1,
        "bet_multiple": 50
      },
      {
        "game_id": 114,
        "bet_type": 14,
        "bet_amount": 80000,
        "game_mode": 1,
        "bet_multiple": 50
      },
      {
        "game_id": 115,
        "bet_type": 1,
        "bet_amount": 10,
        "game_mode": 1,
        "bet_multiple": 40
      },
      {
        "game_id": 115,
        "bet_type": 2,
        "bet_amount": 20,
        "game_mode": 1,
        "bet_multiple": 40
      },
      {
        "game_id": 115,
        "bet_type": 3,
        "bet_amount": 40,
        "game_mode": 1,
        "bet_multiple": 40
      },
      {
        "game_id": 115,
        "bet_type": 4,
        "bet_amount": 80,
        "game_mode": 1,
        "bet_multiple": 40
      },
      {
        "game_id": 115,
        "bet_type": 5,
        "bet_amount": 150,
        "game_mode": 1,
        "bet_multiple": 40
      },
      {
        "game_id": 115,
        "bet_type": 6,
        "bet_amount": 300,
        "game_mode": 1,
        "bet_multiple": 40
      },
      {
        "game_id": 115,
        "bet_type": 7,
        "bet_amount": 600,
        "game_mode": 1,
        "bet_multiple": 40
      },
      {
        "game_id": 115,
        "bet_type": 8,
        "bet_amount": 1200,
        "game_mode": 1,
        "bet_multiple": 40
      },
      {
        "game_id": 115,
        "bet_type": 9,
        "bet_amount": 2500,
        "game_mode": 1,
        "bet_multiple": 40
      },
      {
        "game_id": 115,
        "bet_type": 10,
        "bet_amount": 5000,
        "game_mode": 1,
        "bet_multiple": 40
      },
      {
        "game_id": 115,
        "bet_type": 11,
        "bet_amount": 10000,
        "game_mode": 1,
        "bet_multiple": 40
      },
      {
        "game_id": 115,
        "bet_type": 12,
        "bet_amount": 20000,
        "game_mode": 1,
        "bet_multiple": 40
      },
      {
        "game_id": 115,
        "bet_type": 13,
        "bet_amount": 40000,
        "game_mode": 1,
        "bet_multiple": 40
      },
      {
        "game_id": 115,
        "bet_type": 14,
        "bet_amount": 80000,
        "game_mode": 1,
        "bet_multiple": 40
      },
      {
        "game_id": 116,
        "bet_type": 1,
        "bet_amount": 10,
        "game_mode": 1,
        "bet_multiple": 40
      },
      {
        "game_id": 116,
        "bet_type": 2,
        "bet_amount": 20,
        "game_mode": 1,
        "bet_multiple": 40
      },
      {
        "game_id": 116,
        "bet_type": 3,
        "bet_amount": 40,
        "game_mode": 1,
        "bet_multiple": 40
      },
      {
        "game_id": 116,
        "bet_type": 4,
        "bet_amount": 80,
        "game_mode": 1,
        "bet_multiple": 40
      },
      {
        "game_id": 116,
        "bet_type": 5,
        "bet_amount": 150,
        "game_mode": 1,
        "bet_multiple": 40
      },
      {
        "game_id": 116,
        "bet_type": 6,
        "bet_amount": 300,
        "game_mode": 1,
        "bet_multiple": 40
      },
      {
        "game_id": 116,
        "bet_type": 7,
        "bet_amount": 600,
        "game_mode": 1,
        "bet_multiple": 40
      },
      {
        "game_id": 116,
        "bet_type": 8,
        "bet_amount": 1200,
        "game_mode": 1,
        "bet_multiple": 40
      },
      {
        "game_id": 116,
        "bet_type": 9,
        "bet_amount": 2500,
        "game_mode": 1,
        "bet_multiple": 40
      },
      {
        "game_id": 116,
        "bet_type": 10,
        "bet_amount": 5000,
        "game_mode": 1,
        "bet_multiple": 40
      },
      {
        "game_id": 116,
        "bet_type": 11,
        "bet_amount": 10000,
        "game_mode": 1,
        "bet_multiple": 40
      },
      {
        "game_id": 116,
        "bet_type": 12,
        "bet_amount": 20000,
        "game_mode": 1,
        "bet_multiple": 40
      },
      {
        "game_id": 116,
        "bet_type": 13,
        "bet_amount": 40000,
        "game_mode": 1,
        "bet_multiple": 40
      },
      {
        "game_id": 116,
        "bet_type": 14,
        "bet_amount": 80000,
        "game_mode": 1,
        "bet_multiple": 40
      },
      {
        "game_id": 119,
        "bet_type": 1,
        "bet_amount": 10,
        "game_mode": 1,
        "bet_multiple": 50
      },
      {
        "game_id": 119,
        "bet_type": 2,
        "bet_amount": 20,
        "game_mode": 1,
        "bet_multiple": 50
      },
      {
        "game_id": 119,
        "bet_type": 3,
        "bet_amount": 40,
        "game_mode": 1,
        "bet_multiple": 50
      },
      {
        "game_id": 119,
        "bet_type": 4,
        "bet_amount": 80,
        "game_mode": 1,
        "bet_multiple": 50
      },
      {
        "game_id": 119,
        "bet_type": 5,
        "bet_amount": 150,
        "game_mode": 1,
        "bet_multiple": 50
      },
      {
        "game_id": 119,
        "bet_type": 6,
        "bet_amount": 300,
        "game_mode": 1,
        "bet_multiple": 50
      },
      {
        "game_id": 119,
        "bet_type": 7,
        "bet_amount": 600,
        "game_mode": 1,
        "bet_multiple": 50
      },
      {
        "game_id": 119,
        "bet_type": 8,
        "bet_amount": 1200,
        "game_mode": 1,
        "bet_multiple": 50
      },
      {
        "game_id": 119,
        "bet_type": 9,
        "bet_amount": 2500,
        "game_mode": 1,
        "bet_multiple": 50
      },
      {
        "game_id": 119,
        "bet_type": 10,
        "bet_amount": 5000,
        "game_mode": 1,
        "bet_multiple": 50
      },
      {
        "game_id": 119,
        "bet_type": 11,
        "bet_amount": 10000,
        "game_mode": 1,
        "bet_multiple": 50
      },
      {
        "game_id": 119,
        "bet_type": 12,
        "bet_amount": 20000,
        "game_mode": 1,
        "bet_multiple": 50
      },
      {
        "game_id": 119,
        "bet_type": 13,
        "bet_amount": 40000,
        "game_mode": 1,
        "bet_multiple": 50
      },
      {
        "game_id": 119,
        "bet_type": 14,
        "bet_amount": 80000,
        "game_mode": 1,
        "bet_multiple": 50
      },
      {
        "game_id": 142,
        "bet_type": 1,
        "bet_amount": 10,
        "game_mode": 1,
        "bet_multiple": 5
      },
      {
        "game_id": 142,
        "bet_type": 2,
        "bet_amount": 20,
        "game_mode": 1,
        "bet_multiple": 5
      },
      {
        "game_id": 142,
        "bet_type": 3,
        "bet_amount": 40,
        "game_mode": 1,
        "bet_multiple": 5
      },
      {
        "game_id": 142,
        "bet_type": 4,
        "bet_amount": 80,
        "game_mode": 1,
        "bet_multiple": 5
      },
      {
        "game_id": 149,
        "bet_type": 1,
        "bet_amount": 10,
        "game_mode": 1,
        "bet_multiple": 20
      },
      {
        "game_id": 149,
        "bet_type": 2,
        "bet_amount": 20,
        "game_mode": 1,
        "bet_multiple": 20
      },
      {
        "game_id": 149,
        "bet_type": 3,
        "bet_amount": 40,
        "game_mode": 1,
        "bet_multiple": 20
      },
      {
        "game_id": 149,
        "bet_type": 4,
        "bet_amount": 80,
        "game_mode": 1,
        "bet_multiple": 20
      },
      {
        "game_id": 149,
        "bet_type": 5,
        "bet_amount": 150,
        "game_mode": 1,
        "bet_multiple": 20
      },
      {
        "game_id": 149,
        "bet_type": 6,
        "bet_amount": 300,
        "game_mode": 1,
        "bet_multiple": 20
      },
      {
        "game_id": 149,
        "bet_type": 1,
        "bet_amount": 10,
        "game_mode": 2,
        "bet_multiple": 20
      },
      {
        "game_id": 149,
        "bet_type": 2,
        "bet_amount": 20,
        "game_mode": 2,
        "bet_multiple": 20
      },
      {
        "game_id": 149,
        "bet_type": 3,
        "bet_amount": 40,
        "game_mode": 2,
        "bet_multiple": 20
      },
      {
        "game_id": 149,
        "bet_type": 4,
        "bet_amount": 80,
        "game_mode": 2,
        "bet_multiple": 20
      },
      {
        "game_id": 149,
        "bet_type": 5,
        "bet_amount": 150,
        "game_mode": 2,
        "bet_multiple": 20
      },
      {
        "game_id": 149,
        "bet_type": 6,
        "bet_amount": 300,
        "game_mode": 2,
        "bet_multiple": 20
      }
    ],
    "language_config": [
      {
        "language_id": 1,
        "module_id": 1,
        "node_id": 1,
        "content": "personal center"
      },
      {
        "language_id": 2,
        "module_id": 1,
        "node_id": 1,
        "content": "ศูนย์ส่วนบุคคล"
      },
      {
        "language_id": 3,
        "module_id": 1,
        "node_id": 1,
        "content": "個人センター"
      }
    ]
  }
}