[
    1,
    0,
    0,
    [
        "cc.Texture2D"
    ],
    0,
    [
        {
            "base": "2,2,2,2,0,0",
            "mipmaps": [
                "279409ea-3e08-45f5-9b3a-3e9c3b4c9f69"
            ]
        }
    ],
    [
        0
    ],
    0,
    [],
    [],
    []
]
