[
    1,
    0,
    0,
    [
        "cc.Texture2D"
    ],
    0,
    [
        {
            "base": "2,2,2,2,0,0",
            "mipmaps": [
                "9eb19de1-624f-4226-91d5-ec9c383ae45d"
            ]
        }
    ],
    [
        0
    ],
    0,
    [],
    [],
    []
]
