[
    1,
    0,
    0,
    [
        [
            "cc.Asset",
            [
                "_name",
                "_native"
            ],
            1
        ]
    ],
    [
        [
            0,
            0,
            1,
            3
        ]
    ],
    [
        [
            0,
            "stpr_lv1",
            ".atlas"
        ],
        -1
    ],
    0,
    0,
    [],
    [],
    []
]
