[
    1,
    [
        "a238bd0f-a704-4775-9991-24d0342fc1a3@6c48a"
    ],
    [
        "_textureSource"
    ],
    [
        "cc.SpriteFrame"
    ],
    0,
    [
        {
            "name": "S07",
            "rect": {
                "x": 681,
                "y": 1178,
                "width": 216,
                "height": 230
            },
            "offset": {
                "x": -1,
                "y": -8
            },
            "originalSize": {
                "width": 482,
                "height": 536
            },
            "rotated": true,
            "capInsets": [
                0,
                0,
                0,
                0
            ],
            "packable": true
        }
    ],
    [
        0
    ],
    0,
    [
        0
    ],
    [
        0
    ],
    [
        0
    ]
]
