{
  "imports": {
    "cce:/internal/x/cc": "./mods/cce/internal/x/cc.js",
    "cce:/internal/x/prerequisite-imports": "./mods/cce/internal/x/prerequisite-imports.js"
  },
  "scopes": {
    "./mods/fs/0/assets/game/StarlightPrincess_OverEffect.js": {
      "cc": "./mods/cce/internal/x/cc.js",
      "__unresolved_0": "./mods/cce/internal/code-quality/cr.js",
      "__unresolved_1": "./mods/fs/0/assets/lobby/game/core/sBoxItemBase.js",
      "__unresolved_2": "./mods/fs/0/assets/lobby/game/core/sUtil.js"
    },
    "./mods/fs/0/assets/game/StarlightPrincess_FreeWinBuyCtr.js": {
      "cc": "./mods/cce/internal/x/cc.js",
      "__unresolved_0": "./mods/cce/internal/code-quality/cr.js",
      "__unresolved_1": "./mods/fs/0/assets/lobby/game/core/sSoltFreeWinBuyCtr.js"
    },
    "./mods/fs/0/assets/game/StarlightPrincess_GameEntity.js": {
      "cc": "./mods/cce/internal/x/cc.js",
      "__unresolved_1": "./mods/fs/0/assets/lobby/hyPrefabs/gameRes/external/sGameEntity.js",
      "__unresolved_0": "./mods/cce/internal/code-quality/cr.js",
      "__unresolved_2": "./mods/fs/0/assets/lobby/game/core/sAudioMgr.js",
      "__unresolved_3": "./mods/fs/0/assets/lobby/game/core/sUtil.js"
    },
    "./mods/fs/0/assets/game/StarlightPrincess_History.js": {
      "cc": "./mods/cce/internal/x/cc.js",
      "__unresolved_0": "./mods/cce/internal/code-quality/cr.js",
      "__unresolved_3": "./mods/fs/0/assets/lobby/game/core/sAssetMgr.js",
      "__unresolved_1": "./mods/fs/0/assets/lobby/game/core/sComponent.js",
      "__unresolved_4": "./mods/fs/0/assets/lobby/game/core/sConfigMgr.js",
      "__unresolved_2": "./mods/fs/0/assets/lobby/game/core/sObjPool.js"
    },
    "./mods/fs/0/assets/game/StarlightPrincess_Thunder.js": {
      "cc": "./mods/cce/internal/x/cc.js",
      "__unresolved_0": "./mods/cce/internal/code-quality/cr.js",
      "__unresolved_3": "./mods/fs/0/assets/lobby/game/core/sAudioMgr.js",
      "__unresolved_1": "./mods/fs/0/assets/lobby/game/core/sComponent.js",
      "__unresolved_2": "./mods/fs/0/assets/lobby/game/core/sObjPool.js"
    },
    "./mods/fs/0/assets/game/StarlightPrincess_WinTipLabel.js": {
      "cc": "./mods/cce/internal/x/cc.js",
      "__unresolved_0": "./mods/cce/internal/code-quality/cr.js",
      "__unresolved_1": "./mods/fs/0/assets/lobby/game/core/sComponent.js",
      "__unresolved_2": "./mods/fs/0/assets/lobby/game/core/sObjPool.js"
    },
    "./mods/fs/0/assets/game/soltGameCheckLine_149.js": {
      "cc": "./mods/cce/internal/x/cc.js"
    },
    "./mods/fs/0/assets/game/StarlightPrincess_UIFreeWinBuy.js": {
      "cc": "./mods/cce/internal/x/cc.js",
      "__unresolved_1": "./mods/fs/0/assets/lobby/hyPrefabs/gameRes/external/UIFreeWinBuy.js",
      "__unresolved_0": "./mods/cce/internal/code-quality/cr.js"
    },
    "./mods/fs/0/assets/lobby/hyPrefabs/gameRes/external/UIAutoSpin.js": {
      "cc": "./mods/cce/internal/x/cc.js"
    },
    "./mods/fs/0/assets/lobby/hyPrefabs/gameRes/external/UIFreeWinBetInfo.js": {
      "cc": "./mods/cce/internal/x/cc.js"
    },
    "./mods/fs/0/assets/lobby/hyPrefabs/gameRes/external/UIFreeWinBuy.js": {
      "cc": "./mods/cce/internal/x/cc.js",
      "__unresolved_0": "./mods/cce/internal/code-quality/cr.js",
      "__unresolved_1": "./mods/fs/0/assets/lobby/game/core/sComponent.js"
    },
    "./mods/fs/0/assets/lobby/hyPrefabs/gameRes/external/UIImgView.js": {
      "cc": "./mods/cce/internal/x/cc.js"
    },
    "./mods/fs/0/assets/lobby/hyPrefabs/gameRes/external/UIPopup.js": {
      "cc": "./mods/cce/internal/x/cc.js"
    },
    "./mods/fs/0/assets/lobby/hyPrefabs/gameRes/external/btnInternationalManager.js": {
      "cc": "./mods/cce/internal/x/cc.js"
    },
    "./mods/fs/0/assets/lobby/hyPrefabs/gameRes/external/btnInternationalizationScript.js": {
      "cc": "./mods/cce/internal/x/cc.js",
      "__unresolved_1": "./mods/fs/0/assets/lobby/hyPrefabs/gameRes/external/btnInternationalManager.js",
      "__unresolved_0": "./mods/cce/internal/code-quality/cr.js"
    },
    "./mods/fs/0/assets/lobby/hyPrefabs/gameRes/external/bonus/sBonusCtr.js": {
      "cc": "./mods/cce/internal/x/cc.js",
      "__unresolved_0": "./mods/cce/internal/code-quality/cr.js",
      "__unresolved_1": "./mods/fs/0/assets/lobby/game/core/sUtil.js"
    },
    "./mods/fs/0/assets/lobby/hyPrefabs/gameRes/external/UISelectBet.js": {
      "cc": "./mods/cce/internal/x/cc.js"
    },
    "./mods/fs/0/assets/lobby/hyPrefabs/gameRes/external/intro/ristIntro.js": {
      "cc": "./mods/cce/internal/x/cc.js",
      "__unresolved_0": "./mods/cce/internal/code-quality/cr.js",
      "__unresolved_1": "./mods/fs/0/assets/lobby/game/core/sComponent.js"
    },
    "./mods/fs/0/assets/lobby/hyPrefabs/gameRes/external/jackpot/sJackPotEffect.js": {
      "cc": "./mods/cce/internal/x/cc.js",
      "__unresolved_0": "./mods/cce/internal/code-quality/cr.js",
      "__unresolved_2": "./mods/fs/0/assets/lobby/game/core/sAudioMgr.js",
      "__unresolved_1": "./mods/fs/0/assets/lobby/game/core/sComponent.js",
      "__unresolved_3": "./mods/fs/0/assets/lobby/game/core/sUtil.js"
    },
    "./mods/fs/0/assets/lobby/hyPrefabs/gameRes/external/rist_BigWin/Slots_win/ristBigWinCtr.js": {
      "cc": "./mods/cce/internal/x/cc.js",
      "__unresolved_0": "./mods/cce/internal/code-quality/cr.js",
      "__unresolved_3": "./mods/fs/0/assets/lobby/game/core/sAudioMgr.js",
      "__unresolved_1": "./mods/fs/0/assets/lobby/game/core/sComponent.js",
      "__unresolved_2": "./mods/fs/0/assets/lobby/game/core/sUtil.js"
    },
    "./mods/fs/0/assets/lobby/hyPrefabs/gameRes/external/rist_BigWin/Slots_win/ristFreeSpin.js": {
      "cc": "./mods/cce/internal/x/cc.js",
      "__unresolved_0": "./mods/cce/internal/code-quality/cr.js",
      "__unresolved_2": "./mods/fs/0/assets/lobby/game/core/sAudioMgr.js",
      "__unresolved_1": "./mods/fs/0/assets/lobby/game/core/sComponent.js",
      "__unresolved_3": "./mods/fs/0/assets/lobby/game/core/sUtil.js"
    },
    "./mods/fs/0/assets/lobby/hyPrefabs/gameRes/external/sSlotBtnAssetInit.js": {
      "cc": "./mods/cce/internal/x/cc.js",
      "__unresolved_0": "./mods/cce/internal/code-quality/cr.js",
      "__unresolved_2": "./mods/fs/0/assets/lobby/game/core/sAssetMgr.js",
      "__unresolved_1": "./mods/fs/0/assets/lobby/game/core/sAudioMgr.js"
    },
    "./mods/fs/0/assets/lobby/hyPrefabs/gameRes/external/rist_BigWin/Slots_win/ristTotalWin.js": {
      "cc": "./mods/cce/internal/x/cc.js",
      "__unresolved_0": "./mods/cce/internal/code-quality/cr.js",
      "__unresolved_2": "./mods/fs/0/assets/lobby/game/core/sAudioMgr.js",
      "__unresolved_1": "./mods/fs/0/assets/lobby/game/core/sComponent.js"
    },
    "./mods/fs/0/assets/lobby/hyPrefabs/gameRes/external/sSlotEmptyGameEntityAdapter.js": {
      "cc": "./mods/cce/internal/x/cc.js",
      "__unresolved_1": "./mods/fs/0/assets/lobby/hyPrefabs/gameRes/external/sGameEntity.js",
      "__unresolved_0": "./mods/cce/internal/code-quality/cr.js"
    },
    "./mods/fs/0/assets/lobby/hyPrefabs/gameRes/external/sSlotHorGameEntityAdapter.js": {
      "cc": "./mods/cce/internal/x/cc.js",
      "__unresolved_1": "./mods/fs/0/assets/lobby/hyPrefabs/gameRes/external/sGameEntity.js",
      "__unresolved_4": "./mods/fs/0/assets/lobby/hyPrefabs/gameRes/external/btnInternationalManager.js",
      "__unresolved_0": "./mods/cce/internal/code-quality/cr.js",
      "__unresolved_2": "./mods/fs/0/assets/lobby/game/core/sAudioMgr.js",
      "__unresolved_5": "./mods/fs/0/assets/lobby/game/core/sIntroView.js",
      "__unresolved_3": "./mods/fs/0/assets/lobby/game/core/sUtil.js"
    },
    "./mods/fs/0/assets/lobby/hyPrefabs/gameRes/external/sSlotPGGameEntityAdapter.js": {
      "cc": "./mods/cce/internal/x/cc.js",
      "__unresolved_1": "./mods/fs/0/assets/lobby/hyPrefabs/gameRes/external/sGameEntity.js",
      "__unresolved_2": "./mods/fs/0/assets/lobby/hyPrefabs/gameRes/external/UIFreeWinBetInfo.js",
      "__unresolved_0": "./mods/cce/internal/code-quality/cr.js"
    },
    "./mods/fs/0/assets/lobby/hyPrefabs/gameRes/external/sSlotRistGameEntityAdapter.js": {
      "cc": "./mods/cce/internal/x/cc.js",
      "__unresolved_1": "./mods/fs/0/assets/lobby/hyPrefabs/gameRes/external/sGameEntity.js",
      "__unresolved_0": "./mods/cce/internal/code-quality/cr.js",
      "__unresolved_2": "./mods/fs/0/assets/lobby/game/core/sAudioMgr.js"
    },
    "./mods/fs/0/assets/lobby/hyPrefabs/gameRes/external/sGameEntity.js": {
      "cc": "./mods/cce/internal/x/cc.js",
      "__unresolved_1": "./mods/fs/0/assets/lobby/hyPrefabs/gameRes/external/UISelectBet.js",
      "__unresolved_2": "./mods/fs/0/assets/lobby/hyPrefabs/gameRes/external/UIAutoSpin.js",
      "__unresolved_3": "./mods/fs/0/assets/lobby/hyPrefabs/gameRes/external/UIImgView.js",
      "__unresolved_4": "./mods/fs/0/assets/lobby/hyPrefabs/gameRes/external/UIFreeWinBuy.js",
      "__unresolved_5": "./mods/fs/0/assets/lobby/hyPrefabs/gameRes/external/btnInternationalManager.js",
      "__unresolved_0": "./mods/cce/internal/code-quality/cr.js",
      "__unresolved_7": "./mods/fs/0/assets/lobby/game/core/sFreeWinBuyView.js",
      "__unresolved_6": "./mods/fs/0/assets/lobby/game/core/sUtil.js"
    },
    "./mods/fs/0/assets/lobby/hyPrefabs/gameRes/external/slotLine/slotLinesMgr.js": {
      "cc": "./mods/cce/internal/x/cc.js",
      "__unresolved_0": "./mods/cce/internal/code-quality/cr.js",
      "__unresolved_1": "./mods/fs/0/assets/lobby/game/core/sComponent.js",
      "__unresolved_2": "./mods/fs/0/assets/lobby/game/core/sObjPool.js",
      "__unresolved_3": "./mods/fs/0/assets/lobby/game/core/sUtil.js"
    },
    "./mods/fs/0/assets/lobby/hyPrefabs/gameRes/record/script/gameRecordImgFollow.js": {
      "cc": "./mods/cce/internal/x/cc.js",
      "__unresolved_1": "./mods/fs/0/assets/lobby/hyPrefabs/gameRes/record/script/gameRecordImgItem.js",
      "__unresolved_0": "./mods/cce/internal/code-quality/cr.js"
    },
    "./mods/fs/0/assets/lobby/hyPrefabs/gameRes/record/script/gameRecord.js": {
      "cc": "./mods/cce/internal/x/cc.js",
      "__unresolved_2": "./mods/fs/0/assets/lobby/hyPrefabs/gameRes/record/script/gameRecordImgFollow.js",
      "__unresolved_3": "./mods/fs/0/assets/lobby/hyPrefabs/gameRes/record/script/gameRecordItem.js",
      "__unresolved_1": "./mods/fs/0/assets/lobby/scripts/util/scrollViewCycle.js",
      "__unresolved_0": "./mods/cce/internal/code-quality/cr.js"
    },
    "./mods/fs/0/assets/lobby/hyPrefabs/gameRes/record/script/gameRecordImgItem.js": {
      "cc": "./mods/cce/internal/x/cc.js"
    },
    "./mods/fs/0/assets/lobby/hyPrefabs/gameRes/record/script/gameRecordItem.js": {
      "cc": "./mods/cce/internal/x/cc.js",
      "__unresolved_0": "./mods/cce/internal/code-quality/cr.js",
      "__unresolved_1": "./mods/fs/0/assets/lobby/game/core/sUtil.js"
    },
    "./mods/fs/0/assets/lobby/scripts/internationalizationScript1.js": {
      "cc": "./mods/cce/internal/x/cc.js"
    },
    "./mods/fs/0/assets/network/baseUtil.js": {
      "cc": "./mods/cce/internal/x/cc.js"
    },
    "./mods/fs/0/assets/lobby/scripts/util/scrollViewCycle.js": {
      "cc": "./mods/cce/internal/x/cc.js"
    },
    "./mods/fs/0/assets/network/entry.js": {
      "cc": "./mods/cce/internal/x/cc.js",
      "__unresolved_2": "./mods/fs/0/assets/network/global/global-entry.js",
      "__unresolved_1": "./mods/fs/0/assets/network/koi/game/game-entry.js",
      "__unresolved_0": "./mods/cce/internal/code-quality/cr.js"
    },
    "./mods/fs/0/assets/network/global/global-entry.js": {
      "cc": "./mods/cce/internal/x/cc.js",
      "__unresolved_1": "./mods/fs/0/assets/network/global/game.js",
      "__unresolved_3": "./mods/fs/0/assets/network/global/setting.js",
      "__unresolved_2": "./mods/fs/0/assets/network/global/user.js",
      "__unresolved_0": "./mods/cce/internal/code-quality/cr.js"
    },
    "./mods/fs/0/assets/network/global/game.js": {
      "cc": "./mods/cce/internal/x/cc.js"
    },
    "./mods/fs/0/assets/network/global/node-cache.js": {
      "cc": "./mods/cce/internal/x/cc.js"
    },
    "./mods/fs/0/assets/network/global/tipRes.js": {
      "cc": "./mods/cce/internal/x/cc.js"
    },
    "./mods/fs/0/assets/network/global/load-back.js": {
      "cc": "./mods/cce/internal/x/cc.js"
    },
    "./mods/fs/0/assets/network/global/setting.js": {
      "cc": "./mods/cce/internal/x/cc.js"
    },
    "./mods/fs/0/assets/network/global/user.js": {
      "cc": "./mods/cce/internal/x/cc.js"
    },
    "./mods/fs/0/assets/network/koi/game/game-entry.js": {
      "cc": "./mods/cce/internal/x/cc.js",
      "__unresolved_8": "./mods/fs/0/assets/network/koi/game/global/pomelo-package.js",
      "__unresolved_9": "./mods/fs/0/assets/network/koi/game/protos/chat/chatPushProtos.js",
      "__unresolved_6": "./mods/fs/0/assets/network/koi/game/protos/chat/clientProtos.js",
      "__unresolved_7": "./mods/fs/0/assets/network/koi/game/protos/chat/serverProtos.js",
      "__unresolved_4": "./mods/fs/0/assets/network/koi/game/protos/lobby/clientProtos.lobby.js",
      "__unresolved_5": "./mods/fs/0/assets/network/koi/game/protos/lobby/serverProtos.lobby.js",
      "__unresolved_1": "./mods/fs/0/assets/network/koi/game/protos/user/clientProtos.js",
      "__unresolved_3": "./mods/fs/0/assets/network/koi/game/protos/user/pushProtos.js",
      "__unresolved_2": "./mods/fs/0/assets/network/koi/game/protos/user/serverProtos.js",
      "__unresolved_0": "./mods/cce/internal/code-quality/cr.js"
    },
    "./mods/fs/0/assets/network/koi/game/global/pomelo-package.js": {
      "cc": "./mods/cce/internal/x/cc.js",
      "__unresolved_1": "./mods/fs/0/assets/network/koi/game/global/pomelo-socket.js",
      "__unresolved_2": "./mods/fs/0/assets/network/koi/game/global/queue.js",
      "__unresolved_0": "./mods/cce/internal/code-quality/cr.js"
    },
    "./mods/fs/0/assets/network/koi/game/global/pomelo-socket.js": {
      "cc": "./mods/cce/internal/x/cc.js",
      "__unresolved_1": "./mods/fs/0/assets/network/koi/game/global/queue.js",
      "__unresolved_0": "./mods/cce/internal/code-quality/cr.js"
    },
    "./mods/fs/0/assets/network/koi/game/global/queue.js": {
      "cc": "./mods/cce/internal/x/cc.js"
    },
    "./mods/fs/0/assets/network/koi/game/lib/tsMD5.js": {
      "cc": "./mods/cce/internal/x/cc.js"
    },
    "./mods/fs/0/assets/network/koi/game/lib/pomelo/pomelo.js": {
      "cc": "./mods/cce/internal/x/cc.js"
    },
    "./mods/fs/0/assets/network/koi/game/protos/auth/clientProtos.auth.js": {
      "cc": "./mods/cce/internal/x/cc.js"
    },
    "./mods/fs/0/assets/network/koi/game/protos/chat/clientProtos.js": {
      "cc": "./mods/cce/internal/x/cc.js"
    },
    "./mods/fs/0/assets/network/koi/game/protos/chat/serverProtos.js": {
      "cc": "./mods/cce/internal/x/cc.js"
    },
    "./mods/fs/0/assets/network/koi/game/protos/lobby/clientProtos.lobby.js": {
      "cc": "./mods/cce/internal/x/cc.js"
    },
    "./mods/fs/0/assets/network/koi/game/protos/auth/serverProtos.auth.js": {
      "cc": "./mods/cce/internal/x/cc.js"
    },
    "./mods/fs/0/assets/network/koi/game/protos/lobby/pushProtos.lobby.js": {
      "cc": "./mods/cce/internal/x/cc.js"
    },
    "./mods/fs/0/assets/network/koi/game/protos/lobby/serverProtos.lobby.js": {
      "cc": "./mods/cce/internal/x/cc.js"
    },
    "./mods/fs/0/assets/network/koi/game/protos/user/pushProtos.js": {
      "cc": "./mods/cce/internal/x/cc.js"
    },
    "./mods/fs/0/assets/network/koi/game/protos/user/clientProtos.js": {
      "cc": "./mods/cce/internal/x/cc.js"
    },
    "./mods/fs/0/assets/network/loadConfig.js": {
      "cc": "./mods/cce/internal/x/cc.js"
    },
    "./mods/fs/0/assets/network/koi/game/protos/user/serverProtos.js": {
      "cc": "./mods/cce/internal/x/cc.js"
    },
    "./mods/fs/0/assets/network/koi/game/protos/chat/chatPushProtos.js": {
      "cc": "./mods/cce/internal/x/cc.js"
    },
    "./mods/fs/0/assets/network/userData.js": {
      "cc": "./mods/cce/internal/x/cc.js",
      "__unresolved_1": "./mods/fs/0/assets/network/entry.js",
      "__unresolved_0": "./mods/cce/internal/code-quality/cr.js"
    },
    "./mods/fs/0/assets/network/tools.js": {
      "cc": "./mods/cce/internal/x/cc.js"
    },
    "./mods/fs/0/assets/network/koi/game/protos/auth/pushProtos.auth.js": {
      "cc": "./mods/cce/internal/x/cc.js"
    },
    "./mods/fs/0/assets/network/req.js": {
      "cc": "./mods/cce/internal/x/cc.js",
      "__unresolved_1": "./mods/fs/0/assets/network/entry.js",
      "__unresolved_3": "./mods/fs/0/assets/network/baseUtil.js",
      "__unresolved_4": "./mods/fs/0/assets/network/koi/game/global/pomelo-socket.js",
      "__unresolved_2": "./mods/fs/0/assets/network/tools.js",
      "__unresolved_5": "./mods/fs/0/assets/network/userData.js",
      "__unresolved_0": "./mods/cce/internal/code-quality/cr.js"
    },
    "./mods/fs/0/assets/game/NewComponent.js": {
      "cc": "./mods/cce/internal/x/cc.js"
    },
    "./mods/fs/0/assets/game/StarlightPrincess_Labelhuxi.js": {
      "cc": "./mods/cce/internal/x/cc.js"
    },
    "./mods/fs/0/assets/game/StarlightPrincess_sSlotHorGameEntityAdapter.js": {
      "cc": "./mods/cce/internal/x/cc.js",
      "__unresolved_3": "./mods/fs/0/assets/lobby/hyPrefabs/gameRes/external/UIFreeWinBuy.js",
      "__unresolved_1": "./mods/fs/0/assets/lobby/hyPrefabs/gameRes/external/sSlotHorGameEntityAdapter.js",
      "__unresolved_0": "./mods/cce/internal/code-quality/cr.js",
      "__unresolved_2": "./mods/fs/0/assets/lobby/game/core/sUtil.js"
    },
    "./mods/fs/0/assets/entryAdapter.js": {
      "cc": "./mods/cce/internal/x/cc.js",
      "__unresolved_1": "./mods/fs/0/assets/network/req.js",
      "__unresolved_2": "./mods/fs/0/assets/network/userData.js",
      "__unresolved_0": "./mods/cce/internal/code-quality/cr.js",
      "__unresolved_3": "./mods/fs/0/assets/lobby/game/core/sAssetMgr.js",
      "__unresolved_4": "./mods/fs/0/assets/lobby/game/core/sConfigMgr.js"
    },
    "./mods/fs/0/assets/game/StarlightPrincess_Entity.js": {
      "cc": "./mods/cce/internal/x/cc.js",
      "__unresolved_5": "./mods/fs/0/assets/game/StarlightPrincess_Thunder.js",
      "__unresolved_0": "./mods/cce/internal/code-quality/cr.js",
      "__unresolved_4": "./mods/fs/0/assets/lobby/game/core/sAudioMgr.js",
      "__unresolved_3": "./mods/fs/0/assets/lobby/game/core/sBoxAssetInit.js",
      "__unresolved_1": "./mods/fs/0/assets/lobby/game/core/sBoxEntity.js",
      "__unresolved_2": "./mods/fs/0/assets/lobby/game/core/sObjPool.js"
    },
    "./mods/fs/0/assets/game/StarlightPrincess_BoxItem.js": {
      "cc": "./mods/cce/internal/x/cc.js",
      "__unresolved_0": "./mods/cce/internal/code-quality/cr.js",
      "__unresolved_2": "./mods/fs/0/assets/lobby/game/core/sAssetMgr.js",
      "__unresolved_1": "./mods/fs/0/assets/lobby/game/core/sBoxItemBase.js",
      "__unresolved_4": "./mods/fs/0/assets/lobby/game/core/sConfigMgr.js",
      "__unresolved_3": "./mods/fs/0/assets/lobby/game/core/sObjPool.js",
      "__unresolved_5": "./mods/fs/0/assets/lobby/game/core/sUtil.js"
    },
    "./mods/fs/0/assets/game/StarlightPrincess_Huaxianzi.js": {
      "cc": "./mods/cce/internal/x/cc.js"
    },
    "./mods/fs/0/assets/game/StarlightPrincess_UIFreewinBingoFree.js": {
      "cc": "./mods/cce/internal/x/cc.js",
      "__unresolved_0": "./mods/cce/internal/code-quality/cr.js",
      "__unresolved_2": "./mods/fs/0/assets/lobby/game/core/sAudioMgr.js",
      "__unresolved_1": "./mods/fs/0/assets/lobby/game/core/sComponent.js"
    },
    "./mods/fs/0/assets/game/StarlightPrincess_weightNode.js": {
      "cc": "./mods/cce/internal/x/cc.js"
    },
    "./mods/fs/0/assets/game/StarlightPrincess_BigWin.js": {
      "cc": "./mods/cce/internal/x/cc.js",
      "__unresolved_0": "./mods/cce/internal/code-quality/cr.js",
      "__unresolved_3": "./mods/fs/0/assets/lobby/game/core/sAudioMgr.js",
      "__unresolved_1": "./mods/fs/0/assets/lobby/game/core/sComponent.js",
      "__unresolved_2": "./mods/fs/0/assets/lobby/game/core/sUtil.js"
    },
    "./mods/fs/0/assets/game/StarlightPrincess_FreewinFlow.js": {
      "cc": "./mods/cce/internal/x/cc.js",
      "__unresolved_0": "./mods/cce/internal/code-quality/cr.js",
      "__unresolved_5": "./mods/fs/0/assets/lobby/game/core/sAudioMgr.js",
      "__unresolved_1": "./mods/fs/0/assets/lobby/game/core/sFreeWinFlow.js",
      "__unresolved_2": "./mods/fs/0/assets/lobby/game/core/sConfigMgr.js",
      "__unresolved_3": "./mods/fs/0/assets/lobby/game/core/sBoxMgr.js",
      "__unresolved_4": "./mods/fs/0/assets/lobby/game/core/sUtil.js"
    },
    "./mods/fs/0/assets/game/StarlightPrincess_NormalFlow.js": {
      "cc": "./mods/cce/internal/x/cc.js",
      "__unresolved_0": "./mods/cce/internal/code-quality/cr.js",
      "__unresolved_3": "./mods/fs/0/assets/lobby/game/core/sAudioMgr.js",
      "__unresolved_5": "./mods/fs/0/assets/lobby/game/core/sConfigMgr.js",
      "__unresolved_2": "./mods/fs/0/assets/lobby/game/core/sBoxMgr.js",
      "__unresolved_1": "./mods/fs/0/assets/lobby/game/core/sNormalFlow.js",
      "__unresolved_4": "./mods/fs/0/assets/lobby/game/core/sUtil.js"
    },
    "./mods/fs/0/assets/game/StarlightPrincess_TotalWin.js": {
      "cc": "./mods/cce/internal/x/cc.js",
      "__unresolved_0": "./mods/cce/internal/code-quality/cr.js",
      "__unresolved_2": "./mods/fs/0/assets/lobby/game/core/UIBase.js",
      "__unresolved_1": "./mods/fs/0/assets/lobby/game/core/sAudioMgr.js",
      "__unresolved_3": "./mods/fs/0/assets/lobby/game/core/sUtil.js"
    },
    "./mods/fs/0/assets/game/StarlightPrincess_UIFreeSpinEntry.js": {
      "cc": "./mods/cce/internal/x/cc.js",
      "__unresolved_0": "./mods/cce/internal/code-quality/cr.js",
      "__unresolved_2": "./mods/fs/0/assets/lobby/game/core/sAudioMgr.js",
      "__unresolved_1": "./mods/fs/0/assets/lobby/game/core/sComponent.js"
    },
    "./mods/fs/0/assets/game/StarlightPrincess_Board.js": {
      "cc": "./mods/cce/internal/x/cc.js",
      "__unresolved_0": "./mods/cce/internal/code-quality/cr.js",
      "__unresolved_5": "./mods/fs/0/assets/lobby/game/core/sAssetMgr.js",
      "__unresolved_4": "./mods/fs/0/assets/lobby/game/core/sAudioMgr.js",
      "__unresolved_1": "./mods/fs/0/assets/lobby/game/core/sComponent.js",
      "__unresolved_2": "./mods/fs/0/assets/lobby/game/core/sObjPool.js",
      "__unresolved_3": "./mods/fs/0/assets/lobby/game/core/sUtil.js"
    },
    "./mods/fs/0/assets/game/StarlightPrincess_SceneAdater.js": {
      "cc": "./mods/cce/internal/x/cc.js",
      "__unresolved_9": "./mods/fs/0/assets/game/StarlightPrincess_Entity.js",
      "__unresolved_8": "./mods/fs/0/assets/game/StarlightPrincess_WinTipLabel.js",
      "__unresolved_7": "./mods/fs/0/assets/game/soltGameCheckLine_149.js",
      "__unresolved_0": "./mods/cce/internal/code-quality/cr.js",
      "__unresolved_2": "./mods/fs/0/assets/lobby/game/core/sAudioMgr.js",
      "__unresolved_6": "./mods/fs/0/assets/lobby/game/core/sBoxAssetInit.js",
      "__unresolved_1": "./mods/fs/0/assets/lobby/game/core/sComponent.js",
      "__unresolved_4": "./mods/fs/0/assets/lobby/game/core/sBoxMgr.js",
      "__unresolved_5": "./mods/fs/0/assets/lobby/game/core/sObjPool.js",
      "__unresolved_3": "./mods/fs/0/assets/lobby/game/core/sUtil.js"
    },
    "./mods/cce/internal/x/cc.js": {
      "__unresolved_0": "cce:/internal/x/cc-fu/2d",
      "__unresolved_1": "cce:/internal/x/cc-fu/3d",
      "__unresolved_2": "cce:/internal/x/cc-fu/audio",
      "__unresolved_3": "cce:/internal/x/cc-fu/base",
      "__unresolved_4": "cce:/internal/x/cc-fu/dragon-bones",
      "__unresolved_5": "cce:/internal/x/cc-fu/gfx-webgl",
      "__unresolved_6": "cce:/internal/x/cc-fu/gfx-webgl2",
      "__unresolved_7": "cce:/internal/x/cc-fu/intersection-2d",
      "__unresolved_8": "cce:/internal/x/cc-fu/particle",
      "__unresolved_9": "cce:/internal/x/cc-fu/particle-2d",
      "__unresolved_10": "cce:/internal/x/cc-fu/physics-2d-box2d",
      "__unresolved_11": "cce:/internal/x/cc-fu/physics-2d-framework",
      "__unresolved_12": "cce:/internal/x/cc-fu/physics-ammo",
      "__unresolved_13": "cce:/internal/x/cc-fu/physics-framework",
      "__unresolved_14": "cce:/internal/x/cc-fu/wait-for-ammo-instantiation",
      "__unresolved_15": "cce:/internal/x/cc-fu/primitive",
      "__unresolved_16": "cce:/internal/x/cc-fu/profiler",
      "__unresolved_17": "cce:/internal/x/cc-fu/spine",
      "__unresolved_18": "cce:/internal/x/cc-fu/terrain",
      "__unresolved_19": "cce:/internal/x/cc-fu/tiled-map",
      "__unresolved_20": "cce:/internal/x/cc-fu/tween",
      "__unresolved_21": "cce:/internal/x/cc-fu/ui",
      "__unresolved_22": "cce:/internal/x/cc-fu/video",
      "__unresolved_23": "cce:/internal/x/cc-fu/webview"
    },
    "./mods/cce/internal/x/prerequisite-imports.js": {
      "__unresolved_0": "./mods/fs/0/assets/entryAdapter.js",
      "__unresolved_2": "./mods/fs/0/assets/game/StarlightPrincess_Board.js",
      "__unresolved_1": "./mods/fs/0/assets/game/StarlightPrincess_BigWin.js",
      "__unresolved_3": "./mods/fs/0/assets/game/StarlightPrincess_BoxItem.js",
      "__unresolved_4": "./mods/fs/0/assets/game/StarlightPrincess_Entity.js",
      "__unresolved_5": "./mods/fs/0/assets/game/StarlightPrincess_FreeWinBuyCtr.js",
      "__unresolved_7": "./mods/fs/0/assets/game/StarlightPrincess_GameEntity.js",
      "__unresolved_6": "./mods/fs/0/assets/game/StarlightPrincess_FreewinFlow.js",
      "__unresolved_9": "./mods/fs/0/assets/game/StarlightPrincess_Huaxianzi.js",
      "__unresolved_10": "./mods/fs/0/assets/game/StarlightPrincess_NormalFlow.js",
      "__unresolved_8": "./mods/fs/0/assets/game/StarlightPrincess_History.js",
      "__unresolved_11": "./mods/fs/0/assets/game/StarlightPrincess_OverEffect.js",
      "__unresolved_12": "./mods/fs/0/assets/game/StarlightPrincess_SceneAdater.js",
      "__unresolved_13": "./mods/fs/0/assets/game/StarlightPrincess_Thunder.js",
      "__unresolved_14": "./mods/fs/0/assets/game/StarlightPrincess_TotalWin.js",
      "__unresolved_15": "./mods/fs/0/assets/game/StarlightPrincess_UIFreeSpinEntry.js",
      "__unresolved_16": "./mods/fs/0/assets/game/StarlightPrincess_UIFreeWinBuy.js",
      "__unresolved_17": "./mods/fs/0/assets/game/StarlightPrincess_UIFreewinBingoFree.js",
      "__unresolved_18": "./mods/fs/0/assets/game/StarlightPrincess_WinTipLabel.js",
      "__unresolved_19": "./mods/fs/0/assets/game/StarlightPrincess_sSlotHorGameEntityAdapter.js",
      "__unresolved_20": "./mods/fs/0/assets/game/StarlightPrincess_weightNode.js",
      "__unresolved_21": "./mods/fs/0/assets/game/soltGameCheckLine_149.js",
      "__unresolved_80": "./mods/fs/0/assets/lobby/hyPrefabs/gameRes/external/UIAutoSpin.js",
      "__unresolved_82": "./mods/fs/0/assets/lobby/hyPrefabs/gameRes/external/UIFreeWinBuy.js",
      "__unresolved_83": "./mods/fs/0/assets/lobby/hyPrefabs/gameRes/external/UIImgView.js",
      "__unresolved_84": "./mods/fs/0/assets/lobby/hyPrefabs/gameRes/external/UIPopup.js",
      "__unresolved_81": "./mods/fs/0/assets/lobby/hyPrefabs/gameRes/external/UIFreeWinBetInfo.js",
      "__unresolved_85": "./mods/fs/0/assets/lobby/hyPrefabs/gameRes/external/UISelectBet.js",
      "__unresolved_86": "./mods/fs/0/assets/lobby/hyPrefabs/gameRes/external/bonus/sBonusCtr.js",
      "__unresolved_87": "./mods/fs/0/assets/lobby/hyPrefabs/gameRes/external/btnInternationalManager.js",
      "__unresolved_88": "./mods/fs/0/assets/lobby/hyPrefabs/gameRes/external/btnInternationalizationScript.js",
      "__unresolved_89": "./mods/fs/0/assets/lobby/hyPrefabs/gameRes/external/intro/ristIntro.js",
      "__unresolved_90": "./mods/fs/0/assets/lobby/hyPrefabs/gameRes/external/jackpot/sJackPotEffect.js",
      "__unresolved_91": "./mods/fs/0/assets/lobby/hyPrefabs/gameRes/external/rist_BigWin/Slots_win/ristBigWinCtr.js",
      "__unresolved_92": "./mods/fs/0/assets/lobby/hyPrefabs/gameRes/external/rist_BigWin/Slots_win/ristFreeSpin.js",
      "__unresolved_93": "./mods/fs/0/assets/lobby/hyPrefabs/gameRes/external/rist_BigWin/Slots_win/ristTotalWin.js",
      "__unresolved_94": "./mods/fs/0/assets/lobby/hyPrefabs/gameRes/external/sGameEntity.js",
      "__unresolved_95": "./mods/fs/0/assets/lobby/hyPrefabs/gameRes/external/sSlotBtnAssetInit.js",
      "__unresolved_96": "./mods/fs/0/assets/lobby/hyPrefabs/gameRes/external/sSlotEmptyGameEntityAdapter.js",
      "__unresolved_98": "./mods/fs/0/assets/lobby/hyPrefabs/gameRes/external/sSlotPGGameEntityAdapter.js",
      "__unresolved_97": "./mods/fs/0/assets/lobby/hyPrefabs/gameRes/external/sSlotHorGameEntityAdapter.js",
      "__unresolved_99": "./mods/fs/0/assets/lobby/hyPrefabs/gameRes/external/sSlotRistGameEntityAdapter.js",
      "__unresolved_100": "./mods/fs/0/assets/lobby/hyPrefabs/gameRes/external/slotLine/slotLinesMgr.js",
      "__unresolved_101": "./mods/fs/0/assets/lobby/hyPrefabs/gameRes/record/script/gameRecord.js",
      "__unresolved_102": "./mods/fs/0/assets/lobby/hyPrefabs/gameRes/record/script/gameRecordImgFollow.js",
      "__unresolved_103": "./mods/fs/0/assets/lobby/hyPrefabs/gameRes/record/script/gameRecordImgItem.js",
      "__unresolved_104": "./mods/fs/0/assets/lobby/hyPrefabs/gameRes/record/script/gameRecordItem.js",
      "__unresolved_105": "./mods/fs/0/assets/lobby/scripts/internationalizationScript1.js",
      "__unresolved_106": "./mods/fs/0/assets/lobby/scripts/util/scrollViewCycle.js",
      "__unresolved_107": "./mods/fs/0/assets/network/baseUtil.js",
      "__unresolved_108": "./mods/fs/0/assets/network/entry.js",
      "__unresolved_109": "./mods/fs/0/assets/network/global/game.js",
      "__unresolved_110": "./mods/fs/0/assets/network/global/global-entry.js",
      "__unresolved_111": "./mods/fs/0/assets/network/global/load-back.js",
      "__unresolved_112": "./mods/fs/0/assets/network/global/node-cache.js",
      "__unresolved_113": "./mods/fs/0/assets/network/global/setting.js",
      "__unresolved_114": "./mods/fs/0/assets/network/global/tipRes.js",
      "__unresolved_115": "./mods/fs/0/assets/network/global/user.js",
      "__unresolved_116": "./mods/fs/0/assets/network/koi/game/game-entry.js",
      "__unresolved_117": "./mods/fs/0/assets/network/koi/game/global/pomelo-package.js",
      "__unresolved_118": "./mods/fs/0/assets/network/koi/game/global/pomelo-socket.js",
      "__unresolved_119": "./mods/fs/0/assets/network/koi/game/global/queue.js",
      "__unresolved_120": "./mods/fs/0/assets/network/koi/game/lib/pomelo/pomelo.js",
      "__unresolved_121": "./mods/fs/0/assets/network/koi/game/lib/tsMD5.js",
      "__unresolved_122": "./mods/fs/0/assets/network/koi/game/protos/auth/clientProtos.auth.js",
      "__unresolved_123": "./mods/fs/0/assets/network/koi/game/protos/auth/pushProtos.auth.js",
      "__unresolved_124": "./mods/fs/0/assets/network/koi/game/protos/auth/serverProtos.auth.js",
      "__unresolved_125": "./mods/fs/0/assets/network/koi/game/protos/chat/chatPushProtos.js",
      "__unresolved_126": "./mods/fs/0/assets/network/koi/game/protos/chat/clientProtos.js",
      "__unresolved_127": "./mods/fs/0/assets/network/koi/game/protos/chat/serverProtos.js",
      "__unresolved_128": "./mods/fs/0/assets/network/koi/game/protos/lobby/clientProtos.lobby.js",
      "__unresolved_129": "./mods/fs/0/assets/network/koi/game/protos/lobby/pushProtos.lobby.js",
      "__unresolved_130": "./mods/fs/0/assets/network/koi/game/protos/lobby/serverProtos.lobby.js",
      "__unresolved_131": "./mods/fs/0/assets/network/koi/game/protos/user/clientProtos.js",
      "__unresolved_132": "./mods/fs/0/assets/network/koi/game/protos/user/pushProtos.js",
      "__unresolved_133": "./mods/fs/0/assets/network/koi/game/protos/user/serverProtos.js",
      "__unresolved_134": "./mods/fs/0/assets/network/loadConfig.js",
      "__unresolved_135": "./mods/fs/0/assets/network/req.js",
      "__unresolved_136": "./mods/fs/0/assets/network/tools.js",
      "__unresolved_137": "./mods/fs/0/assets/network/userData.js",
      "__unresolved_22": "./mods/fs/0/assets/lobby/game/core/UIBase.js",
      "__unresolved_26": "./mods/fs/0/assets/lobby/game/core/mFreeWinFlow.js",
      "__unresolved_23": "./mods/fs/0/assets/lobby/game/core/UITotalWin.js",
      "__unresolved_24": "./mods/fs/0/assets/lobby/game/core/animaClipCtr.js",
      "__unresolved_27": "./mods/fs/0/assets/lobby/game/core/mNormalFlow.js",
      "__unresolved_30": "./mods/fs/0/assets/lobby/game/core/protos/desk/deskClientProtos.js",
      "__unresolved_29": "./mods/fs/0/assets/lobby/game/core/protos/bonus/jackpotServerProtos.js",
      "__unresolved_31": "./mods/fs/0/assets/lobby/game/core/protos/desk/deskPushProtos.js",
      "__unresolved_28": "./mods/fs/0/assets/lobby/game/core/protos/bonus/jackpotClientProtos.js",
      "__unresolved_32": "./mods/fs/0/assets/lobby/game/core/protos/desk/deskServerProtos.js",
      "__unresolved_33": "./mods/fs/0/assets/lobby/game/core/protos/slot/pushProtos.slot.js",
      "__unresolved_35": "./mods/fs/0/assets/lobby/game/core/protos/slot/slotServerProtos.js",
      "__unresolved_36": "./mods/fs/0/assets/lobby/game/core/sAnimationFrame.js",
      "__unresolved_34": "./mods/fs/0/assets/lobby/game/core/protos/slot/slotClientProtos.js",
      "__unresolved_37": "./mods/fs/0/assets/lobby/game/core/sAssetMgr.js",
      "__unresolved_39": "./mods/fs/0/assets/lobby/game/core/sBetBtnAction.js",
      "__unresolved_25": "./mods/fs/0/assets/lobby/game/core/animaFramePlist.js",
      "__unresolved_38": "./mods/fs/0/assets/lobby/game/core/sAudioMgr.js",
      "__unresolved_40": "./mods/fs/0/assets/lobby/game/core/sBoxAssetInit.js",
      "__unresolved_43": "./mods/fs/0/assets/lobby/game/core/sBoxItemBase.js",
      "__unresolved_42": "./mods/fs/0/assets/lobby/game/core/sBoxIntroTip.js",
      "__unresolved_41": "./mods/fs/0/assets/lobby/game/core/sBoxEntity.js",
      "__unresolved_47": "./mods/fs/0/assets/lobby/game/core/sCoreNetReq.js",
      "__unresolved_45": "./mods/fs/0/assets/lobby/game/core/sComponent.js",
      "__unresolved_48": "./mods/fs/0/assets/lobby/game/core/sDeskReq.js",
      "__unresolved_49": "./mods/fs/0/assets/lobby/game/core/sFitScreen.js",
      "__unresolved_50": "./mods/fs/0/assets/lobby/game/core/sFreeWinBuyView.js",
      "__unresolved_51": "./mods/fs/0/assets/lobby/game/core/sFreeWinFlow.js",
      "__unresolved_46": "./mods/fs/0/assets/lobby/game/core/sConfigMgr.js",
      "__unresolved_52": "./mods/fs/0/assets/lobby/game/core/sGameFlowBase.js",
      "__unresolved_55": "./mods/fs/0/assets/lobby/game/core/sInternationalManager.js",
      "__unresolved_53": "./mods/fs/0/assets/lobby/game/core/sGameMgrBase.js",
      "__unresolved_56": "./mods/fs/0/assets/lobby/game/core/sInternationalizationImgScript.js",
      "__unresolved_57": "./mods/fs/0/assets/lobby/game/core/sInternationalizationScript.js",
      "__unresolved_58": "./mods/fs/0/assets/lobby/game/core/sIntroView.js",
      "__unresolved_44": "./mods/fs/0/assets/lobby/game/core/sBoxMgr.js",
      "__unresolved_60": "./mods/fs/0/assets/lobby/game/core/sMotionMgr.js",
      "__unresolved_54": "./mods/fs/0/assets/lobby/game/core/sHorizontalBoxMgr.js",
      "__unresolved_61": "./mods/fs/0/assets/lobby/game/core/sMotionTween.js",
      "__unresolved_59": "./mods/fs/0/assets/lobby/game/core/sJackpotBoxItem.js",
      "__unresolved_65": "./mods/fs/0/assets/lobby/game/core/sNormalFlow.js",
      "__unresolved_63": "./mods/fs/0/assets/lobby/game/core/sNewPokerGameMgr.js",
      "__unresolved_64": "./mods/fs/0/assets/lobby/game/core/sNewPokerPlayerEntity.js",
      "__unresolved_62": "./mods/fs/0/assets/lobby/game/core/sNewPokerCardBase.js",
      "__unresolved_66": "./mods/fs/0/assets/lobby/game/core/sObjPool.js",
      "__unresolved_68": "./mods/fs/0/assets/lobby/game/core/sPokerChip.js",
      "__unresolved_70": "./mods/fs/0/assets/lobby/game/core/sPokerPlayerEntity.js",
      "__unresolved_67": "./mods/fs/0/assets/lobby/game/core/sPokerCardBase.js",
      "__unresolved_69": "./mods/fs/0/assets/lobby/game/core/sPokerGameMgr.js",
      "__unresolved_71": "./mods/fs/0/assets/lobby/game/core/sPokerSelRoom.js",
      "__unresolved_72": "./mods/fs/0/assets/lobby/game/core/sSlotSceneInfo.js",
      "__unresolved_73": "./mods/fs/0/assets/lobby/game/core/sSoltFreeWinBuyCtr.js",
      "__unresolved_74": "./mods/fs/0/assets/lobby/game/core/sSpineAnimaCtr.js",
      "__unresolved_77": "./mods/fs/0/assets/lobby/game/core/sViewImgWidgetAdapter.js",
      "__unresolved_75": "./mods/fs/0/assets/lobby/game/core/sTouchView.js",
      "__unresolved_79": "./mods/fs/0/assets/lobby/game/core/subGameSliderFor.js",
      "__unresolved_76": "./mods/fs/0/assets/lobby/game/core/sUtil.js",
      "__unresolved_78": "./mods/fs/0/assets/lobby/game/core/subGameReq.js"
    },
    "./mods/fs/0/assets/lobby/game/core/UIBase.js": {
      "__unresolved_0": "./mods/cce/internal/code-quality/cr.js",
      "cc": "./mods/cce/internal/x/cc.js",
      "__unresolved_1": "./mods/fs/0/assets/lobby/game/core/sComponent.js"
    },
    "./mods/fs/0/assets/lobby/game/core/mFreeWinFlow.js": {
      "__unresolved_0": "./mods/cce/internal/code-quality/cr.js",
      "cc": "./mods/cce/internal/x/cc.js",
      "__unresolved_1": "./mods/fs/0/assets/lobby/game/core/sAudioMgr.js",
      "__unresolved_3": "./mods/fs/0/assets/lobby/game/core/sConfigMgr.js",
      "__unresolved_2": "./mods/fs/0/assets/lobby/game/core/sBoxMgr.js",
      "__unresolved_4": "./mods/fs/0/assets/lobby/game/core/sFreeWinFlow.js",
      "__unresolved_5": "./mods/fs/0/assets/lobby/game/core/sObjPool.js",
      "__unresolved_6": "./mods/fs/0/assets/lobby/game/core/sUtil.js"
    },
    "./mods/fs/0/assets/lobby/game/core/mNormalFlow.js": {
      "__unresolved_0": "./mods/cce/internal/code-quality/cr.js",
      "cc": "./mods/cce/internal/x/cc.js",
      "__unresolved_1": "./mods/fs/0/assets/lobby/game/core/sAudioMgr.js",
      "__unresolved_2": "./mods/fs/0/assets/lobby/game/core/sBoxMgr.js",
      "__unresolved_3": "./mods/fs/0/assets/lobby/game/core/sConfigMgr.js",
      "__unresolved_4": "./mods/fs/0/assets/lobby/game/core/sNormalFlow.js",
      "__unresolved_5": "./mods/fs/0/assets/lobby/game/core/sObjPool.js",
      "__unresolved_6": "./mods/fs/0/assets/lobby/game/core/sUtil.js"
    },
    "./mods/fs/0/assets/lobby/game/core/animaClipCtr.js": {
      "__unresolved_0": "./mods/cce/internal/code-quality/cr.js",
      "cc": "./mods/cce/internal/x/cc.js",
      "__unresolved_1": "./mods/fs/0/assets/lobby/game/core/sComponent.js"
    },
    "./mods/fs/0/assets/lobby/game/core/UITotalWin.js": {
      "__unresolved_0": "./mods/cce/internal/code-quality/cr.js",
      "cc": "./mods/cce/internal/x/cc.js",
      "__unresolved_1": "./mods/fs/0/assets/lobby/game/core/sAudioMgr.js",
      "__unresolved_2": "./mods/fs/0/assets/lobby/game/core/sUtil.js",
      "__unresolved_3": "./mods/fs/0/assets/lobby/game/core/UIBase.js"
    },
    "./mods/fs/0/assets/lobby/game/core/protos/bonus/jackpotServerProtos.js": {
      "cc": "./mods/cce/internal/x/cc.js"
    },
    "./mods/fs/0/assets/lobby/game/core/protos/desk/deskClientProtos.js": {
      "cc": "./mods/cce/internal/x/cc.js"
    },
    "./mods/fs/0/assets/lobby/game/core/protos/bonus/jackpotClientProtos.js": {
      "cc": "./mods/cce/internal/x/cc.js"
    },
    "./mods/fs/0/assets/lobby/game/core/protos/desk/deskPushProtos.js": {
      "cc": "./mods/cce/internal/x/cc.js"
    },
    "./mods/fs/0/assets/lobby/game/core/protos/desk/deskServerProtos.js": {
      "cc": "./mods/cce/internal/x/cc.js"
    },
    "./mods/fs/0/assets/lobby/game/core/protos/slot/pushProtos.slot.js": {
      "cc": "./mods/cce/internal/x/cc.js"
    },
    "./mods/fs/0/assets/lobby/game/core/protos/slot/slotServerProtos.js": {
      "cc": "./mods/cce/internal/x/cc.js"
    },
    "./mods/fs/0/assets/lobby/game/core/protos/slot/slotClientProtos.js": {
      "cc": "./mods/cce/internal/x/cc.js"
    },
    "./mods/fs/0/assets/lobby/game/core/sAnimationFrame.js": {
      "__unresolved_0": "./mods/cce/internal/code-quality/cr.js",
      "cc": "./mods/cce/internal/x/cc.js",
      "__unresolved_1": "./mods/fs/0/assets/lobby/game/core/sAssetMgr.js",
      "__unresolved_2": "./mods/fs/0/assets/lobby/game/core/sComponent.js",
      "__unresolved_3": "./mods/fs/0/assets/lobby/game/core/sObjPool.js"
    },
    "./mods/fs/0/assets/lobby/game/core/sAssetMgr.js": {
      "__unresolved_0": "./mods/cce/internal/code-quality/cr.js",
      "cc": "./mods/cce/internal/x/cc.js",
      "__unresolved_1": "./mods/fs/0/assets/lobby/game/core/sAudioMgr.js",
      "__unresolved_2": "./mods/fs/0/assets/lobby/game/core/sComponent.js",
      "__unresolved_3": "./mods/fs/0/assets/lobby/game/core/sInternationalManager.js",
      "__unresolved_5": "./mods/fs/0/assets/lobby/game/core/subGameReq.js",
      "__unresolved_4": "./mods/fs/0/assets/lobby/game/core/sObjPool.js",
      "__unresolved_6": "./mods/fs/0/assets/lobby/game/core/sUtil.js"
    },
    "./mods/fs/0/assets/lobby/game/core/sBetBtnAction.js": {
      "__unresolved_0": "./mods/cce/internal/code-quality/cr.js",
      "cc": "./mods/cce/internal/x/cc.js",
      "__unresolved_2": "./mods/fs/0/assets/lobby/game/core/sAudioMgr.js",
      "__unresolved_1": "./mods/fs/0/assets/lobby/game/core/sAnimationFrame.js",
      "__unresolved_3": "./mods/fs/0/assets/lobby/game/core/sComponent.js"
    },
    "./mods/fs/0/assets/lobby/game/core/animaFramePlist.js": {
      "__unresolved_0": "./mods/cce/internal/code-quality/cr.js",
      "cc": "./mods/cce/internal/x/cc.js",
      "__unresolved_2": "./mods/fs/0/assets/lobby/game/core/sComponent.js",
      "__unresolved_1": "./mods/fs/0/assets/lobby/game/core/sAssetMgr.js"
    },
    "./mods/fs/0/assets/lobby/game/core/sAudioMgr.js": {
      "cc": "./mods/cce/internal/x/cc.js"
    },
    "./mods/fs/0/assets/lobby/game/core/sBoxAssetInit.js": {
      "__unresolved_0": "./mods/cce/internal/code-quality/cr.js",
      "cc": "./mods/cce/internal/x/cc.js",
      "__unresolved_1": "./mods/fs/0/assets/lobby/game/core/sAssetMgr.js",
      "__unresolved_2": "./mods/fs/0/assets/lobby/game/core/sAudioMgr.js",
      "__unresolved_4": "./mods/fs/0/assets/lobby/game/core/sComponent.js",
      "__unresolved_3": "./mods/fs/0/assets/lobby/game/core/sBoxItemBase.js",
      "__unresolved_5": "./mods/fs/0/assets/lobby/game/core/sInternationalManager.js",
      "__unresolved_6": "./mods/fs/0/assets/lobby/game/core/sObjPool.js"
    },
    "./mods/fs/0/assets/lobby/game/core/sBoxItemBase.js": {
      "__unresolved_0": "./mods/cce/internal/code-quality/cr.js",
      "cc": "./mods/cce/internal/x/cc.js",
      "__unresolved_1": "./mods/fs/0/assets/lobby/game/core/sComponent.js"
    },
    "./mods/fs/0/assets/lobby/game/core/sBoxIntroTip.js": {
      "__unresolved_0": "./mods/cce/internal/code-quality/cr.js",
      "cc": "./mods/cce/internal/x/cc.js",
      "__unresolved_1": "./mods/fs/0/assets/lobby/game/core/sAudioMgr.js",
      "__unresolved_2": "./mods/fs/0/assets/lobby/game/core/sBoxMgr.js",
      "__unresolved_3": "./mods/fs/0/assets/lobby/game/core/sComponent.js",
      "__unresolved_4": "./mods/fs/0/assets/lobby/game/core/sConfigMgr.js"
    },
    "./mods/fs/0/assets/lobby/game/core/sBoxEntity.js": {
      "__unresolved_0": "./mods/cce/internal/code-quality/cr.js",
      "cc": "./mods/cce/internal/x/cc.js",
      "__unresolved_1": "./mods/fs/0/assets/lobby/game/core/sBoxItemBase.js",
      "__unresolved_2": "./mods/fs/0/assets/lobby/game/core/sConfigMgr.js",
      "__unresolved_3": "./mods/fs/0/assets/lobby/game/core/sSlotSceneInfo.js"
    },
    "./mods/fs/0/assets/lobby/game/core/sComponent.js": {
      "cc": "./mods/cce/internal/x/cc.js"
    },
    "./mods/fs/0/assets/lobby/game/core/sCoreNetReq.js": {
      "__unresolved_0": "./mods/cce/internal/code-quality/cr.js",
      "cc": "./mods/cce/internal/x/cc.js",
      "__unresolved_1": "./mods/fs/0/assets/lobby/game/core/protos/desk/deskClientProtos.js",
      "__unresolved_2": "./mods/fs/0/assets/lobby/game/core/protos/desk/deskPushProtos.js",
      "__unresolved_3": "./mods/fs/0/assets/lobby/game/core/protos/desk/deskServerProtos.js",
      "__unresolved_4": "./mods/fs/0/assets/lobby/game/core/protos/bonus/jackpotClientProtos.js",
      "__unresolved_5": "./mods/fs/0/assets/lobby/game/core/protos/bonus/jackpotServerProtos.js",
      "__unresolved_6": "./mods/fs/0/assets/lobby/game/core/protos/slot/slotClientProtos.js",
      "__unresolved_7": "./mods/fs/0/assets/lobby/game/core/protos/slot/slotServerProtos.js",
      "__unresolved_8": "./mods/fs/0/assets/lobby/game/core/protos/slot/pushProtos.slot.js"
    },
    "./mods/fs/0/assets/lobby/game/core/sDeskReq.js": {
      "cc": "./mods/cce/internal/x/cc.js"
    },
    "./mods/fs/0/assets/lobby/game/core/sFitScreen.js": {
      "cc": "./mods/cce/internal/x/cc.js"
    },
    "./mods/fs/0/assets/lobby/game/core/sFreeWinBuyView.js": {
      "__unresolved_0": "./mods/cce/internal/code-quality/cr.js",
      "cc": "./mods/cce/internal/x/cc.js",
      "__unresolved_1": "./mods/fs/0/assets/lobby/game/core/sComponent.js",
      "__unresolved_2": "./mods/fs/0/assets/lobby/game/core/sAudioMgr.js"
    },
    "./mods/fs/0/assets/lobby/game/core/sFreeWinFlow.js": {
      "__unresolved_0": "./mods/cce/internal/code-quality/cr.js",
      "cc": "./mods/cce/internal/x/cc.js",
      "__unresolved_1": "./mods/fs/0/assets/lobby/game/core/sConfigMgr.js",
      "__unresolved_2": "./mods/fs/0/assets/lobby/game/core/sGameFlowBase.js",
      "__unresolved_3": "./mods/fs/0/assets/lobby/game/core/UIBase.js"
    },
    "./mods/fs/0/assets/lobby/game/core/sConfigMgr.js": {
      "__unresolved_0": "./mods/cce/internal/code-quality/cr.js",
      "cc": "./mods/cce/internal/x/cc.js",
      "__unresolved_1": "./mods/fs/0/assets/lobby/game/core/sComponent.js",
      "__unresolved_2": "./mods/fs/0/assets/lobby/game/core/sUtil.js",
      "__unresolved_3": "./mods/fs/0/assets/lobby/game/core/sSlotSceneInfo.js"
    },
    "./mods/fs/0/assets/lobby/game/core/sGameFlowBase.js": {
      "__unresolved_0": "./mods/cce/internal/code-quality/cr.js",
      "cc": "./mods/cce/internal/x/cc.js",
      "__unresolved_1": "./mods/fs/0/assets/lobby/game/core/sAudioMgr.js",
      "__unresolved_2": "./mods/fs/0/assets/lobby/game/core/sBoxMgr.js",
      "__unresolved_3": "./mods/fs/0/assets/lobby/game/core/sComponent.js",
      "__unresolved_4": "./mods/fs/0/assets/lobby/game/core/sConfigMgr.js",
      "__unresolved_5": "./mods/fs/0/assets/lobby/game/core/sGameMgrBase.js",
      "__unresolved_6": "./mods/fs/0/assets/lobby/game/core/sUtil.js"
    },
    "./mods/fs/0/assets/lobby/game/core/sGameMgrBase.js": {
      "__unresolved_0": "./mods/cce/internal/code-quality/cr.js",
      "cc": "./mods/cce/internal/x/cc.js",
      "__unresolved_1": "./mods/fs/0/assets/lobby/game/core/sAudioMgr.js",
      "__unresolved_2": "./mods/fs/0/assets/lobby/game/core/sBoxMgr.js",
      "__unresolved_3": "./mods/fs/0/assets/lobby/game/core/sComponent.js",
      "__unresolved_4": "./mods/fs/0/assets/lobby/game/core/sConfigMgr.js",
      "__unresolved_5": "./mods/fs/0/assets/lobby/game/core/sHorizontalBoxMgr.js",
      "__unresolved_6": "./mods/fs/0/assets/lobby/game/core/sUtil.js"
    },
    "./mods/fs/0/assets/lobby/game/core/sInternationalManager.js": {
      "cc": "./mods/cce/internal/x/cc.js"
    },
    "./mods/fs/0/assets/lobby/game/core/sInternationalizationImgScript.js": {
      "__unresolved_0": "./mods/cce/internal/code-quality/cr.js",
      "cc": "./mods/cce/internal/x/cc.js",
      "__unresolved_1": "./mods/fs/0/assets/lobby/game/core/sAssetMgr.js",
      "__unresolved_2": "./mods/fs/0/assets/lobby/game/core/sComponent.js"
    },
    "./mods/fs/0/assets/lobby/game/core/sBoxMgr.js": {
      "__unresolved_0": "./mods/cce/internal/code-quality/cr.js",
      "cc": "./mods/cce/internal/x/cc.js",
      "__unresolved_1": "./mods/fs/0/assets/lobby/game/core/sObjPool.js",
      "__unresolved_2": "./mods/fs/0/assets/lobby/game/core/sConfigMgr.js",
      "__unresolved_3": "./mods/fs/0/assets/lobby/game/core/sUtil.js",
      "__unresolved_4": "./mods/fs/0/assets/lobby/game/core/sBoxItemBase.js",
      "__unresolved_5": "./mods/fs/0/assets/lobby/game/core/sAudioMgr.js",
      "__unresolved_6": "./mods/fs/0/assets/lobby/game/core/sAssetMgr.js",
      "__unresolved_7": "./mods/fs/0/assets/lobby/game/core/sComponent.js",
      "__unresolved_8": "./mods/fs/0/assets/lobby/game/core/sMotionMgr.js",
      "__unresolved_9": "./mods/fs/0/assets/lobby/game/core/sSlotSceneInfo.js"
    },
    "./mods/fs/0/assets/lobby/game/core/sInternationalizationScript.js": {
      "__unresolved_0": "./mods/cce/internal/code-quality/cr.js",
      "cc": "./mods/cce/internal/x/cc.js",
      "__unresolved_1": "./mods/fs/0/assets/lobby/game/core/sComponent.js",
      "__unresolved_2": "./mods/fs/0/assets/lobby/game/core/sInternationalManager.js"
    },
    "./mods/fs/0/assets/lobby/game/core/sIntroView.js": {
      "__unresolved_0": "./mods/cce/internal/code-quality/cr.js",
      "cc": "./mods/cce/internal/x/cc.js",
      "__unresolved_1": "./mods/fs/0/assets/lobby/game/core/sComponent.js"
    },
    "./mods/fs/0/assets/lobby/game/core/sHorizontalBoxMgr.js": {
      "__unresolved_0": "./mods/cce/internal/code-quality/cr.js",
      "cc": "./mods/cce/internal/x/cc.js",
      "__unresolved_1": "./mods/fs/0/assets/lobby/game/core/sComponent.js",
      "__unresolved_2": "./mods/fs/0/assets/lobby/game/core/sConfigMgr.js",
      "__unresolved_3": "./mods/fs/0/assets/lobby/game/core/sObjPool.js",
      "__unresolved_4": "./mods/fs/0/assets/lobby/game/core/sMotionMgr.js"
    },
    "./mods/fs/0/assets/lobby/game/core/sMotionMgr.js": {
      "__unresolved_0": "./mods/cce/internal/code-quality/cr.js",
      "cc": "./mods/cce/internal/x/cc.js",
      "__unresolved_1": "./mods/fs/0/assets/lobby/game/core/sMotionTween.js"
    },
    "./mods/fs/0/assets/lobby/game/core/sMotionTween.js": {
      "cc": "./mods/cce/internal/x/cc.js"
    },
    "./mods/fs/0/assets/lobby/game/core/sJackpotBoxItem.js": {
      "__unresolved_0": "./mods/cce/internal/code-quality/cr.js",
      "cc": "./mods/cce/internal/x/cc.js",
      "__unresolved_1": "./mods/fs/0/assets/lobby/game/core/sBoxItemBase.js",
      "__unresolved_2": "./mods/fs/0/assets/lobby/game/core/sObjPool.js",
      "__unresolved_3": "./mods/fs/0/assets/lobby/game/core/sUtil.js"
    },
    "./mods/fs/0/assets/lobby/game/core/sNormalFlow.js": {
      "__unresolved_0": "./mods/cce/internal/code-quality/cr.js",
      "cc": "./mods/cce/internal/x/cc.js",
      "__unresolved_1": "./mods/fs/0/assets/lobby/game/core/sGameFlowBase.js"
    },
    "./mods/fs/0/assets/lobby/game/core/sNewPokerGameMgr.js": {
      "__unresolved_0": "./mods/cce/internal/code-quality/cr.js",
      "cc": "./mods/cce/internal/x/cc.js",
      "__unresolved_1": "./mods/fs/0/assets/lobby/game/core/sAudioMgr.js",
      "__unresolved_2": "./mods/fs/0/assets/lobby/game/core/sComponent.js",
      "__unresolved_3": "./mods/fs/0/assets/lobby/game/core/sDeskReq.js",
      "__unresolved_5": "./mods/fs/0/assets/lobby/game/core/sNewPokerPlayerEntity.js",
      "__unresolved_4": "./mods/fs/0/assets/lobby/game/core/sInternationalManager.js",
      "__unresolved_6": "./mods/fs/0/assets/lobby/game/core/sObjPool.js",
      "__unresolved_7": "./mods/fs/0/assets/lobby/game/core/sPokerChip.js",
      "__unresolved_8": "./mods/fs/0/assets/lobby/game/core/subGameReq.js",
      "__unresolved_9": "./mods/fs/0/assets/lobby/game/core/sUtil.js"
    },
    "./mods/fs/0/assets/lobby/game/core/sNewPokerPlayerEntity.js": {
      "__unresolved_0": "./mods/cce/internal/code-quality/cr.js",
      "cc": "./mods/cce/internal/x/cc.js",
      "__unresolved_1": "./mods/fs/0/assets/lobby/game/core/sAudioMgr.js",
      "__unresolved_2": "./mods/fs/0/assets/lobby/game/core/sComponent.js",
      "__unresolved_3": "./mods/fs/0/assets/lobby/game/core/sNewPokerCardBase.js",
      "__unresolved_4": "./mods/fs/0/assets/lobby/game/core/sObjPool.js",
      "__unresolved_5": "./mods/fs/0/assets/lobby/game/core/sUtil.js"
    },
    "./mods/fs/0/assets/lobby/game/core/sNewPokerCardBase.js": {
      "__unresolved_0": "./mods/cce/internal/code-quality/cr.js",
      "cc": "./mods/cce/internal/x/cc.js",
      "__unresolved_1": "./mods/fs/0/assets/lobby/game/core/sAssetMgr.js",
      "__unresolved_2": "./mods/fs/0/assets/lobby/game/core/sComponent.js",
      "__unresolved_3": "./mods/fs/0/assets/lobby/game/core/sObjPool.js"
    },
    "./mods/fs/0/assets/lobby/game/core/sObjPool.js": {
      "cc": "./mods/cce/internal/x/cc.js"
    },
    "./mods/fs/0/assets/lobby/game/core/sPokerChip.js": {
      "__unresolved_0": "./mods/cce/internal/code-quality/cr.js",
      "cc": "./mods/cce/internal/x/cc.js",
      "__unresolved_1": "./mods/fs/0/assets/lobby/game/core/sComponent.js",
      "__unresolved_2": "./mods/fs/0/assets/lobby/game/core/sObjPool.js"
    },
    "./mods/fs/0/assets/lobby/game/core/sPokerPlayerEntity.js": {
      "__unresolved_0": "./mods/cce/internal/code-quality/cr.js",
      "cc": "./mods/cce/internal/x/cc.js",
      "__unresolved_1": "./mods/fs/0/assets/lobby/game/core/sAudioMgr.js",
      "__unresolved_2": "./mods/fs/0/assets/lobby/game/core/sComponent.js",
      "__unresolved_3": "./mods/fs/0/assets/lobby/game/core/sObjPool.js"
    },
    "./mods/fs/0/assets/lobby/game/core/sPokerCardBase.js": {
      "__unresolved_0": "./mods/cce/internal/code-quality/cr.js",
      "cc": "./mods/cce/internal/x/cc.js",
      "__unresolved_1": "./mods/fs/0/assets/lobby/game/core/sComponent.js"
    },
    "./mods/fs/0/assets/lobby/game/core/sPokerGameMgr.js": {
      "__unresolved_0": "./mods/cce/internal/code-quality/cr.js",
      "cc": "./mods/cce/internal/x/cc.js",
      "__unresolved_1": "./mods/fs/0/assets/lobby/game/core/sComponent.js",
      "__unresolved_2": "./mods/fs/0/assets/lobby/game/core/sPokerPlayerEntity.js"
    },
    "./mods/fs/0/assets/lobby/game/core/sPokerSelRoom.js": {
      "__unresolved_0": "./mods/cce/internal/code-quality/cr.js",
      "cc": "./mods/cce/internal/x/cc.js",
      "__unresolved_1": "./mods/fs/0/assets/lobby/game/core/sComponent.js"
    },
    "./mods/fs/0/assets/lobby/game/core/sSlotSceneInfo.js": {
      "cc": "./mods/cce/internal/x/cc.js"
    },
    "./mods/fs/0/assets/lobby/game/core/sSoltFreeWinBuyCtr.js": {
      "__unresolved_0": "./mods/cce/internal/code-quality/cr.js",
      "cc": "./mods/cce/internal/x/cc.js",
      "__unresolved_1": "./mods/fs/0/assets/lobby/game/core/sComponent.js",
      "__unresolved_2": "./mods/fs/0/assets/lobby/game/core/sAudioMgr.js"
    },
    "./mods/fs/0/assets/lobby/game/core/sSpineAnimaCtr.js": {
      "__unresolved_0": "./mods/cce/internal/code-quality/cr.js",
      "cc": "./mods/cce/internal/x/cc.js",
      "__unresolved_1": "./mods/fs/0/assets/lobby/game/core/sComponent.js",
      "__unresolved_2": "./mods/fs/0/assets/lobby/game/core/sObjPool.js"
    },
    "./mods/fs/0/assets/lobby/game/core/sViewImgWidgetAdapter.js": {
      "cc": "./mods/cce/internal/x/cc.js"
    },
    "./mods/fs/0/assets/lobby/game/core/sTouchView.js": {
      "__unresolved_0": "./mods/cce/internal/code-quality/cr.js",
      "cc": "./mods/cce/internal/x/cc.js",
      "__unresolved_1": "./mods/fs/0/assets/lobby/game/core/sComponent.js",
      "__unresolved_2": "./mods/fs/0/assets/lobby/game/core/sFitScreen.js"
    },
    "./mods/fs/0/assets/lobby/game/core/sUtil.js": {
      "cc": "./mods/cce/internal/x/cc.js"
    },
    "./mods/fs/0/assets/lobby/game/core/subGameSliderFor.js": {
      "cc": "./mods/cce/internal/x/cc.js"
    },
    "./mods/fs/0/assets/lobby/game/core/subGameReq.js": {
      "cc": "./mods/cce/internal/x/cc.js"
    }
  }
}
