{
  "__type__": "cc.SpriteFrame",
  "content": {
    "name": "dot_select",
    "atlas": "",
    "rect": {
      "x": 0,
      "y": 0,
      "width": 18,
      "height": 18
    },
    "offset": {
      "x": 0,
      "y": 0
    },
    "originalSize": {
      "width": 18,
      "height": 18
    },
    "rotated": false,
    "capInsets": [
      0,
      0,
      0,
      0
    ],
    "texture": "d5673553-bb6e-4713-95c6-762549488bfb@6c48a",
    "packable": true
  }
}