{
  "__type__": "cc.SpriteFrame",
  "content": {
    "name": "title_congratulations_int",
    "atlas": "3dd0cc2d-7078-429d-aa57-3ae3d903a940",
    "rect": {
      "x": 2,
      "y": 2,
      "width": 824,
      "height": 133
    },
    "offset": {
      "x": 0,
      "y": 0
    },
    "originalSize": {
      "width": 824,
      "height": 133
    },
    "rotated": true,
    "capInsets": [
      0,
      0,
      0,
      0
    ],
    "texture": "821e546b-36b5-4adb-afe4-e5f9260cd2db@6c48a",
    "packable": true
  }
}