{
  "version": "2.1.10",
  "sourceTimeStamp": 1659923580014.5566,
  "outputTimeStamps": {
    "log.json": 1697603997763.907,
    "out.bin": 1697603997761.4802,
    "out.gltf": 1697603997763.907
  },
  "options": {
    "preferLocalTimeSpan": false
  }
}
