{
  "__type__": "cc.SpriteFrame",
  "content": {
    "name": "strp_winframe_01",
    "atlas": "6fadeb05-316a-4728-8b61-bf503996b573",
    "rect": {
      "x": 255,
      "y": 753,
      "width": 266,
      "height": 251
    },
    "offset": {
      "x": -1,
      "y": 0
    },
    "originalSize": {
      "width": 290,
      "height": 255
    },
    "rotated": true,
    "capInsets": [
      0,
      0,
      0,
      0
    ],
    "texture": "30e24e1c-026b-4c56-8565-b9e29068c9bb@6c48a",
    "packable": true
  }
}