{
  "__type__": "cc.SpriteFrame",
  "content": {
    "name": "BottomBar_Bg1",
    "atlas": "",
    "rect": {
      "x": 0,
      "y": 0,
      "width": 284,
      "height": 70
    },
    "offset": {
      "x": 0,
      "y": 0
    },
    "originalSize": {
      "width": 284,
      "height": 70
    },
    "rotated": false,
    "capInsets": [
      25,
      60,
      231,
      3
    ],
    "texture": "ed213ce6-c478-46fa-95b2-1dc824fa9da5@6c48a",
    "packable": true
  }
}