{
  "__type__": "cc.SpriteFrame",
  "content": {
    "name": "text_fb_int",
    "atlas": "b00ae2e8-da95-4103-88c1-0ae83d5a1ed7",
    "rect": {
      "x": 2,
      "y": 277,
      "width": 91,
      "height": 40
    },
    "offset": {
      "x": 0,
      "y": 2
    },
    "originalSize": {
      "width": 91,
      "height": 44
    },
    "rotated": true,
    "capInsets": [
      0,
      0,
      0,
      0
    ],
    "texture": "c5b83979-21e2-48af-84a2-cf5d98cc69a4@6c48a",
    "packable": true
  }
}