{
  "__type__": "cc.SpriteFrame",
  "content": {
    "name": "BettingArea_TH",
    "atlas": "",
    "rect": {
      "x": 0,
      "y": 0,
      "width": 98,
      "height": 17
    },
    "offset": {
      "x": 0,
      "y": 0
    },
    "originalSize": {
      "width": 98,
      "height": 17
    },
    "rotated": false,
    "capInsets": [
      0,
      0,
      0,
      0
    ],
    "texture": "f5e97ded-37bc-47c4-bd26-f0261d096931@6c48a",
    "packable": true
  }
}