[
    1,
    0,
    0,
    [
        "cc.Texture2D"
    ],
    0,
    [
        {
            "base": "2,2,2,2,0,0",
            "mipmaps": [
                "519a4109-5c79-48ea-adf2-c199106c8576"
            ]
        }
    ],
    [
        0
    ],
    0,
    [],
    [],
    []
]
