[
    1,
    [
        "a238bd0f-a704-4775-9991-24d0342fc1a3@6c48a"
    ],
    [
        "_textureSource"
    ],
    [
        "cc.SpriteFrame"
    ],
    0,
    [
        {
            "name": "S11",
            "rect": {
                "x": 832,
                "y": 436,
                "width": 188,
                "height": 192
            },
            "offset": {
                "x": 0,
                "y": -8
            },
            "originalSize": {
                "width": 482,
                "height": 536
            },
            "rotated": false,
            "capInsets": [
                0,
                0,
                0,
                0
            ],
            "packable": true
        }
    ],
    [
        0
    ],
    0,
    [
        0
    ],
    [
        0
    ],
    [
        0
    ]
]
