[
    1,
    0,
    0,
    [
        "cc.Texture2D"
    ],
    0,
    [
        {
            "base": "2,2,2,2,0,0",
            "mipmaps": [
                "5a734336-6cc5-4ba3-a327-fd77a64b8a92"
            ]
        }
    ],
    [
        0
    ],
    0,
    [],
    [],
    []
]
