[
    1,
    [
        "47a23f98-1f4c-4ee1-8453-ba5a762c044a@6c48a"
    ],
    [
        "_textureSource"
    ],
    [
        "cc.SpriteFrame"
    ],
    0,
    [
        {
            "name": "Num4_0",
            "rect": {
                "x": 4,
                "y": 1,
                "width": 506,
                "height": 184
            },
            "offset": {
                "x": 1,
                "y": 35
            },
            "originalSize": {
                "width": 512,
                "height": 256
            },
            "rotated": false,
            "capInsets": [
                0,
                0,
                0,
                0
            ],
            "packable": true
        }
    ],
    [
        0
    ],
    0,
    [
        0
    ],
    [
        0
    ],
    [
        0
    ]
]
