info face="Arial" size=36 bold=0 italic=0 charset="" unicode=1 stretchH=100 smooth=1 aa=1 padding=1,1,1,1 spacing=0,0 outline=0
common lineHeight=36 base=29 scaleW=512 scaleH=256 pages=1 packed=0 alphaChnl=1 redChnl=0 greenChnl=0 blueChnl=0
page id=0 file="Num2_0.png"
chars count=12
char id=46   x=468   y=0     width=37    height=120   xoffset=-1    yoffset=-1    xadvance=35    page=0  chnl=15
char id=44   x=312   y=120   width=37    height=120   xoffset=-1    yoffset=-1    xadvance=35    page=0  chnl=15
char id=48   x=0     y=0     width=78    height=120   xoffset=-1    yoffset=-1    xadvance=76    page=0  chnl=15
char id=49   x=78    y=0     width=78    height=120   xoffset=-1    yoffset=-1    xadvance=76    page=0  chnl=15
char id=50   x=156   y=0     width=78    height=120   xoffset=-1    yoffset=-1    xadvance=76    page=0  chnl=15
char id=51   x=234   y=0     width=78    height=120   xoffset=-1    yoffset=-1    xadvance=76    page=0  chnl=15
char id=52   x=312   y=0     width=78    height=120   xoffset=-1    yoffset=-1    xadvance=76    page=0  chnl=15
char id=53   x=390   y=0     width=78    height=120   xoffset=-1    yoffset=-1    xadvance=76    page=0  chnl=15
char id=54   x=0     y=120   width=78    height=120   xoffset=-1    yoffset=-1    xadvance=76    page=0  chnl=15
char id=55   x=78    y=120   width=78    height=120   xoffset=-1    yoffset=-1    xadvance=76    page=0  chnl=15
char id=56   x=156   y=120   width=78    height=120   xoffset=-1    yoffset=-1    xadvance=76    page=0  chnl=15
char id=57   x=234   y=120   width=78    height=120   xoffset=-1    yoffset=-1    xadvance=76    page=0  chnl=15
