info face="Arial" size=36 bold=0 italic=0 charset="" unicode=1 stretchH=100 smooth=1 aa=1 padding=1,1,1,1 spacing=0,0 outline=0
common lineHeight=36 base=29 scaleW=256 scaleH=128 pages=1 packed=0 alphaChnl=1 redChnl=0 greenChnl=0 blueChnl=0
page id=0 file="Num7_0.png"
chars count=10
char id=48   x=0     y=0     width=44    height=53    xoffset=-1    yoffset=-1    xadvance=42    page=0  chnl=15
char id=49   x=44    y=0     width=44    height=53    xoffset=-1    yoffset=-1    xadvance=42    page=0  chnl=15
char id=50   x=88    y=0     width=44    height=53    xoffset=-1    yoffset=-1    xadvance=42    page=0  chnl=15
char id=51   x=132   y=0     width=44    height=53    xoffset=-1    yoffset=-1    xadvance=42    page=0  chnl=15
char id=52   x=176   y=0     width=44    height=53    xoffset=-1    yoffset=-1    xadvance=42    page=0  chnl=15
char id=53   x=0     y=53    width=44    height=53    xoffset=-1    yoffset=-1    xadvance=42    page=0  chnl=15
char id=54   x=44    y=53    width=44    height=53    xoffset=-1    yoffset=-1    xadvance=42    page=0  chnl=15
char id=55   x=88    y=53    width=44    height=53    xoffset=-1    yoffset=-1    xadvance=42    page=0  chnl=15
char id=56   x=132   y=53    width=44    height=53    xoffset=-1    yoffset=-1    xadvance=42    page=0  chnl=15
char id=57   x=176   y=53    width=44    height=53    xoffset=-1    yoffset=-1    xadvance=42    page=0  chnl=15
