[
    1,
    0,
    0,
    [
        "cc.Texture2D"
    ],
    0,
    [
        {
            "base": "2,2,2,2,0,0",
            "mipmaps": [
                "a0cf055a-aa87-4d46-9dfe-e3993354e836"
            ]
        }
    ],
    [
        0
    ],
    0,
    [],
    [],
    []
]
