{
  "__type__": "cc.SpriteFrame",
  "content": {
    "name": "InputPurpleBanner resized025",
    "atlas": "",
    "rect": {
      "x": 0,
      "y": 0,
      "width": 128,
      "height": 26
    },
    "offset": {
      "x": 0,
      "y": 0
    },
    "originalSize": {
      "width": 128,
      "height": 26
    },
    "rotated": false,
    "capInsets": [
      0,
      0,
      0,
      0
    ],
    "texture": "458dd77b-f3b8-40de-8051-124639950d21@6c48a",
    "packable": true
  }
}