[
    1,
    [
        "30e24e1c-026b-4c56-8565-b9e29068c9bb@6c48a"
    ],
    [
        "_textureSource"
    ],
    [
        "cc.SpriteFrame"
    ],
    0,
    [
        {
            "name": "strp_winframe_02",
            "rect": {
                "x": 2,
                "y": 753,
                "width": 268,
                "height": 251
            },
            "offset": {
                "x": -2,
                "y": 2
            },
            "originalSize": {
                "width": 290,
                "height": 255
            },
            "rotated": true,
            "capInsets": [
                0,
                0,
                0,
                0
            ],
            "packable": true
        }
    ],
    [
        0
    ],
    0,
    [
        0
    ],
    [
        0
    ],
    [
        0
    ]
]
