[
    1,
    [
        "a8c74f5c-fc48-404d-8bbd-bcef3fe4172a@f9941",
        "2de2dffe-9c81-4283-92bb-55e207c6c81b@f9941",
        "609950b7-3c1e-45e4-95f1-a509be76307f@f9941",
        "0867a7a2-5db4-4994-972c-d4cfda57a9e4@f9941",
        "7a896d1c-2947-47cb-8f18-2144f0f84caa@f9941",
        "d583eb0a-0baf-4055-9124-b39f304ba1d7@f9941",
        "22ee1e7d-4296-4ba0-9675-14ba6670a796@f9941"
    ],
    [
        "node",
        "_spriteFrame",
        "_normalSprite",
        "root",
        "data",
        "_parent"
    ],
    [
        [
            "cc.Node",
            [
                "_name",
                "_layer",
                "_active",
                "_components",
                "_prefab",
                "_parent",
                "_children",
                "_lpos",
                "_lscale"
            ],
            0,
            9,
            4,
            1,
            2,
            5,
            5
        ],
        [
            "cc.Sprite",
            [
                "_sizeMode",
                "_isTrimmedMode",
                "_type",
                "node",
                "__prefab",
                "_spriteFrame",
                "_color"
            ],
            0,
            1,
            4,
            6,
            5
        ],
        [
            "cc.UITransform",
            [
                "node",
                "__prefab",
                "_contentSize",
                "_anchorPoint"
            ],
            3,
            1,
            4,
            5,
            5
        ],
        [
            "cc.Widget",
            [
                "_alignFlags",
                "_originalWidth",
                "_originalHeight",
                "_left",
                "_right",
                "_top",
                "_bottom",
                "node",
                "__prefab"
            ],
            -4,
            1,
            4
        ],
        [
            "cc.Button",
            [
                "node",
                "__prefab",
                "_normalSprite"
            ],
            3,
            1,
            4,
            6
        ],
        [
            "cc.Prefab",
            [
                "_name"
            ],
            2
        ],
        [
            "cc.CompPrefabInfo",
            [
                "fileId"
            ],
            2
        ],
        [
            "cc.PrefabInfo",
            [
                "fileId",
                "root",
                "asset"
            ],
            2,
            1,
            1
        ],
        [
            "cc.Label",
            [
                "_string",
                "_actualFontSize",
                "_fontSize",
                "node",
                "__prefab"
            ],
            0,
            1,
            4
        ],
        [
            "cc.Layout",
            [
                "_enabled",
                "_resizeMode",
                "_layoutType",
                "node",
                "__prefab"
            ],
            0,
            1,
            4
        ],
        [
            "cc.UIOpacity",
            [
                "node",
                "__prefab"
            ],
            3,
            1,
            4
        ]
    ],
    [
        [
            6,
            0,
            2
        ],
        [
            7,
            0,
            1,
            2,
            2
        ],
        [
            2,
            0,
            1,
            2,
            1
        ],
        [
            0,
            0,
            1,
            5,
            3,
            4,
            7,
            3
        ],
        [
            2,
            0,
            1,
            2,
            3,
            1
        ],
        [
            4,
            0,
            1,
            1
        ],
        [
            8,
            0,
            1,
            2,
            3,
            4,
            4
        ],
        [
            0,
            0,
            1,
            6,
            3,
            4,
            3
        ],
        [
            0,
            0,
            1,
            5,
            3,
            4,
            3
        ],
        [
            0,
            0,
            1,
            5,
            6,
            3,
            4,
            7,
            3
        ],
        [
            0,
            0,
            2,
            1,
            5,
            3,
            4,
            7,
            4
        ],
        [
            1,
            0,
            3,
            4,
            5,
            2
        ],
        [
            1,
            3,
            4,
            5,
            1
        ],
        [
            3,
            0,
            1,
            2,
            7,
            8,
            4
        ],
        [
            5,
            0,
            2
        ],
        [
            0,
            0,
            1,
            5,
            6,
            3,
            4,
            7,
            8,
            3
        ],
        [
            0,
            0,
            1,
            5,
            6,
            3,
            4,
            3
        ],
        [
            0,
            0,
            2,
            1,
            5,
            6,
            3,
            4,
            7,
            4
        ],
        [
            1,
            0,
            3,
            4,
            6,
            5,
            2
        ],
        [
            1,
            0,
            1,
            3,
            4,
            5,
            3
        ],
        [
            1,
            2,
            0,
            3,
            4,
            5,
            3
        ],
        [
            3,
            0,
            3,
            4,
            5,
            6,
            1,
            2,
            7,
            8,
            8
        ],
        [
            4,
            0,
            1,
            2,
            1
        ],
        [
            9,
            0,
            1,
            2,
            3,
            4,
            4
        ],
        [
            10,
            0,
            1,
            1
        ]
    ],
    [
        [
            14,
            "subGameSettingDetail"
        ],
        [
            7,
            "subGameSettingDetail",
            33554432,
            [
                -5,
                -6
            ],
            [
                [
                    2,
                    -2,
                    [
                        0,
                        "24tDDcNypPZYpdEOf1fUnk"
                    ],
                    [
                        5,
                        1280,
                        720
                    ]
                ],
                [
                    13,
                    45,
                    100,
                    100,
                    -3,
                    [
                        0,
                        "24uy4ZrS1NZr9RM29uV/yQ"
                    ]
                ],
                [
                    24,
                    -4,
                    [
                        0,
                        "2ecVh5Ox9D/IJZNxNqoJDK"
                    ]
                ]
            ],
            [
                1,
                "14LmTC6TZL6auai1pfcywJ",
                -1,
                0
            ]
        ],
        [
            7,
            "items",
            33554432,
            [
                -9,
                -10,
                -11
            ],
            [
                [
                    2,
                    -7,
                    [
                        0,
                        "7bBfkemVpD06qqBC/OSFuv"
                    ],
                    [
                        5,
                        180,
                        126
                    ]
                ],
                [
                    23,
                    false,
                    2,
                    2,
                    -8,
                    [
                        0,
                        "a7oJCK3thG073Z0XoiUUjz"
                    ]
                ]
            ],
            [
                1,
                "efO5pQoyJLiqMj/zHdLgad",
                1,
                0
            ]
        ],
        [
            9,
            "sound",
            33554432,
            2,
            [
                -14,
                -15,
                -16
            ],
            [
                [
                    2,
                    -12,
                    [
                        0,
                        "20CnwymEtMpr4wP6KiZfS3"
                    ],
                    [
                        5,
                        180,
                        63
                    ]
                ],
                [
                    5,
                    -13,
                    [
                        0,
                        "427buPSB9OJ4dnpioAIECt"
                    ]
                ]
            ],
            [
                1,
                "9303zJYKlE2KwXZ+mCYPSu",
                1,
                0
            ],
            [
                1,
                0,
                31.5,
                0
            ]
        ],
        [
            8,
            "close",
            33554432,
            1,
            [
                [
                    2,
                    -17,
                    [
                        0,
                        "e2pz95E8ZOiLVlvCfVk8O6"
                    ],
                    [
                        5,
                        1280,
                        720
                    ]
                ],
                [
                    18,
                    0,
                    -18,
                    [
                        0,
                        "05mFUW8vJBp5nRjDKp4b6q"
                    ],
                    [
                        4,
                        1610612736
                    ],
                    0
                ],
                [
                    13,
                    45,
                    30,
                    30,
                    -19,
                    [
                        0,
                        "14TvZnIlNAcqOgvhGobQJh"
                    ]
                ],
                [
                    22,
                    -20,
                    [
                        0,
                        "abErFAs7xIorWA2UKfhklB"
                    ],
                    1
                ]
            ],
            [
                1,
                "7b0SCsUhhA857rBNPWJyTO",
                1,
                0
            ]
        ],
        [
            15,
            "main",
            33554432,
            1,
            [
                -23,
                2
            ],
            [
                [
                    2,
                    -21,
                    [
                        0,
                        "9bMam57TpNMraxojmrBzAK"
                    ],
                    [
                        5,
                        220,
                        200
                    ]
                ],
                [
                    21,
                    33,
                    590,
                    21.43199999999996,
                    60,
                    310,
                    100,
                    100,
                    -22,
                    [
                        0,
                        "b2IYWIktdJSojl8n6MtOB5"
                    ]
                ]
            ],
            [
                1,
                "5f4UGeE4ZF4qk4du4WCWRU",
                1,
                0
            ],
            [
                1,
                486.568,
                180,
                0
            ],
            [
                1,
                1.2,
                1.2,
                1
            ]
        ],
        [
            17,
            "shop",
            false,
            33554432,
            2,
            [
                -26,
                -27
            ],
            [
                [
                    2,
                    -24,
                    [
                        0,
                        "79geTGZ3FDpLbhmfoZ+9Xh"
                    ],
                    [
                        5,
                        180,
                        58.666666666666664
                    ]
                ],
                [
                    5,
                    -25,
                    [
                        0,
                        "e02zFU1fRPE5eS4KEFKCxE"
                    ]
                ]
            ],
            [
                1,
                "6bA/WdxrtCYrU/XvKtPYwJ",
                1,
                0
            ],
            [
                1,
                0,
                58.66666666666667,
                0
            ]
        ],
        [
            9,
            "exit",
            33554432,
            2,
            [
                -30,
                -31
            ],
            [
                [
                    2,
                    -28,
                    [
                        0,
                        "6etgZ3V0ZIbYPMV6C1QsLb"
                    ],
                    [
                        5,
                        180,
                        63
                    ]
                ],
                [
                    5,
                    -29,
                    [
                        0,
                        "feKneypzhCC4Uu9cZcjxcU"
                    ]
                ]
            ],
            [
                1,
                "5c8Ev89FhB0ZNqoPVNO3kK",
                1,
                0
            ],
            [
                1,
                0,
                -31.5,
                0
            ]
        ],
        [
            16,
            "menu_bg",
            33554432,
            5,
            [
                -34
            ],
            [
                [
                    2,
                    -32,
                    [
                        0,
                        "77kkCUPS9HZIwUgc1HcL7C"
                    ],
                    [
                        5,
                        194,
                        134
                    ]
                ],
                [
                    20,
                    1,
                    0,
                    -33,
                    [
                        0,
                        "edB3baqtpExIev1AVpk3PZ"
                    ],
                    3
                ]
            ],
            [
                1,
                "d0sHfp0oJLK4VApcvFVxqH",
                1,
                0
            ]
        ],
        [
            8,
            "menu_line",
            33554432,
            8,
            [
                [
                    2,
                    -35,
                    [
                        0,
                        "caeMnjS4lH5LMezi2Rvr5/"
                    ],
                    [
                        5,
                        169,
                        2
                    ]
                ],
                [
                    19,
                    2,
                    false,
                    -36,
                    [
                        0,
                        "2bQK2KHmJFJ7sEneTv2zRw"
                    ],
                    2
                ]
            ],
            [
                1,
                "8df3rkLFBAMJfOHNWyAhsg",
                1,
                0
            ]
        ],
        [
            3,
            "icon",
            33554432,
            6,
            [
                [
                    2,
                    -37,
                    [
                        0,
                        "ceM6RCiedE4KtV8lIbsr/S"
                    ],
                    [
                        5,
                        31,
                        30
                    ]
                ],
                [
                    11,
                    0,
                    -38,
                    [
                        0,
                        "bfTSdpmvZOqowfGLdNCS7X"
                    ],
                    4
                ]
            ],
            [
                1,
                "aaOxS9Ow1OS7yRexk6190J",
                1,
                0
            ],
            [
                1,
                -50,
                0,
                0
            ]
        ],
        [
            3,
            "label",
            33554432,
            6,
            [
                [
                    4,
                    -39,
                    [
                        0,
                        "5duea9pbVHcpA9M4wMaKJA"
                    ],
                    [
                        5,
                        60.72,
                        50.4
                    ],
                    [
                        0,
                        0,
                        0.5
                    ]
                ],
                [
                    6,
                    "Shop",
                    26,
                    26,
                    -40,
                    [
                        0,
                        "2cC9XqjkxEYL9PRpw7Ht5P"
                    ]
                ]
            ],
            [
                1,
                "c6fvgTUMhHj7TIr8pAib6Z",
                1,
                0
            ],
            [
                1,
                -3,
                0,
                0
            ]
        ],
        [
            10,
            "open",
            false,
            33554432,
            3,
            [
                [
                    2,
                    -41,
                    [
                        0,
                        "c6d99PQd9DcIh9vzIGujfB"
                    ],
                    [
                        5,
                        33,
                        30
                    ]
                ],
                [
                    12,
                    -42,
                    [
                        0,
                        "c0QjYmR1pC8oKQp44noeYp"
                    ],
                    5
                ]
            ],
            [
                1,
                "04Qv/dGPlKupDnUW0On5cm",
                1,
                0
            ],
            [
                1,
                -50,
                0,
                0
            ]
        ],
        [
            10,
            "close",
            false,
            33554432,
            3,
            [
                [
                    2,
                    -43,
                    [
                        0,
                        "d7PQNYSfxMrLvX1p1IZqBF"
                    ],
                    [
                        5,
                        33,
                        33
                    ]
                ],
                [
                    12,
                    -44,
                    [
                        0,
                        "3b0h/wEYFKH6RGfldLjysw"
                    ],
                    6
                ]
            ],
            [
                1,
                "c2elgmfeNKRYwA3Gum0aVL",
                1,
                0
            ],
            [
                1,
                -50,
                0,
                0
            ]
        ],
        [
            3,
            "label",
            33554432,
            3,
            [
                [
                    4,
                    -45,
                    [
                        0,
                        "2dvjxmjV5MbbtcBd1KzW3H"
                    ],
                    [
                        5,
                        75.18,
                        50.4
                    ],
                    [
                        0,
                        0,
                        0.5
                    ]
                ],
                [
                    6,
                    "Sound",
                    26,
                    26,
                    -46,
                    [
                        0,
                        "9dS0XOogpBlol6CKNbSFr7"
                    ]
                ]
            ],
            [
                1,
                "c5G0jqPxtBoosRSnXCvbtY",
                1,
                0
            ],
            [
                1,
                -3,
                0,
                0
            ]
        ],
        [
            3,
            "icon",
            33554432,
            7,
            [
                [
                    2,
                    -47,
                    [
                        0,
                        "f2sbLSaGNKEbgrD1TnACaE"
                    ],
                    [
                        5,
                        32,
                        34
                    ]
                ],
                [
                    11,
                    0,
                    -48,
                    [
                        0,
                        "db/KXXtJ5K6oC+g0iWLAEg"
                    ],
                    7
                ]
            ],
            [
                1,
                "8fpp00gLdFCYS1R9JIu8pZ",
                1,
                0
            ],
            [
                1,
                -50,
                0,
                0
            ]
        ],
        [
            3,
            "label",
            33554432,
            7,
            [
                [
                    4,
                    -49,
                    [
                        0,
                        "a2SnOSjVFAybInS4/aECZX"
                    ],
                    [
                        5,
                        43.34,
                        50.4
                    ],
                    [
                        0,
                        0,
                        0.5
                    ]
                ],
                [
                    6,
                    "Exit",
                    26,
                    26,
                    -50,
                    [
                        0,
                        "23orBHyYZLc5Bht12gYLnQ"
                    ]
                ]
            ],
            [
                1,
                "00PCuzyOBKdoKN5HJzuaZ6",
                1,
                0
            ],
            [
                1,
                -3,
                0,
                0
            ]
        ]
    ],
    0,
    [
        0,
        3,
        1,
        0,
        0,
        1,
        0,
        0,
        1,
        0,
        0,
        1,
        0,
        -1,
        4,
        0,
        -2,
        5,
        0,
        0,
        2,
        0,
        0,
        2,
        0,
        -1,
        6,
        0,
        -2,
        3,
        0,
        -3,
        7,
        0,
        0,
        3,
        0,
        0,
        3,
        0,
        -1,
        12,
        0,
        -2,
        13,
        0,
        -3,
        14,
        0,
        0,
        4,
        0,
        0,
        4,
        0,
        0,
        4,
        0,
        0,
        4,
        0,
        0,
        5,
        0,
        0,
        5,
        0,
        -1,
        8,
        0,
        0,
        6,
        0,
        0,
        6,
        0,
        -1,
        10,
        0,
        -2,
        11,
        0,
        0,
        7,
        0,
        0,
        7,
        0,
        -1,
        15,
        0,
        -2,
        16,
        0,
        0,
        8,
        0,
        0,
        8,
        0,
        -1,
        9,
        0,
        0,
        9,
        0,
        0,
        9,
        0,
        0,
        10,
        0,
        0,
        10,
        0,
        0,
        11,
        0,
        0,
        11,
        0,
        0,
        12,
        0,
        0,
        12,
        0,
        0,
        13,
        0,
        0,
        13,
        0,
        0,
        14,
        0,
        0,
        14,
        0,
        0,
        15,
        0,
        0,
        15,
        0,
        0,
        16,
        0,
        0,
        16,
        0,
        4,
        1,
        2,
        5,
        5,
        50
    ],
    [
        0,
        0,
        0,
        0,
        0,
        0,
        0,
        0
    ],
    [
        1,
        2,
        1,
        1,
        1,
        1,
        1,
        1
    ],
    [
        0,
        0,
        1,
        2,
        3,
        4,
        5,
        6
    ]
]
