{
  "__type__": "cc.SpriteFrame",
  "content": {
    "name": "dot",
    "atlas": "",
    "rect": {
      "x": 0,
      "y": 0,
      "width": 10,
      "height": 10
    },
    "offset": {
      "x": 0,
      "y": 0
    },
    "originalSize": {
      "width": 10,
      "height": 10
    },
    "rotated": false,
    "capInsets": [
      0,
      0,
      0,
      0
    ],
    "texture": "ec25b106-1981-49fa-a2ab-f36a851c9631@6c48a",
    "packable": true
  }
}