{
  "__type__": "cc.SpriteFrame",
  "content": {
    "name": "btn_plus",
    "atlas": "",
    "rect": {
      "x": 0,
      "y": 0,
      "width": 59,
      "height": 80
    },
    "offset": {
      "x": 0,
      "y": 0
    },
    "originalSize": {
      "width": 59,
      "height": 80
    },
    "rotated": false,
    "capInsets": [
      0,
      0,
      0,
      0
    ],
    "texture": "ec52aac0-6274-4fc0-a8cf-779faac9dd6f@6c48a",
    "packable": true
  }
}