[
    1,
    0,
    0,
    [
        "cc.Texture2D"
    ],
    0,
    [
        {
            "base": "2,2,2,2,0,0",
            "mipmaps": [
                "dcacfebb-bae3-4086-a482-52a4377fb54d"
            ]
        }
    ],
    [
        0
    ],
    0,
    [],
    [],
    []
]
