[
    1,
    [
        "c0a9d975-fcd1-4f6e-84b4-bc74ddf01b31@6c48a"
    ],
    [
        "_textureSource"
    ],
    [
        "cc.SpriteFrame"
    ],
    0,
    [
        {
            "name": "bg",
            "rect": {
                "x": 0,
                "y": 0,
                "width": 194,
                "height": 61
            },
            "offset": {
                "x": 0,
                "y": 0
            },
            "originalSize": {
                "width": 194,
                "height": 61
            },
            "rotated": false,
            "capInsets": [
                0,
                0,
                0,
                0
            ],
            "packable": true
        }
    ],
    [
        0
    ],
    0,
    [
        0
    ],
    [
        0
    ],
    [
        0
    ]
]
