{
  "__type__": "cc.SpriteFrame",
  "content": {
    "name": "buton_off",
    "atlas": "",
    "rect": {
      "x": 9,
      "y": 13,
      "width": 89,
      "height": 90
    },
    "offset": {
      "x": -1.5,
      "y": -2.5
    },
    "originalSize": {
      "width": 110,
      "height": 111
    },
    "rotated": false,
    "capInsets": [
      0,
      0,
      0,
      0
    ],
    "texture": "42a11fec-7e4e-4bda-ad4d-2df525170719@6c48a",
    "packable": true
  }
}