{
  "__type__": "cc.SpriteFrame",
  "content": {
    "name": "free_spin_left",
    "atlas": "",
    "rect": {
      "x": 28,
      "y": 30,
      "width": 341,
      "height": 218
    },
    "offset": {
      "x": -1.5,
      "y": 0.5
    },
    "originalSize": {
      "width": 400,
      "height": 279
    },
    "rotated": false,
    "capInsets": [
      0,
      0,
      0,
      0
    ],
    "texture": "20fab7f2-a128-4951-91c8-343753eac271@6c48a",
    "packable": true
  }
}