[
    1,
    0,
    0,
    [
        "cc.Texture2D"
    ],
    0,
    [
        {
            "base": "2,2,2,2,0,0",
            "mipmaps": [
                "90a942fe-9943-4d1b-81d5-d712103dd6cf"
            ]
        }
    ],
    [
        0
    ],
    0,
    [],
    [],
    []
]
