[
    1,
    0,
    0,
    [
        "cc.Texture2D"
    ],
    0,
    [
        {
            "base": "2,2,2,2,0,0",
            "mipmaps": [
                "47a23f98-1f4c-4ee1-8453-ba5a762c044a"
            ]
        }
    ],
    [
        0
    ],
    0,
    [],
    [],
    []
]
