{
  "__type__": "cc.SpriteFrame",
  "content": {
    "name": "paytable_int",
    "atlas": "33e499af-7be1-4e79-9535-18fb20b44880",
    "rect": {
      "x": 82,
      "y": 2,
      "width": 295,
      "height": 32
    },
    "offset": {
      "x": 0,
      "y": 5
    },
    "originalSize": {
      "width": 295,
      "height": 42
    },
    "rotated": true,
    "capInsets": [
      0,
      0,
      0,
      0
    ],
    "texture": "4ef26e80-effd-4cc5-a2c3-51026b22c9d2@6c48a",
    "packable": true
  }
}