[
    1,
    0,
    0,
    [
        "cc.Texture2D"
    ],
    0,
    [
        {
            "base": "2,2,2,2,0,0",
            "mipmaps": [
                "0124f11c-10ff-46c3-bda9-f734cff1c32d"
            ]
        }
    ],
    [
        0
    ],
    0,
    [],
    [],
    []
]
