{
"skeleton": { "hash": "NdH3L1DlFDduMjlFKgPKrlkUxjM", "spine": "3.8.99", "x": -945.3, "y": -558.2, "width": 1888.71, "height": 1141.92 },
"bones": [
	{ "name": "root" }
],
"slots": [
	{ "name": "bg", "bone": "root", "attachment": "bg" },
	{ "name": "right_purple_cloud_2", "bone": "root", "attachment": "right_purple_cloud_02" },
	{ "name": "right_purple_cloud_3", "bone": "root", "attachment": "right_purple_cloud_02", "blend": "additive" },
	{ "name": "right_purple_cloud_1", "bone": "root", "attachment": "right_purple_cloud_01" },
	{ "name": "right_green_smoke", "bone": "root", "attachment": "right_green_smoke" },
	{ "name": "right_bottom_glow", "bone": "root", "attachment": "right_bottom_glow" },
	{ "name": "right_bottom_glow2", "bone": "root", "attachment": "right_bottom_glow" },
	{ "name": "left_glowing_clouds", "bone": "root", "attachment": "left_glowing_clouds" },
	{ "name": "star", "bone": "root", "attachment": "star", "blend": "additive" },
	{ "name": "star12", "bone": "root", "attachment": "star", "blend": "additive" },
	{ "name": "star11", "bone": "root", "attachment": "star", "blend": "additive" },
	{ "name": "left_glow", "bone": "root", "attachment": "left_glow" },
	{ "name": "upper_trail4", "bone": "root", "attachment": "upper_trail2" },
	{ "name": "upper_trail6", "bone": "root", "attachment": "upper_trail2" },
	{ "name": "upper_trail8", "bone": "root", "attachment": "upper_trail2" },
	{ "name": "upper_trail5", "bone": "root", "attachment": "upper_trail3" },
	{ "name": "upper_trail7", "bone": "root", "attachment": "upper_trail3" },
	{ "name": "right_small_trail", "bone": "root", "attachment": "right_small_trail" },
	{ "name": "shooting stars", "bone": "root", "attachment": "shooting stars", "blend": "additive" },
	{ "name": "shooting stars2", "bone": "root", "attachment": "shooting stars", "blend": "additive" },
	{ "name": "shooting stars5", "bone": "root", "attachment": "shooting stars", "blend": "additive" },
	{ "name": "lower_trail8", "bone": "root", "attachment": "lower_trail2", "blend": "additive" },
	{ "name": "lower_trail4", "bone": "root", "attachment": "lower_trail4", "blend": "additive" },
	{ "name": "lower_trail6", "bone": "root", "attachment": "lower_trail4", "blend": "additive" },
	{ "name": "lower_trail5", "bone": "root", "attachment": "lower_trail5" },
	{ "name": "lower_trail7", "bone": "root", "attachment": "lower_trail5" },
	{ "name": "star10", "bone": "root", "attachment": "star", "blend": "additive" },
	{ "name": "star2", "bone": "root", "attachment": "star", "blend": "additive" },
	{ "name": "star24", "bone": "root", "attachment": "star", "blend": "additive" },
	{ "name": "star6", "bone": "root", "attachment": "star", "blend": "additive" },
	{ "name": "star13", "bone": "root", "attachment": "star", "blend": "additive" },
	{ "name": "star34", "bone": "root", "attachment": "star", "blend": "additive" },
	{ "name": "star14", "bone": "root", "attachment": "star", "blend": "additive" },
	{ "name": "star15", "bone": "root", "attachment": "star", "blend": "additive" },
	{ "name": "star16", "bone": "root", "attachment": "star", "blend": "additive" },
	{ "name": "star17", "bone": "root", "attachment": "star", "blend": "additive" },
	{ "name": "star18", "bone": "root", "attachment": "star", "blend": "additive" },
	{ "name": "star19", "bone": "root", "attachment": "star", "blend": "additive" },
	{ "name": "star20", "bone": "root", "attachment": "star", "blend": "additive" },
	{ "name": "star21", "bone": "root", "attachment": "star", "blend": "additive" },
	{ "name": "star22", "bone": "root", "attachment": "star", "blend": "additive" },
	{ "name": "star23", "bone": "root", "attachment": "star", "blend": "additive" },
	{ "name": "star9", "bone": "root", "attachment": "star", "blend": "additive" },
	{ "name": "star5", "bone": "root", "attachment": "star", "blend": "additive" },
	{ "name": "star03", "bone": "root", "attachment": "star", "blend": "additive" },
	{ "name": "star25", "bone": "root", "attachment": "star", "blend": "additive" },
	{ "name": "star26", "bone": "root", "attachment": "star", "blend": "additive" },
	{ "name": "star27", "bone": "root", "attachment": "star", "blend": "additive" },
	{ "name": "star28", "bone": "root", "attachment": "star", "blend": "additive" },
	{ "name": "star29", "bone": "root", "attachment": "star", "blend": "additive" },
	{ "name": "star30", "bone": "root", "attachment": "star", "blend": "additive" },
	{ "name": "star31", "bone": "root", "attachment": "star", "blend": "additive" },
	{ "name": "star32", "bone": "root", "attachment": "star", "blend": "additive" },
	{ "name": "star33", "bone": "root", "attachment": "star", "blend": "additive" },
	{ "name": "star3", "bone": "root", "attachment": "star", "blend": "additive" },
	{ "name": "star7", "bone": "root", "attachment": "star", "blend": "additive" },
	{ "name": "star8", "bone": "root", "attachment": "star", "blend": "additive" },
	{ "name": "star4", "bone": "root", "attachment": "star", "blend": "additive" },
	{ "name": "stars_big_1", "bone": "root", "attachment": "stars_big_1" },
	{ "name": "stars_big_05", "bone": "root", "attachment": "stars_big_1", "blend": "additive" },
	{ "name": "stars_big_5", "bone": "root", "attachment": "stars_big_1", "blend": "additive" },
	{ "name": "stars_big_2", "bone": "root", "attachment": "stars_big_2" },
	{ "name": "stars_big_19", "bone": "root", "attachment": "stars_big_2" },
	{ "name": "stars_big_21", "bone": "root", "attachment": "stars_big_2" },
	{ "name": "stars_big_22", "bone": "root", "attachment": "stars_big_2" },
	{ "name": "stars_big_06", "bone": "root", "attachment": "stars_big_2", "blend": "additive" },
	{ "name": "stars_big_18", "bone": "root", "attachment": "stars_big_2", "blend": "additive" },
	{ "name": "stars_big_20", "bone": "root", "attachment": "stars_big_2", "blend": "additive" },
	{ "name": "stars_big_6", "bone": "root", "attachment": "stars_big_2", "blend": "additive" },
	{ "name": "stars_big_3", "bone": "root", "attachment": "stars_big_3" },
	{ "name": "stars_big_07", "bone": "root", "attachment": "stars_big_3", "blend": "additive" },
	{ "name": "stars_big_7", "bone": "root", "attachment": "stars_big_3", "blend": "additive" },
	{ "name": "stars_big_4", "bone": "root", "attachment": "stars_big_4" },
	{ "name": "stars_big_13", "bone": "root", "attachment": "stars_big_4" },
	{ "name": "stars_big_14", "bone": "root", "attachment": "stars_big_4" },
	{ "name": "stars_big_15", "bone": "root", "attachment": "stars_big_4" },
	{ "name": "stars_big_16", "bone": "root", "attachment": "stars_big_4" },
	{ "name": "stars_big_17", "bone": "root", "attachment": "stars_big_4" },
	{ "name": "stars_big_9", "bone": "root", "attachment": "stars_big_4" },
	{ "name": "stars_big_10", "bone": "root", "attachment": "stars_big_4", "blend": "additive" },
	{ "name": "stars_big_11", "bone": "root", "attachment": "stars_big_4", "blend": "additive" },
	{ "name": "stars_big_12", "bone": "root", "attachment": "stars_big_4", "blend": "additive" },
	{ "name": "stars_big_08", "bone": "root", "attachment": "stars_big_4", "blend": "additive" },
	{ "name": "stars_big_8", "bone": "root", "attachment": "stars_big_4", "blend": "additive" }
],
"skins": [
	{
		"name": "default",
		"attachments": {
			"bg": {
				"bg": { "x": 0.5, "y": -0.5, "width": 1777, "height": 999 }
			},
			"left_glow": {
				"left_glow": {
					"type": "mesh",
					"uvs": [ 1, 1, 0, 1, 0, 0, 1, 0 ],
					"triangles": [ 1, 2, 3, 1, 3, 0 ],
					"vertices": [ -711, 93, -885, 93, -885, 277, -711, 277 ],
					"hull": 4
				}
			},
			"left_glowing_clouds": {
				"left_glowing_clouds": {
					"type": "mesh",
					"uvs": [ 1, 1, 0, 1, 0, 0, 1, 0 ],
					"triangles": [ 1, 2, 3, 1, 3, 0 ],
					"vertices": [ -586, -46, -888, -46, -888, 329, -586, 329 ],
					"hull": 4
				}
			},
			"lower_trail4": {
				"lower_trail4": {
					"type": "mesh",
					"uvs": [ 1, 1, 0, 1, 0, 0, 1, 0 ],
					"triangles": [ 1, 2, 3, 1, 3, 0 ],
					"vertices": [ -560.27, -407.19, -896.27, -407.19, -896.27, -255.19, -560.27, -255.19 ],
					"hull": 4
				}
			},
			"lower_trail5": {
				"lower_trail5": {
					"type": "mesh",
					"uvs": [ 1, 1, 0, 1, 0, 0, 1, 0 ],
					"triangles": [ 1, 2, 3, 1, 3, 0 ],
					"vertices": [ -418.6, -251.85, -859.6, -251.85, -859.6, 55.15, -418.6, 55.15 ],
					"hull": 4
				}
			},
			"lower_trail6": {
				"lower_trail4": {
					"type": "mesh",
					"uvs": [ 1, 1, 0, 1, 0, 0, 1, 0 ],
					"triangles": [ 1, 2, 3, 1, 3, 0 ],
					"vertices": [ -560.27, -407.19, -896.27, -407.19, -896.27, -255.19, -560.27, -255.19 ],
					"hull": 4
				}
			},
			"lower_trail7": {
				"lower_trail5": {
					"type": "mesh",
					"uvs": [ 1, 1, 0, 1, 0, 0, 1, 0 ],
					"triangles": [ 1, 2, 3, 1, 3, 0 ],
					"vertices": [ -418.6, -251.85, -859.6, -251.85, -859.6, 55.15, -418.6, 55.15 ],
					"hull": 4
				}
			},
			"lower_trail8": {
				"lower_trail2": {
					"type": "mesh",
					"uvs": [ 1, 1, 0, 1, 0, 0, 1, 0 ],
					"triangles": [ 1, 2, 3, 1, 3, 0 ],
					"vertices": [ 901.55, -312.4, 777.9, -554.66, 422.51, -373.27, 546.17, -131 ],
					"hull": 4
				}
			},
			"right_bottom_glow": {
				"right_bottom_glow": { "x": 692.23, "y": -296.93, "width": 140, "height": 363 }
			},
			"right_bottom_glow2": {
				"right_bottom_glow": { "x": 692.23, "y": -296.93, "width": 140, "height": 363 }
			},
			"right_green_smoke": {
				"right_green_smoke": { "x": 587, "y": -88.5, "width": 352, "height": 339 }
			},
			"right_purple_cloud_1": {
				"right_purple_cloud_01": { "x": 812.5, "y": -285, "width": 153, "height": 196 }
			},
			"right_purple_cloud_2": {
				"right_purple_cloud_02": { "x": 711.5, "y": -185.5, "width": 355, "height": 403 }
			},
			"right_purple_cloud_3": {
				"right_purple_cloud_02": { "x": 711.5, "y": -185.5, "width": 355, "height": 403 }
			},
			"right_small_trail": {
				"right_small_trail": { "x": 645.5, "y": -179.5, "width": 487, "height": 325 }
			},
			"shooting stars": {
				"shooting stars": {
					"type": "mesh",
					"uvs": [ 1, 1, 0, 1, 0, 0, 1, 0 ],
					"triangles": [ 1, 2, 3, 1, 3, 0 ],
					"vertices": [ 943.41, 445.95, 841.01, 445.95, 841.01, 541.95, 943.41, 541.95 ],
					"hull": 4
				}
			},
			"shooting stars2": {
				"shooting stars": {
					"type": "mesh",
					"uvs": [ 1, 1, 0, 1, 0, 0, 1, 0 ],
					"triangles": [ 1, 2, 3, 1, 3, 0 ],
					"vertices": [ 943.41, 445.95, 841.01, 445.95, 841.01, 541.95, 943.41, 541.95 ],
					"hull": 4
				}
			},
			"shooting stars5": {
				"shooting stars": {
					"type": "mesh",
					"uvs": [ 1, 1, 0, 1, 0, 0, 1, 0 ],
					"triangles": [ 1, 2, 3, 1, 3, 0 ],
					"vertices": [ 943.41, 445.95, 841.01, 445.95, 841.01, 541.95, 943.41, 541.95 ],
					"hull": 4
				}
			},
			"star": {
				"star": {
					"type": "mesh",
					"uvs": [ 1, 1, 0, 1, 0, 0, 1, 0 ],
					"triangles": [ 1, 2, 3, 1, 3, 0 ],
					"vertices": [ -628.16, -429.51, -739.84, -392.67, -705.37, -288.17, -593.69, -325.01 ],
					"hull": 4
				}
			},
			"star2": {
				"star": {
					"type": "mesh",
					"uvs": [ 1, 1, 0, 1, 0, 0, 1, 0 ],
					"triangles": [ 1, 2, 3, 1, 3, 0 ],
					"vertices": [ -778.99, -338.6, -896.59, -338.6, -896.59, -228.56, -778.99, -228.56 ],
					"hull": 4
				}
			},
			"star03": {
				"star": {
					"type": "mesh",
					"uvs": [ 1, 1, 0, 1, 0, 0, 1, 0 ],
					"triangles": [ 1, 2, 3, 1, 3, 0 ],
					"vertices": [ -805.45, 243.52, -923.05, 243.52, -923.05, 353.56, -805.45, 353.56 ],
					"hull": 4
				}
			},
			"star3": {
				"star": {
					"type": "mesh",
					"uvs": [ 1, 1, 0, 1, 0, 0, 1, 0 ],
					"triangles": [ 1, 2, 3, 1, 3, 0 ],
					"vertices": [ 675.11, -156.37, 557.51, -156.37, 557.51, -46.33, 675.11, -46.33 ],
					"hull": 4
				}
			},
			"star4": {
				"star": {
					"type": "mesh",
					"uvs": [ 1, 1, 0, 1, 0, 0, 1, 0 ],
					"triangles": [ 1, 2, 3, 1, 3, 0 ],
					"vertices": [ 907.76, -178.04, 790.16, -178.04, 790.16, -68, 907.76, -68 ],
					"hull": 4
				}
			},
			"star5": {
				"star": {
					"type": "mesh",
					"uvs": [ 1, 1, 0, 1, 0, 0, 1, 0 ],
					"triangles": [ 1, 2, 3, 1, 3, 0 ],
					"vertices": [ -793.82, 70.4, -911.42, 70.4, -911.42, 180.44, -793.82, 180.44 ],
					"hull": 4
				}
			},
			"star6": {
				"star": {
					"type": "mesh",
					"uvs": [ 1, 1, 0, 1, 0, 0, 1, 0 ],
					"triangles": [ 1, 2, 3, 1, 3, 0 ],
					"vertices": [ 651.33, 76.19, 533.73, 76.19, 533.73, 186.23, 651.33, 186.23 ],
					"hull": 4
				}
			},
			"star7": {
				"star": {
					"type": "mesh",
					"uvs": [ 1, 1, 0, 1, 0, 0, 1, 0 ],
					"triangles": [ 1, 2, 3, 1, 3, 0 ],
					"vertices": [ 914.34, -361.6, 796.74, -361.6, 796.74, -251.56, 914.34, -251.56 ],
					"hull": 4
				}
			},
			"star8": {
				"star": {
					"type": "mesh",
					"uvs": [ 1, 1, 0, 1, 0, 0, 1, 0 ],
					"triangles": [ 1, 2, 3, 1, 3, 0 ],
					"vertices": [ 326.45, 423.96, 208.85, 423.96, 208.85, 534, 326.45, 534 ],
					"hull": 4
				}
			},
			"star9": {
				"star": {
					"type": "mesh",
					"uvs": [ 1, 1, 0, 1, 0, 0, 1, 0 ],
					"triangles": [ 1, 2, 3, 1, 3, 0 ],
					"vertices": [ -365.37, 384.83, -482.97, 384.83, -482.97, 494.87, -365.37, 494.87 ],
					"hull": 4
				}
			},
			"star10": {
				"star": {
					"type": "mesh",
					"uvs": [ 1, 1, 0, 1, 0, 0, 1, 0 ],
					"triangles": [ 1, 2, 3, 1, 3, 0 ],
					"vertices": [ 705.89, 377.19, 588.29, 377.19, 588.29, 487.23, 705.89, 487.23 ],
					"hull": 4
				}
			},
			"star11": {
				"star": {
					"type": "mesh",
					"uvs": [ 1, 1, 0, 1, 0, 0, 1, 0 ],
					"triangles": [ 1, 2, 3, 1, 3, 0 ],
					"vertices": [ 471.37, 396.83, 359.69, 433.67, 394.16, 538.17, 505.84, 501.33 ],
					"hull": 4
				}
			},
			"star12": {
				"star": {
					"type": "mesh",
					"uvs": [ 1, 1, 0, 1, 0, 0, 1, 0 ],
					"triangles": [ 1, 2, 3, 1, 3, 0 ],
					"vertices": [ -621.4, 169.65, -738.96, 166.9, -741.53, 276.91, -623.96, 279.66 ],
					"hull": 4
				}
			},
			"star13": {
				"star": {
					"type": "mesh",
					"uvs": [ 1, 1, 0, 1, 0, 0, 1, 0 ],
					"triangles": [ 1, 2, 3, 1, 3, 0 ],
					"vertices": [ -607.3, 28.7, -724.9, 28.7, -724.9, 138.74, -607.3, 138.74 ],
					"hull": 4
				}
			},
			"star14": {
				"star": {
					"type": "mesh",
					"uvs": [ 1, 1, 0, 1, 0, 0, 1, 0 ],
					"triangles": [ 1, 2, 3, 1, 3, 0 ],
					"vertices": [ -652.57, -328.93, -770.17, -328.93, -770.17, -218.89, -652.57, -218.89 ],
					"hull": 4
				}
			},
			"star15": {
				"star": {
					"type": "mesh",
					"uvs": [ 1, 1, 0, 1, 0, 0, 1, 0 ],
					"triangles": [ 1, 2, 3, 1, 3, 0 ],
					"vertices": [ -774.8, -67.87, -892.4, -67.87, -892.4, 42.17, -774.8, 42.17 ],
					"hull": 4
				}
			},
			"star16": {
				"star": {
					"type": "mesh",
					"uvs": [ 1, 1, 0, 1, 0, 0, 1, 0 ],
					"triangles": [ 1, 2, 3, 1, 3, 0 ],
					"vertices": [ -768.76, 402.94, -886.36, 402.94, -886.36, 512.98, -768.76, 512.98 ],
					"hull": 4
				}
			},
			"star17": {
				"star": {
					"type": "mesh",
					"uvs": [ 1, 1, 0, 1, 0, 0, 1, 0 ],
					"triangles": [ 1, 2, 3, 1, 3, 0 ],
					"vertices": [ -219.49, 434.62, -337.09, 434.62, -337.09, 544.67, -219.49, 544.67 ],
					"hull": 4
				}
			},
			"star18": {
				"star": {
					"type": "mesh",
					"uvs": [ 1, 1, 0, 1, 0, 0, 1, 0 ],
					"triangles": [ 1, 2, 3, 1, 3, 0 ],
					"vertices": [ 608.95, 363.7, 491.35, 363.7, 491.35, 473.74, 608.95, 473.74 ],
					"hull": 4
				}
			},
			"star19": {
				"star": {
					"type": "mesh",
					"uvs": [ 1, 1, 0, 1, 0, 0, 1, 0 ],
					"triangles": [ 1, 2, 3, 1, 3, 0 ],
					"vertices": [ 913.77, 416.52, 796.17, 416.52, 796.17, 526.56, 913.77, 526.56 ],
					"hull": 4
				}
			},
			"star20": {
				"star": {
					"type": "mesh",
					"uvs": [ 1, 1, 0, 1, 0, 0, 1, 0 ],
					"triangles": [ 1, 2, 3, 1, 3, 0 ],
					"vertices": [ 922.83, -433.05, 805.22, -433.05, 805.22, -323.01, 922.83, -323.01 ],
					"hull": 4
				}
			},
			"star21": {
				"star": {
					"type": "mesh",
					"uvs": [ 1, 1, 0, 1, 0, 0, 1, 0 ],
					"triangles": [ 1, 2, 3, 1, 3, 0 ],
					"vertices": [ 643.66, -248.95, 526.06, -248.95, 526.06, -138.91, 643.66, -138.91 ],
					"hull": 4
				}
			},
			"star22": {
				"star": {
					"type": "mesh",
					"uvs": [ 1, 1, 0, 1, 0, 0, 1, 0 ],
					"triangles": [ 1, 2, 3, 1, 3, 0 ],
					"vertices": [ 915.28, 51.34, 797.68, 51.34, 797.68, 161.38, 915.28, 161.38 ],
					"hull": 4
				}
			},
			"star23": {
				"star": {
					"type": "mesh",
					"uvs": [ 1, 1, 0, 1, 0, 0, 1, 0 ],
					"triangles": [ 1, 2, 3, 1, 3, 0 ],
					"vertices": [ 787.01, 203.75, 669.41, 203.75, 669.41, 313.79, 787.01, 313.79 ],
					"hull": 4
				}
			},
			"star24": {
				"star": {
					"type": "mesh",
					"uvs": [ 1, 1, 0, 1, 0, 0, 1, 0 ],
					"triangles": [ 1, 2, 3, 1, 3, 0 ],
					"vertices": [ -778.99, -338.6, -896.59, -338.6, -896.59, -228.56, -778.99, -228.56 ],
					"hull": 4
				}
			},
			"star25": {
				"star": {
					"type": "mesh",
					"uvs": [ 1, 1, 0, 1, 0, 0, 1, 0 ],
					"triangles": [ 1, 2, 3, 1, 3, 0 ],
					"vertices": [ -484.73, 414.75, -602.33, 414.75, -602.33, 524.79, -484.73, 524.79 ],
					"hull": 4
				}
			},
			"star26": {
				"star": {
					"type": "mesh",
					"uvs": [ 1, 1, 0, 1, 0, 0, 1, 0 ],
					"triangles": [ 1, 2, 3, 1, 3, 0 ],
					"vertices": [ -662.96, 66.52, -780.56, 66.52, -780.56, 176.56, -662.96, 176.56 ],
					"hull": 4
				}
			},
			"star27": {
				"star": {
					"type": "mesh",
					"uvs": [ 1, 1, 0, 1, 0, 0, 1, 0 ],
					"triangles": [ 1, 2, 3, 1, 3, 0 ],
					"vertices": [ -598.52, -174.78, -716.12, -174.78, -716.12, -64.74, -598.52, -64.74 ],
					"hull": 4
				}
			},
			"star28": {
				"star": {
					"type": "mesh",
					"uvs": [ 1, 1, 0, 1, 0, 0, 1, 0 ],
					"triangles": [ 1, 2, 3, 1, 3, 0 ],
					"vertices": [ -735.62, -405.11, -853.22, -405.11, -853.22, -295.07, -735.62, -295.07 ],
					"hull": 4
				}
			},
			"star29": {
				"star": {
					"type": "mesh",
					"uvs": [ 1, 1, 0, 1, 0, 0, 1, 0 ],
					"triangles": [ 1, 2, 3, 1, 3, 0 ],
					"vertices": [ 546.27, 377.73, 428.67, 377.73, 428.67, 487.77, 546.27, 487.77 ],
					"hull": 4
				}
			},
			"star30": {
				"star": {
					"type": "mesh",
					"uvs": [ 1, 1, 0, 1, 0, 0, 1, 0 ],
					"triangles": [ 1, 2, 3, 1, 3, 0 ],
					"vertices": [ 790.3, 417.49, 672.7, 417.49, 672.7, 527.53, 790.3, 527.53 ],
					"hull": 4
				}
			},
			"star31": {
				"star": {
					"type": "mesh",
					"uvs": [ 1, 1, 0, 1, 0, 0, 1, 0 ],
					"triangles": [ 1, 2, 3, 1, 3, 0 ],
					"vertices": [ 658.69, -379.06, 541.09, -379.06, 541.09, -269.02, 658.69, -269.02 ],
					"hull": 4
				}
			},
			"star32": {
				"star": {
					"type": "mesh",
					"uvs": [ 1, 1, 0, 1, 0, 0, 1, 0 ],
					"triangles": [ 1, 2, 3, 1, 3, 0 ],
					"vertices": [ 791.67, -229.62, 674.07, -229.62, 674.07, -119.58, 791.67, -119.58 ],
					"hull": 4
				}
			},
			"star33": {
				"star": {
					"type": "mesh",
					"uvs": [ 1, 1, 0, 1, 0, 0, 1, 0 ],
					"triangles": [ 1, 2, 3, 1, 3, 0 ],
					"vertices": [ 928.77, 146.03, 811.17, 146.03, 811.17, 256.07, 928.77, 256.07 ],
					"hull": 4
				}
			},
			"star34": {
				"star": {
					"type": "mesh",
					"uvs": [ 1, 1, 0, 1, 0, 0, 1, 0 ],
					"triangles": [ 1, 2, 3, 1, 3, 0 ],
					"vertices": [ -619.31, 394.13, -736.91, 394.13, -736.91, 504.17, -619.31, 504.17 ],
					"hull": 4
				}
			},
			"stars_big_1": {
				"stars_big_1": { "x": -707.33, "y": -206.33, "width": 372, "height": 482 }
			},
			"stars_big_2": {
				"stars_big_2": { "x": 670.49, "y": -355.08, "width": 342, "height": 219 }
			},
			"stars_big_3": {
				"stars_big_3": { "x": 822, "y": 250.15, "width": 73, "height": 113 }
			},
			"stars_big_4": {
				"stars_big_4": { "x": -535.21, "y": 467.72, "width": 64, "height": 232 }
			},
			"stars_big_05": {
				"stars_big_1": { "x": -707.33, "y": -206.33, "width": 372, "height": 482 }
			},
			"stars_big_5": {
				"stars_big_1": { "x": 713.95, "y": 242.99, "scaleX": -1, "scaleY": -1, "width": 372, "height": 482 }
			},
			"stars_big_06": {
				"stars_big_2": { "x": 670.49, "y": -355.08, "width": 342, "height": 219 }
			},
			"stars_big_6": {
				"stars_big_2": { "x": -531.18, "y": 391.67, "scaleX": -1, "scaleY": -1, "width": 342, "height": 219 }
			},
			"stars_big_07": {
				"stars_big_3": { "x": 822, "y": 250.15, "width": 73, "height": 113 }
			},
			"stars_big_7": {
				"stars_big_3": { "x": -811.72, "y": -221.73, "scaleX": -1, "scaleY": -1, "width": 73, "height": 113 }
			},
			"stars_big_08": {
				"stars_big_4": { "x": -535.21, "y": 467.72, "width": 64, "height": 232 }
			},
			"stars_big_8": {
				"stars_big_4": { "x": 679.27, "y": -442.2, "scaleX": -1, "scaleY": -1, "width": 64, "height": 232 }
			},
			"stars_big_9": {
				"stars_big_4": { "x": 584.02, "y": 467.72, "width": 64, "height": 232 }
			},
			"stars_big_10": {
				"stars_big_4": { "x": 584.02, "y": 467.72, "width": 64, "height": 232 }
			},
			"stars_big_11": {
				"stars_big_4": { "x": 20.02, "y": 383.12, "scaleX": -1, "scaleY": -1, "width": 64, "height": 232 }
			},
			"stars_big_12": {
				"stars_big_4": {
					"x": -825.98,
					"y": 227.08,
					"scaleX": -1,
					"scaleY": -1,
					"rotation": 82.01,
					"width": 64,
					"height": 232
				}
			},
			"stars_big_13": {
				"stars_big_4": { "x": 9.99, "y": 405.68, "width": 64, "height": 232 }
			},
			"stars_big_14": {
				"stars_big_4": { "x": 773.27, "y": 405.68, "width": 64, "height": 232 }
			},
			"stars_big_15": {
				"stars_big_4": { "x": 773.27, "y": -429.04, "width": 64, "height": 232 }
			},
			"stars_big_16": {
				"stars_big_4": { "x": 652.95, "y": -398.96, "width": 64, "height": 232 }
			},
			"stars_big_17": {
				"stars_big_4": { "x": -764.57, "y": -291.8, "width": 64, "height": 232 }
			},
			"stars_big_18": {
				"stars_big_2": { "x": 380.37, "y": -405.53, "width": 342, "height": 219 }
			},
			"stars_big_19": {
				"stars_big_2": { "x": 380.37, "y": -405.53, "width": 342, "height": 219 }
			},
			"stars_big_20": {
				"stars_big_2": { "x": -25.08, "y": -387.51, "width": 342, "height": 219 }
			},
			"stars_big_21": {
				"stars_big_2": { "x": -25.08, "y": -387.51, "width": 342, "height": 219 }
			},
			"stars_big_22": {
				"stars_big_2": { "x": -723.23, "y": 378.75, "width": 342, "height": 219 }
			},
			"upper_trail4": {
				"upper_trail2": {
					"type": "mesh",
					"uvs": [ 1, 1, 0, 1, 0, 0, 1, 0 ],
					"triangles": [ 1, 2, 3, 1, 3, 0 ],
					"vertices": [ -304.75, 197.39, -763.75, 197.39, -763.75, 509.39, -304.75, 509.39 ],
					"hull": 4
				}
			},
			"upper_trail5": {
				"upper_trail3": {
					"type": "mesh",
					"uvs": [ 1, 1, 0, 1, 0, 0, 1, 0 ],
					"triangles": [ 1, 2, 3, 1, 3, 0 ],
					"vertices": [ 672.02, 230.16, 168.02, 230.16, 168.02, 372.16, 672.02, 372.16 ],
					"hull": 4
				}
			},
			"upper_trail6": {
				"upper_trail2": {
					"type": "mesh",
					"uvs": [ 1, 1, 0, 1, 0, 0, 1, 0 ],
					"triangles": [ 1, 2, 3, 1, 3, 0 ],
					"vertices": [ -304.75, 197.39, -763.75, 197.39, -763.75, 509.39, -304.75, 509.39 ],
					"hull": 4
				}
			},
			"upper_trail7": {
				"upper_trail3": {
					"type": "mesh",
					"uvs": [ 1, 1, 0, 1, 0, 0, 1, 0 ],
					"triangles": [ 1, 2, 3, 1, 3, 0 ],
					"vertices": [ 672.02, 230.16, 168.02, 230.16, 168.02, 372.16, 672.02, 372.16 ],
					"hull": 4
				}
			},
			"upper_trail8": {
				"upper_trail2": {
					"type": "mesh",
					"uvs": [ 1, 1, 0, 1, 0, 0, 1, 0 ],
					"triangles": [ 1, 2, 3, 1, 3, 0 ],
					"vertices": [ 287.49, 154.68, 746.49, 154.68, 746.49, -157.32, 287.49, -157.32 ],
					"hull": 4
				}
			}
		}
	}
],
"animations": {
	"stpr_freegame_idle": {
		"slots": {
			"left_glow": {
				"color": [
					{ "color": "ffffff00", "curve": 0.25, "c3": 0.75 },
					{ "time": 2.9667, "color": "ffffff74", "curve": 0.25, "c3": 0.75 },
					{ "time": 6.0333, "color": "ffffff00" }
				]
			},
			"left_glowing_clouds": {
				"color": [
					{ "color": "ffffff00" },
					{ "time": 3.0667, "color": "ffffffff" },
					{ "time": 6.0333, "color": "ffffff00" }
				]
			},
			"lower_trail4": {
				"color": [
					{ "time": 4.0333, "color": "ffffffff" },
					{ "time": 6.0333, "color": "ffffff00" }
				]
			},
			"lower_trail5": {
				"color": [
					{ "color": "ffffff96", "curve": "stepped" },
					{ "time": 3.8, "color": "ffffff96" },
					{ "time": 6.0333, "color": "ffffff00" }
				]
			},
			"lower_trail6": {
				"color": [
					{ "color": "ffffff00", "curve": "stepped" },
					{ "time": 0.9333, "color": "ffffff00" },
					{ "time": 6.0333, "color": "ffffffff" }
				]
			},
			"lower_trail7": {
				"color": [
					{ "color": "ffffff00" },
					{ "time": 6.0333, "color": "ffffff96" }
				]
			},
			"lower_trail8": {
				"color": [
					{ "color": "ffffff00" },
					{ "time": 2.7, "color": "ffffffab" },
					{ "time": 6.0333, "color": "ffffff00" }
				]
			},
			"right_bottom_glow2": {
				"color": [
					{ "color": "00e2ff00" },
					{ "time": 2.3333, "color": "fff900ff", "curve": "stepped" },
					{ "time": 3.7, "color": "fff900ff" },
					{ "time": 5.4667, "color": "00e2ff00" }
				]
			},
			"right_purple_cloud_3": {
				"color": [
					{ "color": "ffd8c569" },
					{ "time": 2.8333, "color": "ffd8c500" },
					{ "time": 6.0333, "color": "ffd8c569" }
				]
			},
			"shooting stars": {
				"color": [
					{ "time": 1.3333, "color": "ffffffff" },
					{ "time": 1.3667, "color": "ffffff00" }
				]
			},
			"shooting stars2": {
				"color": [
					{ "time": 3.2333, "color": "ffffffff" },
					{ "time": 3.2667, "color": "ffffff00" }
				]
			},
			"shooting stars5": {
				"color": [
					{ "time": 4.6667, "color": "ffffffff" },
					{ "time": 5.4333, "color": "ffffff00" }
				]
			},
			"star": {
				"color": [
					{ "color": "ffffff00" },
					{ "time": 1.5333, "color": "ffffffff", "curve": "stepped" },
					{ "time": 3.1333, "color": "ffffffff" },
					{ "time": 4.4667, "color": "ffffff00" }
				]
			},
			"star2": {
				"color": [
					{ "time": 0.7333, "color": "ffffffff" },
					{ "time": 2.8333, "color": "ffffff00" },
					{ "time": 5.2333, "color": "ffffffff" }
				]
			},
			"star03": {
				"color": [
					{ "color": "ffffff00", "curve": "stepped" },
					{ "time": 1.5667, "color": "ffffff00" },
					{ "time": 3.3667, "color": "ffffffff", "curve": "stepped" },
					{ "time": 4.1333, "color": "ffffffff" },
					{ "time": 6.0333, "color": "ffffff00" }
				]
			},
			"star3": {
				"color": [
					{ "color": "ffffff00", "curve": "stepped" },
					{ "time": 1.5667, "color": "ffffff00" },
					{ "time": 3.3667, "color": "ffffffff", "curve": "stepped" },
					{ "time": 4.5667, "color": "ffffffff" },
					{ "time": 6.0333, "color": "ffffff00" }
				]
			},
			"star4": {
				"color": [
					{ "time": 0.6, "color": "ffffffff" },
					{ "time": 3.1667, "color": "ffffff00" },
					{ "time": 4.9333, "color": "ffffffff" }
				]
			},
			"star5": {
				"color": [
					{ "time": 1.1333, "color": "ffffffff" },
					{ "time": 2.8333, "color": "ffffff00" },
					{ "time": 4.7667, "color": "ffffffff" }
				]
			},
			"star6": {
				"color": [
					{ "color": "ffffffff" },
					{ "time": 1.8333, "color": "ffffff00", "curve": "stepped" },
					{ "time": 4, "color": "ffffff00" },
					{ "time": 6.0333, "color": "ffffffff" }
				]
			},
			"star7": {
				"color": [
					{ "color": "ffffff00", "curve": "stepped" },
					{ "time": 1.5667, "color": "ffffff00" },
					{ "time": 3.3667, "color": "ffffffff", "curve": "stepped" },
					{ "time": 4.4667, "color": "ffffffff" },
					{ "time": 6.0333, "color": "ffffff00" }
				]
			},
			"star8": {
				"color": [
					{ "color": "ffffff00", "curve": "stepped" },
					{ "time": 0.3667, "color": "ffffff00" },
					{ "time": 2.0333, "color": "ffffffff", "curve": "stepped" },
					{ "time": 4.1333, "color": "ffffffff" },
					{ "time": 6.0333, "color": "ffffff00" }
				]
			},
			"star9": {
				"color": [
					{ "color": "ffffffff" },
					{ "time": 2.4667, "color": "ffffff00", "curve": "stepped" },
					{ "time": 4.9667, "color": "ffffff00" },
					{ "time": 6.0333, "color": "ffffffff" }
				]
			},
			"star10": {
				"color": [
					{ "color": "ffffff00" },
					{ "time": 1.9667, "color": "ffffffff", "curve": "stepped" },
					{ "time": 4.0667, "color": "ffffffff" },
					{ "time": 6.0333, "color": "ffffff00" }
				]
			},
			"star11": {
				"color": [
					{ "color": "ffffff00" },
					{ "time": 1.8, "color": "ffffffff", "curve": "stepped" },
					{ "time": 2.5333, "color": "ffffffff" },
					{ "time": 4.4667, "color": "ffffff00" }
				]
			},
			"star12": {
				"color": [
					{ "color": "ffffff00" },
					{ "time": 1.8, "color": "ffffffff", "curve": "stepped" },
					{ "time": 2.5333, "color": "ffffffff" },
					{ "time": 4.4667, "color": "ffffff00" }
				]
			},
			"star13": {
				"color": [
					{ "time": 0.8667, "color": "ffffffff" },
					{ "time": 2.4667, "color": "ffffff00" },
					{ "time": 3.3333, "color": "ffffffff" },
					{ "time": 4.3667, "color": "ffffff00" },
					{ "time": 5.3333, "color": "ffffffff" }
				]
			},
			"star14": {
				"color": [
					{ "time": 0.8667, "color": "ffffffff" },
					{ "time": 2.4667, "color": "ffffff00" },
					{ "time": 3.3333, "color": "ffffffff" },
					{ "time": 4.3667, "color": "ffffff00" },
					{ "time": 5.3333, "color": "ffffffff" }
				]
			},
			"star15": {
				"color": [
					{ "time": 0.8667, "color": "ffffffff" },
					{ "time": 2.4667, "color": "ffffff00" },
					{ "time": 3.3333, "color": "ffffffff" },
					{ "time": 4.3667, "color": "ffffff00" },
					{ "time": 5.3333, "color": "ffffffff" }
				]
			},
			"star16": {
				"color": [
					{ "time": 0.8667, "color": "ffffffff" },
					{ "time": 2.4667, "color": "ffffff00" },
					{ "time": 3.3333, "color": "ffffffff" },
					{ "time": 4.3667, "color": "ffffff00" },
					{ "time": 5.3333, "color": "ffffffff" }
				]
			},
			"star17": {
				"color": [
					{ "time": 0.8667, "color": "ffffffff" },
					{ "time": 2.4667, "color": "ffffff00" },
					{ "time": 3.3333, "color": "ffffffff" },
					{ "time": 4.3667, "color": "ffffff00" },
					{ "time": 5.3333, "color": "ffffffff" }
				]
			},
			"star18": {
				"color": [
					{ "time": 0.8667, "color": "ffffffff" },
					{ "time": 2.4667, "color": "ffffff00" },
					{ "time": 3.3333, "color": "ffffffff" },
					{ "time": 4.3667, "color": "ffffff00" },
					{ "time": 5.3333, "color": "ffffffff" }
				]
			},
			"star19": {
				"color": [
					{ "time": 0.8667, "color": "ffffffff" },
					{ "time": 2.4667, "color": "ffffff00" },
					{ "time": 3.3333, "color": "ffffffff" },
					{ "time": 4.3667, "color": "ffffff00" },
					{ "time": 5.3333, "color": "ffffffff" }
				]
			},
			"star20": {
				"color": [
					{ "time": 0.8667, "color": "ffffffff" },
					{ "time": 2.4667, "color": "ffffff00" },
					{ "time": 3.3333, "color": "ffffffff" },
					{ "time": 4.3667, "color": "ffffff00" },
					{ "time": 5.3333, "color": "ffffffff" }
				]
			},
			"star21": {
				"color": [
					{ "time": 0.8667, "color": "ffffffff" },
					{ "time": 2.4667, "color": "ffffff00" },
					{ "time": 3.3333, "color": "ffffffff" },
					{ "time": 4.3667, "color": "ffffff00" },
					{ "time": 5.3333, "color": "ffffffff" }
				]
			},
			"star22": {
				"color": [
					{ "time": 0.8667, "color": "ffffffff" },
					{ "time": 2.4667, "color": "ffffff00" },
					{ "time": 3.3333, "color": "ffffffff" },
					{ "time": 4.3667, "color": "ffffff00" },
					{ "time": 5.3333, "color": "ffffffff" }
				]
			},
			"star23": {
				"color": [
					{ "time": 0.8667, "color": "ffffffff" },
					{ "time": 2.4667, "color": "ffffff00" },
					{ "time": 3.3333, "color": "ffffffff" },
					{ "time": 4.3667, "color": "ffffff00" },
					{ "time": 5.3333, "color": "ffffffff" }
				]
			},
			"star25": {
				"color": [
					{ "color": "ffffff00", "curve": "stepped" },
					{ "time": 0.4667, "color": "ffffff00" },
					{ "time": 1.7, "color": "ffffffff", "curve": "stepped" },
					{ "time": 2.1, "color": "ffffffff" },
					{ "time": 3.3, "color": "ffffff00" },
					{ "time": 4.3333, "color": "ffffffff", "curve": "stepped" },
					{ "time": 4.9667, "color": "ffffffff" },
					{ "time": 6.0333, "color": "ffffff00" }
				]
			},
			"star26": {
				"color": [
					{ "color": "ffffff00", "curve": "stepped" },
					{ "time": 0.4667, "color": "ffffff00" },
					{ "time": 1.7, "color": "ffffffff", "curve": "stepped" },
					{ "time": 2.1, "color": "ffffffff" },
					{ "time": 3.3, "color": "ffffff00" },
					{ "time": 4.3333, "color": "ffffffff", "curve": "stepped" },
					{ "time": 4.9667, "color": "ffffffff" },
					{ "time": 6.0333, "color": "ffffff00" }
				]
			},
			"star27": {
				"color": [
					{ "color": "ffffff00", "curve": "stepped" },
					{ "time": 0.4667, "color": "ffffff00" },
					{ "time": 1.7, "color": "ffffffff", "curve": "stepped" },
					{ "time": 2.1, "color": "ffffffff" },
					{ "time": 3.3, "color": "ffffff00" },
					{ "time": 4.3333, "color": "ffffffff", "curve": "stepped" },
					{ "time": 4.9667, "color": "ffffffff" },
					{ "time": 6.0333, "color": "ffffff00" }
				]
			},
			"star28": {
				"color": [
					{ "color": "ffffff00", "curve": "stepped" },
					{ "time": 0.4667, "color": "ffffff00" },
					{ "time": 1.7, "color": "ffffffff", "curve": "stepped" },
					{ "time": 2.1, "color": "ffffffff" },
					{ "time": 3.3, "color": "ffffff00" },
					{ "time": 4.3333, "color": "ffffffff", "curve": "stepped" },
					{ "time": 4.9667, "color": "ffffffff" },
					{ "time": 6.0333, "color": "ffffff00" }
				]
			},
			"star29": {
				"color": [
					{ "color": "ffffff00", "curve": "stepped" },
					{ "time": 0.4667, "color": "ffffff00" },
					{ "time": 1.7, "color": "ffffffff", "curve": "stepped" },
					{ "time": 2.1, "color": "ffffffff" },
					{ "time": 3.3, "color": "ffffff00" },
					{ "time": 4.3333, "color": "ffffffff", "curve": "stepped" },
					{ "time": 4.9667, "color": "ffffffff" },
					{ "time": 6.0333, "color": "ffffff00" }
				]
			},
			"star30": {
				"color": [
					{ "color": "ffffff00", "curve": "stepped" },
					{ "time": 0.4667, "color": "ffffff00" },
					{ "time": 1.7, "color": "ffffffff", "curve": "stepped" },
					{ "time": 2.1, "color": "ffffffff" },
					{ "time": 3.3, "color": "ffffff00" },
					{ "time": 4.3333, "color": "ffffffff", "curve": "stepped" },
					{ "time": 4.9667, "color": "ffffffff" },
					{ "time": 6.0333, "color": "ffffff00" }
				]
			},
			"star31": {
				"color": [
					{ "color": "ffffff00", "curve": "stepped" },
					{ "time": 0.4667, "color": "ffffff00" },
					{ "time": 1.7, "color": "ffffffff", "curve": "stepped" },
					{ "time": 2.1, "color": "ffffffff" },
					{ "time": 3.3, "color": "ffffff00" },
					{ "time": 4.3333, "color": "ffffffff", "curve": "stepped" },
					{ "time": 4.9667, "color": "ffffffff" },
					{ "time": 6.0333, "color": "ffffff00" }
				]
			},
			"star32": {
				"color": [
					{ "color": "ffffff00", "curve": "stepped" },
					{ "time": 0.4667, "color": "ffffff00" },
					{ "time": 1.7, "color": "ffffffff", "curve": "stepped" },
					{ "time": 2.1, "color": "ffffffff" },
					{ "time": 3.3, "color": "ffffff00" },
					{ "time": 4.3333, "color": "ffffffff", "curve": "stepped" },
					{ "time": 4.9667, "color": "ffffffff" },
					{ "time": 6.0333, "color": "ffffff00" }
				]
			},
			"star33": {
				"color": [
					{ "color": "ffffff00", "curve": "stepped" },
					{ "time": 0.4667, "color": "ffffff00" },
					{ "time": 1.7, "color": "ffffffff", "curve": "stepped" },
					{ "time": 2.1, "color": "ffffffff" },
					{ "time": 3.3, "color": "ffffff00" },
					{ "time": 4.3333, "color": "ffffffff", "curve": "stepped" },
					{ "time": 4.9667, "color": "ffffffff" },
					{ "time": 6.0333, "color": "ffffff00" }
				]
			},
			"star34": {
				"color": [
					{ "time": 0.8667, "color": "ffffffff" },
					{ "time": 2.4667, "color": "ffffff00" },
					{ "time": 3.3333, "color": "ffffffff" },
					{ "time": 4.3667, "color": "ffffff00" },
					{ "time": 5.3333, "color": "ffffffff" }
				]
			},
			"stars_big_05": {
				"color": [
					{ "color": "ffffffff" },
					{ "time": 0.6667, "color": "ffffff8a" },
					{ "time": 1.4, "color": "ffffffff" },
					{ "time": 2.9333, "color": "ffffff67" },
					{ "time": 4.0667, "color": "ffffffff" },
					{ "time": 5.1, "color": "ffffff98" },
					{ "time": 6.0333, "color": "ffffffff" }
				]
			},
			"stars_big_5": {
				"color": [
					{ "color": "ffffffff" },
					{ "time": 0.6667, "color": "ffffff8a" },
					{ "time": 1.4, "color": "ffffffff" },
					{ "time": 2.9333, "color": "ffffff67" },
					{ "time": 4.0667, "color": "ffffffff" },
					{ "time": 5.1, "color": "ffffff98" },
					{ "time": 6.0333, "color": "ffffffff" }
				]
			},
			"stars_big_06": {
				"color": [
					{ "color": "ffffffff" },
					{ "time": 0.6667, "color": "ffffff8a" },
					{ "time": 1.4, "color": "ffffffff" },
					{ "time": 2.9333, "color": "ffffff67" },
					{ "time": 4.0667, "color": "ffffffff" },
					{ "time": 5.1, "color": "ffffff98" },
					{ "time": 6.0333, "color": "ffffffff" }
				]
			},
			"stars_big_6": {
				"color": [
					{ "color": "ffffffff" },
					{ "time": 0.6667, "color": "ffffff8a" },
					{ "time": 1.4, "color": "ffffffff" },
					{ "time": 2.9333, "color": "ffffff67" },
					{ "time": 4.0667, "color": "ffffffff" },
					{ "time": 5.1, "color": "ffffff98" },
					{ "time": 6.0333, "color": "ffffffff" }
				]
			},
			"stars_big_07": {
				"color": [
					{ "color": "ffffffff" },
					{ "time": 0.6667, "color": "ffffff8a" },
					{ "time": 1.4, "color": "ffffffff" },
					{ "time": 2.9333, "color": "ffffff67" },
					{ "time": 4.0667, "color": "ffffffff" },
					{ "time": 5.1, "color": "ffffff98" },
					{ "time": 6.0333, "color": "ffffffff" }
				]
			},
			"stars_big_7": {
				"color": [
					{ "color": "ffffffff" },
					{ "time": 0.6667, "color": "ffffff8a" },
					{ "time": 1.4, "color": "ffffffff" },
					{ "time": 2.9333, "color": "ffffff67" },
					{ "time": 4.0667, "color": "ffffffff" },
					{ "time": 5.1, "color": "ffffff98" },
					{ "time": 6.0333, "color": "ffffffff" }
				]
			},
			"stars_big_08": {
				"color": [
					{ "color": "ffffffff" },
					{ "time": 0.6667, "color": "ffffff8a" },
					{ "time": 1.4, "color": "ffffffff" },
					{ "time": 2.9333, "color": "ffffff67" },
					{ "time": 4.0667, "color": "ffffffff" },
					{ "time": 5.1, "color": "ffffff98" },
					{ "time": 6.0333, "color": "ffffffff" }
				]
			},
			"stars_big_8": {
				"color": [
					{ "color": "ffffffff" },
					{ "time": 0.6667, "color": "ffffff8a" },
					{ "time": 1.4, "color": "ffffffff" },
					{ "time": 2.9333, "color": "ffffff67" },
					{ "time": 4.0667, "color": "ffffffff" },
					{ "time": 5.1, "color": "ffffff98" },
					{ "time": 6.0333, "color": "ffffffff" }
				]
			},
			"stars_big_10": {
				"color": [
					{ "color": "ffffffff" },
					{ "time": 0.6667, "color": "ffffff8a" },
					{ "time": 1.4, "color": "ffffffff" },
					{ "time": 2.9333, "color": "ffffff67" },
					{ "time": 4.0667, "color": "ffffffff" },
					{ "time": 5.1, "color": "ffffff98" },
					{ "time": 6.0333, "color": "ffffffff" }
				]
			},
			"stars_big_11": {
				"color": [
					{ "color": "ffffffff" },
					{ "time": 0.6667, "color": "ffffff8a" },
					{ "time": 1.4, "color": "ffffffff" },
					{ "time": 2.9333, "color": "ffffff67" },
					{ "time": 4.0667, "color": "ffffffff" },
					{ "time": 5.1, "color": "ffffff98" },
					{ "time": 6.0333, "color": "ffffffff" }
				]
			},
			"stars_big_12": {
				"color": [
					{ "color": "ffffffff" },
					{ "time": 0.6667, "color": "ffffff8a" },
					{ "time": 1.4, "color": "ffffffff" },
					{ "time": 2.9333, "color": "ffffff67" },
					{ "time": 4.0667, "color": "ffffffff" },
					{ "time": 5.1, "color": "ffffff98" },
					{ "time": 6.0333, "color": "ffffffff" }
				]
			},
			"stars_big_18": {
				"color": [
					{ "color": "ffffffff" },
					{ "time": 0.6667, "color": "ffffff8a" },
					{ "time": 1.4, "color": "ffffffff" },
					{ "time": 2.9333, "color": "ffffff67" },
					{ "time": 4.0667, "color": "ffffffff" },
					{ "time": 5.1, "color": "ffffff98" },
					{ "time": 6.0333, "color": "ffffffff" }
				]
			},
			"stars_big_20": {
				"color": [
					{ "color": "ffffffff" },
					{ "time": 0.6667, "color": "ffffff8a" },
					{ "time": 1.4, "color": "ffffffff" },
					{ "time": 2.9333, "color": "ffffff67" },
					{ "time": 4.0667, "color": "ffffffff" },
					{ "time": 5.1, "color": "ffffff98" },
					{ "time": 6.0333, "color": "ffffffff" }
				]
			},
			"upper_trail4": {
				"color": [
					{ "time": 3.4333, "color": "ffffffff" },
					{ "time": 5.5, "color": "ffffff00" }
				]
			},
			"upper_trail5": {
				"color": [
					{ "time": 3.4333, "color": "ffffffff" },
					{ "time": 5.5, "color": "ffffff00" }
				]
			},
			"upper_trail6": {
				"color": [
					{ "color": "ffffff00", "curve": "stepped" },
					{ "time": 3.8333, "color": "ffffff00" },
					{ "time": 6.0333, "color": "ffffffff" }
				]
			},
			"upper_trail7": {
				"color": [
					{ "color": "ffffff00", "curve": "stepped" },
					{ "time": 3.8333, "color": "ffffff00" },
					{ "time": 6.0333, "color": "ffffffff" }
				]
			},
			"upper_trail8": {
				"color": [
					{ "color": "ffffff00" },
					{ "time": 2.6667, "color": "ffffffff" },
					{ "time": 3.8333, "color": "ffffff00" }
				]
			}
		},
		"deform": {
			"default": {
				"left_glow": {
					"left_glow": [
						{
							"vertices": [ -16.15918, 18.79926, 16.15906, 18.79926, 16.15906, -18.79926, -16.15918, -18.79926 ]
						}
					]
				},
				"lower_trail4": {
					"lower_trail4": [
						{
							"vertices": [ 12.604, 0, 12.604, 0, 12.604, 0, 12.604 ]
						},
						{
							"time": 6.0333,
							"vertices": [ -100.1792, 0, -100.1792, 0, -100.1792, 0, -100.1792 ]
						}
					]
				},
				"lower_trail5": {
					"lower_trail5": [
						{},
						{
							"time": 6.0333,
							"vertices": [ -31.87604, 58.84799, -82.14191, -17.164, -68.65601, -50.26605, -53.944, -22.06796 ]
						}
					]
				},
				"lower_trail6": {
					"lower_trail4": [
						{
							"vertices": [ 121.38004, 5.35501, 121.38007, 5.35501, 121.38007, 5.35501, 121.38004, 5.35501 ]
						},
						{
							"time": 6.0333,
							"vertices": [ 12.604, 0, 12.604, 0, 12.604, 0, 12.604 ]
						}
					]
				},
				"lower_trail7": {
					"lower_trail5": [
						{
							"vertices": [ 66.20386, 9.80798, 66.20386, 9.80798, 66.20386, 9.80798, 66.20386, 9.80798 ]
						},
						{ "time": 6.0333 }
					]
				},
				"lower_trail8": {
					"lower_trail2": [
						{
							"vertices": [ -97.35602, 0, -97.35602, 0, -97.35602, 0, -97.35602 ]
						},
						{
							"time": 6.0333,
							"vertices": [ 23.47797, 0, 23.47797, 0, 23.47797, 0, 23.47797 ]
						}
					]
				},
				"shooting stars": {
					"shooting stars": [
						{
							"vertices": [ 47.23163, 59.12982, 47.30463, 55.26099, 43.67737, 55.19232, 43.60437, 59.06104 ]
						},
						{
							"time": 0.9,
							"vertices": [ -230.39795, -210.51416, -229.48975, -224.12201, -242.24677, -224.97339, -243.1546, -211.36569 ]
						},
						{
							"time": 1.3333,
							"vertices": [ -367.12598, -354.83813, -366.21774, -368.44598, -378.9748, -369.29736, -379.88263, -355.68964 ]
						}
					]
				},
				"shooting stars2": {
					"shooting stars": [
						{
							"vertices": [ -1821.5945, 187.76501, -1711.6233, 85.64514, -1807.3599, -17.45312, -1917.3315, 84.6665 ],
							"curve": "stepped"
						},
						{
							"time": 2.0333,
							"vertices": [ -1821.5945, 187.76501, -1711.6233, 85.64514, -1807.3599, -17.45312, -1917.3315, 84.6665 ]
						},
						{
							"time": 3.2333,
							"vertices": [ -1452.4052, -208.90376, -1346.561, -311.24588, -1442.5061, -410.47513, -1548.3508, -308.13303 ]
						}
					]
				},
				"shooting stars5": {
					"shooting stars": [
						{
							"vertices": [ -1147.2642, 84.02838, -1146.7854, 74.14496, -1156.051, 73.69696, -1156.529, 83.57977 ],
							"curve": "stepped"
						},
						{
							"time": 4.4667,
							"vertices": [ -1147.2642, 84.02838, -1146.7854, 74.14496, -1156.051, 73.69696, -1156.529, 83.57977 ]
						},
						{
							"time": 5.4,
							"vertices": [ -1469.7098, -189.08148, -1469.2311, -198.96494, -1478.4967, -199.4129, -1478.9747, -189.53015 ]
						}
					]
				},
				"star": {
					"star": [
						{
							"vertices": [ -72.63782, 65.15875, 70.76575, 64.00589, 72.63782, -65.15897, -70.76569, -64.00607 ],
							"curve": 0.25,
							"c3": 0.75
						},
						{
							"time": 1.5333,
							"vertices": [ -103.28192, 127.76019, 134.33124, 94.57803, 103.28186, -127.76013, -134.33112, -94.57779 ],
							"curve": "stepped"
						},
						{
							"time": 3.1333,
							"vertices": [ -103.28192, 127.76019, 134.33124, 94.57803, 103.28186, -127.76013, -134.33112, -94.57779 ],
							"curve": 0.25,
							"c3": 0.75
						},
						{
							"time": 4.4667,
							"vertices": [ -125.68707, 75.73114, 88.10706, 109.10428, 125.68713, -75.7312, -88.10706, -109.10437 ]
						}
					]
				},
				"star2": {
					"star": [
						{
							"vertices": [ -111.42383, 102.04453, 108.99023, 99.01605, 111.42169, -102.04419, -108.99243, -99.01596 ],
							"curve": "stepped"
						},
						{
							"time": 0.7333,
							"vertices": [ -111.42383, 102.04453, 108.99023, 99.01605, 111.42169, -102.04419, -108.99243, -99.01596 ],
							"curve": 0.25,
							"c3": 0.75
						},
						{
							"time": 1.7,
							"vertices": [ -88.89569, 77.33829, 84.82806, 74.80054, 88.89984, -77.33801, -84.82385, -74.8002 ],
							"curve": 0.25,
							"c3": 0.75
						},
						{
							"time": 4.1667,
							"vertices": [ -71.35339, 60.50143, 64.3017, 69.33331, 71.35522, -60.50064, -64.29993, -69.33255 ],
							"curve": 0.25,
							"c3": 0.75
						},
						{
							"time": 5.5,
							"vertices": [ -111.42383, 102.04453, 108.99023, 99.01605, 111.42169, -102.04419, -108.99243, -99.01596 ]
						}
					]
				},
				"star03": {
					"star": [
						{
							"vertices": [ -72.63782, 65.15877, 70.76575, 64.00587, 72.63782, -65.15897, -70.76569, -64.00607 ],
							"curve": "stepped"
						},
						{
							"time": 1.5667,
							"vertices": [ -72.63782, 65.15877, 70.76575, 64.00587, 72.63782, -65.15897, -70.76569, -64.00607 ],
							"curve": 0.25,
							"c3": 0.75
						},
						{
							"time": 3.3667,
							"vertices": [ -96.97345, 91.13606, 97.38708, 91.17976, 96.97137, -91.13565, -97.3891, -91.17953 ],
							"curve": "stepped"
						},
						{
							"time": 4.5667,
							"vertices": [ -96.97345, 91.13606, 97.38708, 91.17976, 96.97137, -91.13565, -97.3891, -91.17953 ],
							"curve": 0.25,
							"c3": 0.75
						},
						{
							"time": 6.0333,
							"vertices": [ -71.35339, 60.50145, 64.3017, 69.33333, 71.35522, -60.50064, -64.29987, -69.33255 ]
						}
					]
				},
				"star3": {
					"star": [
						{
							"vertices": [ -72.63782, 65.15875, 70.76575, 64.00589, 72.63782, -65.15897, -70.76575, -64.00607 ],
							"curve": "stepped"
						},
						{
							"time": 2.3,
							"vertices": [ -72.63782, 65.15875, 70.76575, 64.00589, 72.63782, -65.15897, -70.76575, -64.00607 ],
							"curve": 0.25,
							"c3": 0.75
						},
						{
							"time": 3.3667,
							"vertices": [ -96.97339, 91.13605, 97.38708, 91.17975, 96.97137, -91.13567, -97.38916, -91.17952 ],
							"curve": "stepped"
						},
						{
							"time": 4.8667,
							"vertices": [ -96.97339, 91.13605, 97.38708, 91.17975, 96.97137, -91.13567, -97.38916, -91.17952 ],
							"curve": 0.25,
							"c3": 0.75
						},
						{
							"time": 6.0333,
							"vertices": [ -71.35339, 60.50143, 64.3017, 69.33331, 71.35522, -60.50065, -64.29993, -69.33255 ]
						}
					]
				},
				"star4": {
					"star": [
						{
							"vertices": [ -119.95599, 118.0014, 118.81927, 119.08223, 119.95654, -118.00116, -118.81909, -119.082 ],
							"curve": "stepped"
						},
						{
							"time": 0.6,
							"vertices": [ -119.95599, 118.0014, 118.81927, 119.08223, 119.95654, -118.00116, -118.81909, -119.082 ],
							"curve": 0.358,
							"c2": 0.42,
							"c3": 0.756
						},
						{
							"time": 1.6333,
							"vertices": [ -72.63782, 65.15875, 70.76575, 64.00589, 72.63782, -65.15897, -70.76575, -64.00607 ],
							"curve": 0.25,
							"c3": 0.75
						},
						{
							"time": 4.4333,
							"vertices": [ -71.35339, 60.50143, 64.3017, 69.33331, 71.35522, -60.50064, -64.29993, -69.33255 ],
							"curve": 0.25,
							"c3": 0.75
						},
						{
							"time": 6.0333,
							"vertices": [ -119.95599, 118.0014, 118.81927, 119.08223, 119.95654, -118.00116, -118.81909, -119.082 ]
						}
					]
				},
				"star5": {
					"star": [
						{
							"vertices": [ -108.08685, 107.34936, 107.1767, 101.51606, 108.08502, -107.349, -107.17853, -101.51582 ],
							"curve": "stepped"
						},
						{
							"time": 1.1333,
							"vertices": [ -108.08685, 107.34936, 107.1767, 101.51606, 108.08502, -107.349, -107.17853, -101.51582 ],
							"curve": 0.25,
							"c3": 0.75
						},
						{
							"time": 2.3,
							"vertices": [ -72.63782, 65.15874, 70.76575, 64.00588, 72.63782, -65.15897, -70.76569, -64.00607 ],
							"curve": 0.25,
							"c3": 0.75
						},
						{
							"time": 3.2333,
							"vertices": [ -71.35339, 60.50144, 64.3017, 69.33331, 71.35522, -60.50065, -64.29987, -69.33255 ],
							"curve": 0.25,
							"c3": 0.75
						},
						{
							"time": 5.2667,
							"vertices": [ -108.08685, 107.34936, 107.1767, 101.51606, 108.08502, -107.349, -107.17853, -101.51582 ]
						}
					]
				},
				"star6": {
					"star": [
						{
							"vertices": [ -96.71442, 89.92731, 95.88904, 86.17133, 96.71259, -89.92677, -95.89069, -86.17099 ],
							"curve": 0.25,
							"c3": 0.75
						},
						{
							"time": 1.8333,
							"vertices": [ -84.86688, 74.49728, 81.3457, 72.2825, 84.87262, -74.49806, -81.34003, -72.28325 ],
							"curve": "stepped"
						},
						{
							"time": 4,
							"vertices": [ -84.86688, 74.49728, 81.3457, 72.2825, 84.87262, -74.49806, -81.34003, -72.28325 ],
							"curve": 0.25,
							"c3": 0.75
						},
						{
							"time": 6.0333,
							"vertices": [ -96.71442, 89.92731, 95.88904, 86.17133, 96.71259, -89.92677, -95.89069, -86.17099 ]
						}
					]
				},
				"star7": {
					"star": [
						{
							"vertices": [ -72.63782, 65.15875, 70.76575, 64.00589, 72.63782, -65.15897, -70.76569, -64.00607 ],
							"curve": "stepped"
						},
						{
							"time": 1.5667,
							"vertices": [ -72.63782, 65.15875, 70.76575, 64.00589, 72.63782, -65.15897, -70.76569, -64.00607 ],
							"curve": 0.25,
							"c3": 0.75
						},
						{
							"time": 3.3667,
							"vertices": [ -104.03717, 96.7872, 103.4519, 96.70996, 104.03723, -96.78629, -103.4516, -96.70935 ],
							"curve": "stepped"
						},
						{
							"time": 4.1333,
							"vertices": [ -104.03717, 96.7872, 103.4519, 96.70996, 104.03723, -96.78629, -103.4516, -96.70935 ],
							"curve": 0.25,
							"c3": 0.75
						},
						{
							"time": 6.0333,
							"vertices": [ -71.35339, 60.50143, 64.3017, 69.33331, 71.35522, -60.50064, -64.29987, -69.33255 ]
						}
					]
				},
				"star8": {
					"star": [
						{
							"vertices": [ -72.63783, 65.15875, 70.76572, 64.00589, 72.63785, -65.15897, -70.76572, -64.00607 ],
							"curve": "stepped"
						},
						{
							"time": 0.3667,
							"vertices": [ -72.63783, 65.15875, 70.76572, 64.00589, 72.63785, -65.15897, -70.76572, -64.00607 ],
							"curve": 0.25,
							"c3": 0.75
						},
						{
							"time": 2.0333,
							"vertices": [ -113.43341, 106.23544, 115.05545, 105.47464, 113.43338, -106.23599, -115.05548, -105.47556 ],
							"curve": "stepped"
						},
						{
							"time": 4.5,
							"vertices": [ -113.43341, 106.23544, 115.05545, 105.47464, 113.43338, -106.23599, -115.05548, -105.47556 ],
							"curve": 0.25,
							"c3": 0.75
						},
						{
							"time": 6.0333,
							"vertices": [ -71.35342, 60.50143, 64.3017, 69.33331, 71.35522, -60.50064, -64.2999, -69.33255 ]
						}
					]
				},
				"star9": {
					"star": [
						{
							"vertices": [ -138.60861, 131.09055, 141.47849, 118.05353, 138.6073, -131.09012, -141.47955, -118.0531 ],
							"curve": "stepped"
						},
						{
							"time": 0.8667,
							"vertices": [ -138.60861, 131.09055, 141.47849, 118.05353, 138.6073, -131.09012, -141.47955, -118.0531 ],
							"curve": 0.25,
							"c3": 0.75
						},
						{
							"time": 2.7333,
							"vertices": [ -72.63782, 65.15875, 70.76572, 64.00589, 72.63785, -65.15897, -70.76572, -64.00607 ],
							"curve": 0.25,
							"c3": 0.75
						},
						{
							"time": 5.3333,
							"vertices": [ -138.60861, 131.09055, 141.47849, 118.05353, 138.6073, -131.09012, -141.47955, -118.0531 ]
						}
					]
				},
				"star10": {
					"star": [
						{
							"vertices": [ -72.63782, 65.15875, 70.76575, 64.00589, 72.63782, -65.15897, -70.76575, -64.00607 ],
							"curve": 0.25,
							"c3": 0.75
						},
						{
							"time": 1.9667,
							"vertices": [ -139.823, 128.38141, 137.3758, 130.99774, 139.82312, -128.38153, -137.37573, -130.99744 ],
							"curve": "stepped"
						},
						{
							"time": 4.1333,
							"vertices": [ -139.823, 128.38141, 137.3758, 130.99774, 139.82312, -128.38153, -137.37573, -130.99744 ],
							"curve": 0.25,
							"c3": 0.75
						},
						{
							"time": 6.0333,
							"vertices": [ -125.68713, 75.73114, 88.10706, 109.10428, 125.68713, -75.7312, -88.10706, -109.10437 ]
						}
					]
				},
				"star11": {
					"star": [
						{
							"vertices": [ -72.63782, 65.15875, 70.76575, 64.00589, 72.63785, -65.15897, -70.76572, -64.00607 ],
							"curve": 0.25,
							"c3": 0.75
						},
						{
							"time": 2.3,
							"vertices": [ -103.28195, 127.76022, 134.33124, 94.57803, 103.28186, -127.76013, -134.33109, -94.57779 ],
							"curve": "stepped"
						},
						{
							"time": 3.6,
							"vertices": [ -103.28195, 127.76022, 134.33124, 94.57803, 103.28186, -127.76013, -134.33109, -94.57779 ],
							"curve": 0.25,
							"c3": 0.75
						},
						{
							"time": 5.5333,
							"vertices": [ -125.6871, 75.73114, 88.10706, 109.10428, 125.68716, -75.7312, -88.10703, -109.10437 ]
						}
					]
				},
				"star12": {
					"star": [
						{
							"vertices": [ -72.63782, 65.15875, 70.76575, 64.00589, 72.63782, -65.15897, -70.76569, -64.00607 ],
							"curve": 0.25,
							"c3": 0.75
						},
						{
							"time": 1.5333,
							"vertices": [ -123.05469, 111.8989, 119.81677, 115.35953, 123.05469, -111.89882, -119.81659, -115.35924 ],
							"curve": "stepped"
						},
						{
							"time": 3.7,
							"vertices": [ -123.05469, 111.8989, 119.81677, 115.35953, 123.05469, -111.89882, -119.81659, -115.35924 ],
							"curve": 0.25,
							"c3": 0.75
						},
						{
							"time": 5.5333,
							"vertices": [ -125.68713, 75.73114, 88.10706, 109.10428, 125.68713, -75.7312, -88.10706, -109.10437 ]
						}
					]
				},
				"star13": {
					"star": [
						{
							"vertices": [ -81.36078, 94.61383, 82.17078, 90.84117, 81.35913, -59.45309, -82.1723, -55.68042 ],
							"curve": "stepped"
						},
						{
							"time": 0.8667,
							"vertices": [ -81.36078, 94.61383, 82.17078, 90.84117, 81.35913, -59.45309, -82.1723, -55.68042 ],
							"curve": 0.246,
							"c3": 0.718,
							"c4": 0.86
						},
						{
							"time": 2.4667,
							"vertices": [ -59.07507, 74.07013, 59.08209, 73.96887, 59.07233, -37.1514, -59.08496, -37.05017 ],
							"curve": 0.355,
							"c2": 0.65,
							"c3": 0.69
						},
						{
							"time": 3.3333,
							"vertices": [ -81.36078, 94.61383, 82.17078, 90.84117, 81.35913, -59.45309, -82.1723, -55.68042 ],
							"curve": 0.25,
							"c3": 0.75
						},
						{
							"time": 4.3667,
							"vertices": [ -59.07507, 74.07013, 59.08209, 73.96887, 59.07233, -37.1514, -59.08496, -37.05017 ],
							"curve": 0.355,
							"c2": 0.65,
							"c3": 0.69
						},
						{
							"time": 5.3333,
							"vertices": [ -81.36078, 94.61383, 82.17078, 90.84117, 81.35913, -59.45309, -82.1723, -55.68042 ]
						}
					]
				},
				"star14": {
					"star": [
						{
							"vertices": [ -81.36078, 94.61383, 82.17084, 90.84116, 81.35913, -59.45308, -82.1723, -55.68044 ],
							"curve": "stepped"
						},
						{
							"time": 0.8667,
							"vertices": [ -81.36078, 94.61383, 82.17084, 90.84116, 81.35913, -59.45308, -82.1723, -55.68044 ],
							"curve": 0.246,
							"c3": 0.718,
							"c4": 0.86
						},
						{
							"time": 2.4667,
							"vertices": [ -59.07507, 74.07013, 59.08209, 73.96887, 59.07233, -37.15141, -59.08496, -37.05017 ],
							"curve": 0.355,
							"c2": 0.65,
							"c3": 0.69
						},
						{
							"time": 3.3333,
							"vertices": [ -81.36078, 94.61383, 82.17084, 90.84116, 81.35913, -59.45308, -82.1723, -55.68044 ],
							"curve": 0.25,
							"c3": 0.75
						},
						{
							"time": 4.3667,
							"vertices": [ -59.07507, 74.07013, 59.08209, 73.96887, 59.07233, -37.15141, -59.08496, -37.05017 ],
							"curve": 0.355,
							"c2": 0.65,
							"c3": 0.69
						},
						{
							"time": 5.3333,
							"vertices": [ -81.36078, 94.61383, 82.17084, 90.84116, 81.35913, -59.45308, -82.1723, -55.68044 ]
						}
					]
				},
				"star15": {
					"star": [
						{
							"vertices": [ -81.36078, 94.61383, 82.17078, 90.84116, 81.35913, -59.45309, -82.1723, -55.68042 ],
							"curve": "stepped"
						},
						{
							"time": 0.8667,
							"vertices": [ -81.36078, 94.61383, 82.17078, 90.84116, 81.35913, -59.45309, -82.1723, -55.68042 ],
							"curve": 0.246,
							"c3": 0.718,
							"c4": 0.86
						},
						{
							"time": 2.4667,
							"vertices": [ -59.07507, 74.07013, 59.08209, 73.96887, 59.07233, -37.1514, -59.08496, -37.05017 ],
							"curve": 0.355,
							"c2": 0.65,
							"c3": 0.69
						},
						{
							"time": 3.3333,
							"vertices": [ -81.36078, 94.61383, 82.17078, 90.84116, 81.35913, -59.45309, -82.1723, -55.68042 ],
							"curve": 0.25,
							"c3": 0.75
						},
						{
							"time": 4.3667,
							"vertices": [ -59.07507, 74.07013, 59.08209, 73.96887, 59.07233, -37.1514, -59.08496, -37.05017 ],
							"curve": 0.355,
							"c2": 0.65,
							"c3": 0.69
						},
						{
							"time": 5.3333,
							"vertices": [ -81.36078, 94.61383, 82.17078, 90.84116, 81.35913, -59.45309, -82.1723, -55.68042 ]
						}
					]
				},
				"star16": {
					"star": [
						{
							"vertices": [ -81.36072, 94.61383, 82.17078, 90.84116, 81.35913, -59.45309, -82.1723, -55.68042 ],
							"curve": "stepped"
						},
						{
							"time": 0.8667,
							"vertices": [ -81.36072, 94.61383, 82.17078, 90.84116, 81.35913, -59.45309, -82.1723, -55.68042 ],
							"curve": 0.246,
							"c3": 0.718,
							"c4": 0.86
						},
						{
							"time": 2.4667,
							"vertices": [ -59.07507, 74.07013, 59.08209, 73.96887, 59.07233, -37.1514, -59.08496, -37.05017 ],
							"curve": 0.355,
							"c2": 0.65,
							"c3": 0.69
						},
						{
							"time": 3.3333,
							"vertices": [ -81.36072, 94.61383, 82.17078, 90.84116, 81.35913, -59.45309, -82.1723, -55.68042 ],
							"curve": 0.25,
							"c3": 0.75
						},
						{
							"time": 4.3667,
							"vertices": [ -59.07507, 74.07013, 59.08209, 73.96887, 59.07233, -37.1514, -59.08496, -37.05017 ],
							"curve": 0.355,
							"c2": 0.65,
							"c3": 0.69
						},
						{
							"time": 5.3333,
							"vertices": [ -81.36072, 94.61383, 82.17078, 90.84116, 81.35913, -59.45309, -82.1723, -55.68042 ]
						}
					]
				},
				"star17": {
					"star": [
						{
							"vertices": [ -81.36076, 94.61383, 82.17081, 90.84119, 81.35913, -59.45309, -82.17229, -55.68042 ],
							"curve": "stepped"
						},
						{
							"time": 0.8667,
							"vertices": [ -81.36076, 94.61383, 82.17081, 90.84119, 81.35913, -59.45309, -82.17229, -55.68042 ],
							"curve": 0.246,
							"c3": 0.718,
							"c4": 0.86
						},
						{
							"time": 2.4667,
							"vertices": [ -59.07509, 74.07013, 59.08212, 73.96887, 59.07233, -37.1514, -59.08495, -37.05017 ],
							"curve": 0.355,
							"c2": 0.65,
							"c3": 0.69
						},
						{
							"time": 3.3333,
							"vertices": [ -81.36076, 94.61383, 82.17081, 90.84119, 81.35913, -59.45309, -82.17229, -55.68042 ],
							"curve": 0.25,
							"c3": 0.75
						},
						{
							"time": 4.3667,
							"vertices": [ -59.07509, 74.07013, 59.08212, 73.96887, 59.07233, -37.1514, -59.08495, -37.05017 ],
							"curve": 0.355,
							"c2": 0.65,
							"c3": 0.69
						},
						{
							"time": 5.3333,
							"vertices": [ -81.36076, 94.61383, 82.17081, 90.84119, 81.35913, -59.45309, -82.17229, -55.68042 ]
						}
					]
				},
				"star18": {
					"star": [
						{
							"vertices": [ -81.36078, 94.61383, 82.17081, 90.84116, 81.3591, -59.45309, -82.1723, -55.68042 ],
							"curve": "stepped"
						},
						{
							"time": 0.8667,
							"vertices": [ -81.36078, 94.61383, 82.17081, 90.84116, 81.3591, -59.45309, -82.1723, -55.68042 ],
							"curve": 0.246,
							"c3": 0.718,
							"c4": 0.86
						},
						{
							"time": 2.4667,
							"vertices": [ -59.07507, 74.07013, 59.08212, 73.96887, 59.07236, -37.1514, -59.08496, -37.05017 ],
							"curve": 0.355,
							"c2": 0.65,
							"c3": 0.69
						},
						{
							"time": 3.3333,
							"vertices": [ -81.36078, 94.61383, 82.17081, 90.84116, 81.3591, -59.45309, -82.1723, -55.68042 ],
							"curve": 0.25,
							"c3": 0.75
						},
						{
							"time": 4.3667,
							"vertices": [ -59.07507, 74.07013, 59.08212, 73.96887, 59.07236, -37.1514, -59.08496, -37.05017 ],
							"curve": 0.355,
							"c2": 0.65,
							"c3": 0.69
						},
						{
							"time": 5.3333,
							"vertices": [ -81.36078, 94.61383, 82.17081, 90.84116, 81.3591, -59.45309, -82.1723, -55.68042 ]
						}
					]
				},
				"star19": {
					"star": [
						{
							"vertices": [ -81.36072, 94.61383, 82.17084, 90.84116, 81.35913, -59.45309, -82.1723, -55.68042 ],
							"curve": "stepped"
						},
						{
							"time": 0.8667,
							"vertices": [ -81.36072, 94.61383, 82.17084, 90.84116, 81.35913, -59.45309, -82.1723, -55.68042 ],
							"curve": 0.246,
							"c3": 0.718,
							"c4": 0.86
						},
						{
							"time": 2.4667,
							"vertices": [ -59.07507, 74.07013, 59.08209, 73.96887, 59.07233, -37.1514, -59.08496, -37.05017 ],
							"curve": 0.355,
							"c2": 0.65,
							"c3": 0.69
						},
						{
							"time": 3.3333,
							"vertices": [ -81.36072, 94.61383, 82.17084, 90.84116, 81.35913, -59.45309, -82.1723, -55.68042 ],
							"curve": 0.25,
							"c3": 0.75
						},
						{
							"time": 4.3667,
							"vertices": [ -59.07507, 74.07013, 59.08209, 73.96887, 59.07233, -37.1514, -59.08496, -37.05017 ],
							"curve": 0.355,
							"c2": 0.65,
							"c3": 0.69
						},
						{
							"time": 5.3333,
							"vertices": [ -81.36072, 94.61383, 82.17084, 90.84116, 81.35913, -59.45309, -82.1723, -55.68042 ]
						}
					]
				},
				"star20": {
					"star": [
						{
							"vertices": [ -81.36078, 94.61383, 82.17078, 90.84116, 81.35913, -59.45309, -82.1723, -55.68042 ],
							"curve": "stepped"
						},
						{
							"time": 0.8667,
							"vertices": [ -81.36078, 94.61383, 82.17078, 90.84116, 81.35913, -59.45309, -82.1723, -55.68042 ],
							"curve": 0.246,
							"c3": 0.718,
							"c4": 0.86
						},
						{
							"time": 2.4667,
							"vertices": [ -59.07507, 74.07013, 59.08209, 73.96887, 59.07233, -37.1514, -59.08496, -37.05017 ],
							"curve": 0.355,
							"c2": 0.65,
							"c3": 0.69
						},
						{
							"time": 3.3333,
							"vertices": [ -81.36078, 94.61383, 82.17078, 90.84116, 81.35913, -59.45309, -82.1723, -55.68042 ],
							"curve": 0.25,
							"c3": 0.75
						},
						{
							"time": 4.3667,
							"vertices": [ -59.07507, 74.07013, 59.08209, 73.96887, 59.07233, -37.1514, -59.08496, -37.05017 ],
							"curve": 0.355,
							"c2": 0.65,
							"c3": 0.69
						},
						{
							"time": 5.3333,
							"vertices": [ -81.36078, 94.61383, 82.17078, 90.84116, 81.35913, -59.45309, -82.1723, -55.68042 ]
						}
					]
				},
				"star21": {
					"star": [
						{
							"vertices": [ -81.36078, 94.61383, 82.17084, 90.84117, 81.35913, -59.45309, -82.1723, -55.68042 ],
							"curve": "stepped"
						},
						{
							"time": 0.8667,
							"vertices": [ -81.36078, 94.61383, 82.17084, 90.84117, 81.35913, -59.45309, -82.1723, -55.68042 ],
							"curve": 0.246,
							"c3": 0.718,
							"c4": 0.86
						},
						{
							"time": 2.4667,
							"vertices": [ -59.07507, 74.07013, 59.08209, 73.96887, 59.07233, -37.1514, -59.08496, -37.05017 ],
							"curve": 0.355,
							"c2": 0.65,
							"c3": 0.69
						},
						{
							"time": 3.3333,
							"vertices": [ -81.36078, 94.61383, 82.17084, 90.84117, 81.35913, -59.45309, -82.1723, -55.68042 ],
							"curve": 0.25,
							"c3": 0.75
						},
						{
							"time": 4.3667,
							"vertices": [ -59.07507, 74.07013, 59.08209, 73.96887, 59.07233, -37.1514, -59.08496, -37.05017 ],
							"curve": 0.355,
							"c2": 0.65,
							"c3": 0.69
						},
						{
							"time": 5.3333,
							"vertices": [ -81.36078, 94.61383, 82.17084, 90.84117, 81.35913, -59.45309, -82.1723, -55.68042 ]
						}
					]
				},
				"star22": {
					"star": [
						{
							"vertices": [ -81.36072, 94.61383, 82.17084, 90.84117, 81.35913, -59.45309, -82.1723, -55.68042 ],
							"curve": "stepped"
						},
						{
							"time": 0.8667,
							"vertices": [ -81.36072, 94.61383, 82.17084, 90.84117, 81.35913, -59.45309, -82.1723, -55.68042 ],
							"curve": 0.246,
							"c3": 0.718,
							"c4": 0.86
						},
						{
							"time": 2.4667,
							"vertices": [ -59.07507, 74.07013, 59.08209, 73.96887, 59.07233, -37.1514, -59.08496, -37.05017 ],
							"curve": 0.355,
							"c2": 0.65,
							"c3": 0.69
						},
						{
							"time": 3.3333,
							"vertices": [ -81.36072, 94.61383, 82.17084, 90.84117, 81.35913, -59.45309, -82.1723, -55.68042 ],
							"curve": 0.25,
							"c3": 0.75
						},
						{
							"time": 4.3667,
							"vertices": [ -59.07507, 74.07013, 59.08209, 73.96887, 59.07233, -37.1514, -59.08496, -37.05017 ],
							"curve": 0.355,
							"c2": 0.65,
							"c3": 0.69
						},
						{
							"time": 5.3333,
							"vertices": [ -81.36072, 94.61383, 82.17084, 90.84117, 81.35913, -59.45309, -82.1723, -55.68042 ]
						}
					]
				},
				"star23": {
					"star": [
						{
							"vertices": [ -81.36072, 94.61383, 82.17084, 90.84116, 81.35913, -59.45309, -82.1723, -55.68042 ],
							"curve": "stepped"
						},
						{
							"time": 0.8667,
							"vertices": [ -81.36072, 94.61383, 82.17084, 90.84116, 81.35913, -59.45309, -82.1723, -55.68042 ],
							"curve": 0.246,
							"c3": 0.718,
							"c4": 0.86
						},
						{
							"time": 2.4667,
							"vertices": [ -59.07507, 74.07013, 59.08209, 73.96887, 59.07233, -37.1514, -59.08496, -37.05017 ],
							"curve": 0.355,
							"c2": 0.65,
							"c3": 0.69
						},
						{
							"time": 3.3333,
							"vertices": [ -81.36072, 94.61383, 82.17084, 90.84116, 81.35913, -59.45309, -82.1723, -55.68042 ],
							"curve": 0.25,
							"c3": 0.75
						},
						{
							"time": 4.3667,
							"vertices": [ -59.07507, 74.07013, 59.08209, 73.96887, 59.07233, -37.1514, -59.08496, -37.05017 ],
							"curve": 0.355,
							"c2": 0.65,
							"c3": 0.69
						},
						{
							"time": 5.3333,
							"vertices": [ -81.36072, 94.61383, 82.17084, 90.84116, 81.35913, -59.45309, -82.1723, -55.68042 ]
						}
					]
				},
				"star25": {
					"star": [
						{
							"vertices": [ -72.63785, 65.15875, 70.76575, 64.00589, 72.63782, -65.15897, -70.76572, -64.00607 ],
							"curve": "stepped"
						},
						{
							"time": 0.4667,
							"vertices": [ -72.63785, 65.15875, 70.76575, 64.00589, 72.63782, -65.15897, -70.76572, -64.00607 ],
							"curve": 0.25,
							"c3": 0.75
						},
						{
							"time": 1.7,
							"vertices": [ -77.69223, 72.64896, 77.89581, 72.67029, 77.69006, -72.6481, -77.89798, -72.66953 ],
							"curve": "stepped"
						},
						{
							"time": 2.1,
							"vertices": [ -77.69223, 72.64896, 77.89581, 72.67029, 77.69006, -72.6481, -77.89798, -72.66953 ],
							"curve": 0.25,
							"c3": 0.75
						},
						{
							"time": 3.3,
							"vertices": [ -72.63785, 65.15875, 70.76575, 64.00589, 72.63782, -65.15897, -70.76572, -64.00607 ],
							"curve": 0.25,
							"c3": 0.75
						},
						{
							"time": 4.3333,
							"vertices": [ -77.69223, 72.64896, 77.89581, 72.67029, 77.69006, -72.6481, -77.89798, -72.66953 ],
							"curve": "stepped"
						},
						{
							"time": 5.1667,
							"vertices": [ -77.69223, 72.64896, 77.89581, 72.67029, 77.69006, -72.6481, -77.89798, -72.66953 ],
							"curve": 0.25,
							"c3": 0.75
						},
						{
							"time": 6.0333,
							"vertices": [ -71.35342, 60.50143, 64.3017, 69.33331, 71.35522, -60.50064, -64.2999, -69.33255 ]
						}
					]
				},
				"star26": {
					"star": [
						{
							"vertices": [ -72.63782, 65.15874, 70.76575, 64.00588, 72.63782, -65.15897, -70.76569, -64.00607 ],
							"curve": "stepped"
						},
						{
							"time": 0.4667,
							"vertices": [ -72.63782, 65.15874, 70.76575, 64.00588, 72.63782, -65.15897, -70.76569, -64.00607 ],
							"curve": 0.25,
							"c3": 0.75
						},
						{
							"time": 1.7,
							"vertices": [ -77.6922, 72.64895, 77.89581, 72.67028, 77.69006, -72.64811, -77.89801, -72.66953 ],
							"curve": "stepped"
						},
						{
							"time": 2.1,
							"vertices": [ -77.6922, 72.64895, 77.89581, 72.67028, 77.69006, -72.64811, -77.89801, -72.66953 ],
							"curve": 0.25,
							"c3": 0.75
						},
						{
							"time": 3.3,
							"vertices": [ -72.63782, 65.15874, 70.76575, 64.00588, 72.63782, -65.15897, -70.76569, -64.00607 ],
							"curve": 0.25,
							"c3": 0.75
						},
						{
							"time": 4.3333,
							"vertices": [ -77.6922, 72.64895, 77.89581, 72.67028, 77.69006, -72.64811, -77.89801, -72.66953 ],
							"curve": "stepped"
						},
						{
							"time": 5.1667,
							"vertices": [ -77.6922, 72.64895, 77.89581, 72.67028, 77.69006, -72.64811, -77.89801, -72.66953 ],
							"curve": 0.25,
							"c3": 0.75
						},
						{
							"time": 6.0333,
							"vertices": [ -71.35339, 60.50144, 64.3017, 69.33331, 71.35522, -60.50065, -64.29987, -69.33255 ]
						}
					]
				},
				"star27": {
					"star": [
						{
							"vertices": [ -72.63782, 65.15875, 70.76575, 64.00589, 72.63782, -65.15897, -70.76575, -64.00607 ],
							"curve": "stepped"
						},
						{
							"time": 0.4667,
							"vertices": [ -72.63782, 65.15875, 70.76575, 64.00589, 72.63782, -65.15897, -70.76575, -64.00607 ],
							"curve": 0.25,
							"c3": 0.75
						},
						{
							"time": 1.7,
							"vertices": [ -77.69226, 72.64896, 77.89581, 72.67029, 77.69006, -72.64811, -77.89795, -72.66953 ],
							"curve": "stepped"
						},
						{
							"time": 2.1,
							"vertices": [ -77.69226, 72.64896, 77.89581, 72.67029, 77.69006, -72.64811, -77.89795, -72.66953 ],
							"curve": 0.25,
							"c3": 0.75
						},
						{
							"time": 3.3,
							"vertices": [ -72.63782, 65.15875, 70.76575, 64.00589, 72.63782, -65.15897, -70.76575, -64.00607 ],
							"curve": 0.25,
							"c3": 0.75
						},
						{
							"time": 4.3333,
							"vertices": [ -77.69226, 72.64896, 77.89581, 72.67029, 77.69006, -72.64811, -77.89795, -72.66953 ],
							"curve": "stepped"
						},
						{
							"time": 5.1667,
							"vertices": [ -77.69226, 72.64896, 77.89581, 72.67029, 77.69006, -72.64811, -77.89795, -72.66953 ],
							"curve": 0.25,
							"c3": 0.75
						},
						{
							"time": 6.0333,
							"vertices": [ -71.35339, 60.50143, 64.3017, 69.33331, 71.35522, -60.50065, -64.29993, -69.33254 ]
						}
					]
				},
				"star28": {
					"star": [
						{
							"vertices": [ -72.63782, 65.15875, 70.76575, 64.00589, 72.63782, -65.15897, -70.76575, -64.00607 ],
							"curve": "stepped"
						},
						{
							"time": 0.4667,
							"vertices": [ -72.63782, 65.15875, 70.76575, 64.00589, 72.63782, -65.15897, -70.76575, -64.00607 ],
							"curve": 0.25,
							"c3": 0.75
						},
						{
							"time": 1.7,
							"vertices": [ -77.69226, 72.64896, 77.89581, 72.67029, 77.69006, -72.6481, -77.89795, -72.66953 ],
							"curve": "stepped"
						},
						{
							"time": 2.1,
							"vertices": [ -77.69226, 72.64896, 77.89581, 72.67029, 77.69006, -72.6481, -77.89795, -72.66953 ],
							"curve": 0.25,
							"c3": 0.75
						},
						{
							"time": 3.3,
							"vertices": [ -72.63782, 65.15875, 70.76575, 64.00589, 72.63782, -65.15897, -70.76575, -64.00607 ],
							"curve": 0.25,
							"c3": 0.75
						},
						{
							"time": 4.3333,
							"vertices": [ -77.69226, 72.64896, 77.89581, 72.67029, 77.69006, -72.6481, -77.89795, -72.66953 ],
							"curve": "stepped"
						},
						{
							"time": 5.1667,
							"vertices": [ -77.69226, 72.64896, 77.89581, 72.67029, 77.69006, -72.6481, -77.89795, -72.66953 ],
							"curve": 0.25,
							"c3": 0.75
						},
						{
							"time": 6.0333,
							"vertices": [ -71.35339, 60.50143, 64.3017, 69.33331, 71.35522, -60.50064, -64.29993, -69.33255 ]
						}
					]
				},
				"star29": {
					"star": [
						{
							"vertices": [ -72.63782, 65.15875, 70.76572, 64.00589, 72.63785, -65.15897, -70.76572, -64.00607 ],
							"curve": "stepped"
						},
						{
							"time": 0.4667,
							"vertices": [ -72.63782, 65.15875, 70.76572, 64.00589, 72.63785, -65.15897, -70.76572, -64.00607 ],
							"curve": 0.25,
							"c3": 0.75
						},
						{
							"time": 1.7,
							"vertices": [ -77.69223, 72.64896, 77.89581, 72.67029, 77.69006, -72.6481, -77.89798, -72.66953 ],
							"curve": "stepped"
						},
						{
							"time": 2.1,
							"vertices": [ -77.69223, 72.64896, 77.89581, 72.67029, 77.69006, -72.6481, -77.89798, -72.66953 ],
							"curve": 0.25,
							"c3": 0.75
						},
						{
							"time": 3.3,
							"vertices": [ -72.63782, 65.15875, 70.76572, 64.00589, 72.63785, -65.15897, -70.76572, -64.00607 ],
							"curve": 0.25,
							"c3": 0.75
						},
						{
							"time": 4.3333,
							"vertices": [ -77.69223, 72.64896, 77.89581, 72.67029, 77.69006, -72.6481, -77.89798, -72.66953 ],
							"curve": "stepped"
						},
						{
							"time": 5.1667,
							"vertices": [ -77.69223, 72.64896, 77.89581, 72.67029, 77.69006, -72.6481, -77.89798, -72.66953 ],
							"curve": 0.25,
							"c3": 0.75
						},
						{
							"time": 6.0333,
							"vertices": [ -71.35342, 60.50143, 64.3017, 69.33331, 71.35522, -60.50064, -64.2999, -69.33255 ]
						}
					]
				},
				"star30": {
					"star": [
						{
							"vertices": [ -72.63782, 65.15875, 70.76575, 64.00589, 72.63782, -65.15897, -70.76569, -64.00607 ],
							"curve": "stepped"
						},
						{
							"time": 0.4667,
							"vertices": [ -72.63782, 65.15875, 70.76575, 64.00589, 72.63782, -65.15897, -70.76569, -64.00607 ],
							"curve": 0.25,
							"c3": 0.75
						},
						{
							"time": 1.7,
							"vertices": [ -77.6922, 72.64896, 77.89581, 72.67029, 77.69006, -72.6481, -77.89801, -72.66953 ],
							"curve": "stepped"
						},
						{
							"time": 2.1,
							"vertices": [ -77.6922, 72.64896, 77.89581, 72.67029, 77.69006, -72.6481, -77.89801, -72.66953 ],
							"curve": 0.25,
							"c3": 0.75
						},
						{
							"time": 3.3,
							"vertices": [ -72.63782, 65.15875, 70.76575, 64.00589, 72.63782, -65.15897, -70.76569, -64.00607 ],
							"curve": 0.25,
							"c3": 0.75
						},
						{
							"time": 4.3333,
							"vertices": [ -77.6922, 72.64896, 77.89581, 72.67029, 77.69006, -72.6481, -77.89801, -72.66953 ],
							"curve": "stepped"
						},
						{
							"time": 5.1667,
							"vertices": [ -77.6922, 72.64896, 77.89581, 72.67029, 77.69006, -72.6481, -77.89801, -72.66953 ],
							"curve": 0.25,
							"c3": 0.75
						},
						{
							"time": 6.0333,
							"vertices": [ -71.35339, 60.50143, 64.3017, 69.33331, 71.35522, -60.50064, -64.29987, -69.33255 ]
						}
					]
				},
				"star31": {
					"star": [
						{
							"vertices": [ -72.63782, 65.15875, 70.76575, 64.00589, 72.63782, -65.15897, -70.76569, -64.00607 ],
							"curve": "stepped"
						},
						{
							"time": 0.4667,
							"vertices": [ -72.63782, 65.15875, 70.76575, 64.00589, 72.63782, -65.15897, -70.76569, -64.00607 ],
							"curve": 0.25,
							"c3": 0.75
						},
						{
							"time": 1.7,
							"vertices": [ -77.6922, 72.64896, 77.89581, 72.67029, 77.69006, -72.6481, -77.89801, -72.66953 ],
							"curve": "stepped"
						},
						{
							"time": 2.1,
							"vertices": [ -77.6922, 72.64896, 77.89581, 72.67029, 77.69006, -72.6481, -77.89801, -72.66953 ],
							"curve": 0.25,
							"c3": 0.75
						},
						{
							"time": 3.3,
							"vertices": [ -72.63782, 65.15875, 70.76575, 64.00589, 72.63782, -65.15897, -70.76569, -64.00607 ],
							"curve": 0.25,
							"c3": 0.75
						},
						{
							"time": 4.3333,
							"vertices": [ -77.6922, 72.64896, 77.89581, 72.67029, 77.69006, -72.6481, -77.89801, -72.66953 ],
							"curve": "stepped"
						},
						{
							"time": 5.1667,
							"vertices": [ -77.6922, 72.64896, 77.89581, 72.67029, 77.69006, -72.6481, -77.89801, -72.66953 ],
							"curve": 0.25,
							"c3": 0.75
						},
						{
							"time": 6.0333,
							"vertices": [ -71.35339, 60.50143, 64.3017, 69.33331, 71.35522, -60.50064, -64.29987, -69.33255 ]
						}
					]
				},
				"star32": {
					"star": [
						{
							"vertices": [ -72.63782, 65.15875, 70.76575, 64.00589, 72.63782, -65.15898, -70.76569, -64.00607 ],
							"curve": "stepped"
						},
						{
							"time": 0.4667,
							"vertices": [ -72.63782, 65.15875, 70.76575, 64.00589, 72.63782, -65.15898, -70.76569, -64.00607 ],
							"curve": 0.25,
							"c3": 0.75
						},
						{
							"time": 1.7,
							"vertices": [ -77.6922, 72.64896, 77.89581, 72.67029, 77.69006, -72.64812, -77.89801, -72.66954 ],
							"curve": "stepped"
						},
						{
							"time": 2.1,
							"vertices": [ -77.6922, 72.64896, 77.89581, 72.67029, 77.69006, -72.64812, -77.89801, -72.66954 ],
							"curve": 0.25,
							"c3": 0.75
						},
						{
							"time": 3.3,
							"vertices": [ -72.63782, 65.15875, 70.76575, 64.00589, 72.63782, -65.15898, -70.76569, -64.00607 ],
							"curve": 0.25,
							"c3": 0.75
						},
						{
							"time": 4.3333,
							"vertices": [ -77.6922, 72.64896, 77.89581, 72.67029, 77.69006, -72.64812, -77.89801, -72.66954 ],
							"curve": "stepped"
						},
						{
							"time": 5.1667,
							"vertices": [ -77.6922, 72.64896, 77.89581, 72.67029, 77.69006, -72.64812, -77.89801, -72.66954 ],
							"curve": 0.25,
							"c3": 0.75
						},
						{
							"time": 6.0333,
							"vertices": [ -71.35339, 60.50143, 64.3017, 69.33331, 71.35522, -60.50066, -64.29987, -69.33255 ]
						}
					]
				},
				"star33": {
					"star": [
						{
							"vertices": [ -72.63782, 65.15875, 70.76575, 64.00589, 72.63782, -65.15897, -70.76575, -64.00607 ],
							"curve": "stepped"
						},
						{
							"time": 0.4667,
							"vertices": [ -72.63782, 65.15875, 70.76575, 64.00589, 72.63782, -65.15897, -70.76575, -64.00607 ],
							"curve": 0.25,
							"c3": 0.75
						},
						{
							"time": 1.7,
							"vertices": [ -77.69226, 72.64896, 77.89581, 72.67029, 77.69006, -72.6481, -77.89795, -72.66953 ],
							"curve": "stepped"
						},
						{
							"time": 2.1,
							"vertices": [ -77.69226, 72.64896, 77.89581, 72.67029, 77.69006, -72.6481, -77.89795, -72.66953 ],
							"curve": 0.25,
							"c3": 0.75
						},
						{
							"time": 3.3,
							"vertices": [ -72.63782, 65.15875, 70.76575, 64.00589, 72.63782, -65.15897, -70.76575, -64.00607 ],
							"curve": 0.25,
							"c3": 0.75
						},
						{
							"time": 4.3333,
							"vertices": [ -77.69226, 72.64896, 77.89581, 72.67029, 77.69006, -72.6481, -77.89795, -72.66953 ],
							"curve": "stepped"
						},
						{
							"time": 5.1667,
							"vertices": [ -77.69226, 72.64896, 77.89581, 72.67029, 77.69006, -72.6481, -77.89795, -72.66953 ],
							"curve": 0.25,
							"c3": 0.75
						},
						{
							"time": 6.0333,
							"vertices": [ -71.35339, 60.50143, 64.3017, 69.33331, 71.35522, -60.50064, -64.29993, -69.33255 ]
						}
					]
				},
				"star34": {
					"star": [
						{
							"vertices": [ -81.36078, 94.61383, 82.17084, 90.84116, 81.35913, -59.45309, -82.1723, -55.68042 ],
							"curve": "stepped"
						},
						{
							"time": 0.8667,
							"vertices": [ -81.36078, 94.61383, 82.17084, 90.84116, 81.35913, -59.45309, -82.1723, -55.68042 ],
							"curve": 0.246,
							"c3": 0.718,
							"c4": 0.86
						},
						{
							"time": 2.4667,
							"vertices": [ -59.07507, 74.07013, 59.08209, 73.96887, 59.07233, -37.1514, -59.08496, -37.05017 ],
							"curve": 0.355,
							"c2": 0.65,
							"c3": 0.69
						},
						{
							"time": 3.3333,
							"vertices": [ -81.36078, 94.61383, 82.17084, 90.84116, 81.35913, -59.45309, -82.1723, -55.68042 ],
							"curve": 0.25,
							"c3": 0.75
						},
						{
							"time": 4.3667,
							"vertices": [ -59.07507, 74.07013, 59.08209, 73.96887, 59.07233, -37.1514, -59.08496, -37.05017 ],
							"curve": 0.355,
							"c2": 0.65,
							"c3": 0.69
						},
						{
							"time": 5.3333,
							"vertices": [ -81.36078, 94.61383, 82.17084, 90.84116, 81.35913, -59.45309, -82.1723, -55.68042 ]
						}
					]
				},
				"upper_trail4": {
					"upper_trail2": [
						{},
						{
							"time": 6.0333,
							"vertices": [ 30.78275, -47.58206, 102.82715, -47.58206, 102.82715, -12.7579, 30.78275, -12.7579 ]
						}
					]
				},
				"upper_trail5": {
					"upper_trail3": [
						{},
						{
							"time": 6.0333,
							"vertices": [ 30.78278, -47.58206, 102.8271, -47.58206, 102.8271, -12.7579, 30.78278, -12.7579 ]
						}
					]
				},
				"upper_trail6": {
					"upper_trail2": [
						{
							"offset": 4,
							"vertices": [ -14.90002, 22.3501 ],
							"curve": "stepped"
						},
						{
							"time": 3.4667,
							"offset": 4,
							"vertices": [ -14.90002, 22.3501 ]
						},
						{ "time": 6.0333 }
					]
				},
				"upper_trail7": {
					"upper_trail3": [
						{
							"offset": 4,
							"vertices": [ -14.90002, 22.3501 ],
							"curve": "stepped"
						},
						{
							"time": 3.4667,
							"offset": 4,
							"vertices": [ -14.90002, 22.3501 ]
						},
						{ "time": 6.0333 }
					]
				},
				"upper_trail8": {
					"upper_trail2": [
						{
							"vertices": [ 223.78708, -80.27371, -90.17712, -80.27371, -90.17712, 19.93378, 223.78708, 19.93378 ]
						},
						{
							"time": 6.0333,
							"vertices": [ 191.42465, -37.29759, -57.81464, -37.29759, -57.81464, -23.04236, 191.42465, -23.04236 ]
						}
					]
				}
			}
		}
	}
}
}