{
  "__type__": "cc.SpriteFrame",
  "content": {
    "name": "S07_blur",
    "atlas": "6a534a57-4370-4166-96dc-bb907568f4f0",
    "rect": {
      "x": 698,
      "y": 650,
      "width": 107,
      "height": 130
    },
    "offset": {
      "x": 0,
      "y": -3
    },
    "originalSize": {
      "width": 241,
      "height": 268
    },
    "rotated": true,
    "capInsets": [
      0,
      0,
      0,
      0
    ],
    "texture": "a238bd0f-a704-4775-9991-24d0342fc1a3@6c48a",
    "packable": true
  }
}