{
  "__type__": "cc.SpriteFrame",
  "content": {
    "name": "S05_blur",
    "atlas": "6a534a57-4370-4166-96dc-bb907568f4f0",
    "rect": {
      "x": 2,
      "y": 1721,
      "width": 163,
      "height": 218
    },
    "offset": {
      "x": 0,
      "y": 25
    },
    "originalSize": {
      "width": 241,
      "height": 268
    },
    "rotated": false,
    "capInsets": [
      0,
      0,
      0,
      0
    ],
    "texture": "a238bd0f-a704-4775-9991-24d0342fc1a3@6c48a",
    "packable": true
  }
}