{
  "__type__": "cc.SpriteFrame",
  "content": {
    "name": "S06",
    "atlas": "6a534a57-4370-4166-96dc-bb907568f4f0",
    "rect": {
      "x": 360,
      "y": 650,
      "width": 336,
      "height": 324
    },
    "offset": {
      "x": -1,
      "y": -7
    },
    "originalSize": {
      "width": 482,
      "height": 536
    },
    "rotated": false,
    "capInsets": [
      0,
      0,
      0,
      0
    ],
    "texture": "a238bd0f-a704-4775-9991-24d0342fc1a3@6c48a",
    "packable": true
  }
}