{
    "depend": [
        "9fe1940d-7445-4919-ba03-00d945253675@69421",
        "9fe1940d-7445-4919-ba03-00d945253675@ad1fd",
        "9fe1940d-7445-4919-ba03-00d945253675@0094d",
        "9fe1940d-7445-4919-ba03-00d945253675@264f2",
        "9fe1940d-7445-4919-ba03-00d945253675@e1304",
        "9fe1940d-7445-4919-ba03-00d945253675@cce91",
        "9fe1940d-7445-4919-ba03-00d945253675@4c863",
        "9fe1940d-7445-4919-ba03-00d945253675@da678",
        "9fe1940d-7445-4919-ba03-00d945253675@fa359",
        "9fe1940d-7445-4919-ba03-00d945253675@7e2a8",
        "9fe1940d-7445-4919-ba03-00d945253675@4142a",
        "9fe1940d-7445-4919-ba03-00d945253675@9ce0d",
        "9fe1940d-7445-4919-ba03-00d945253675@c1f56",
        "9fe1940d-7445-4919-ba03-00d945253675@7c7ec"
    ]
}
