{
  "__type__": "sp.SkeletonData",
  "_name": "gool_summon_effect",
  "_objFlags": 0,
  "_native": "",
  "_skeletonJson": {
    "skeleton": {
      "hash": "YENEwbet4wb+F2iXY+qjFikfyxQ",
      "spine": "3.7.91",
      "width": 546,
      "height": 988
    },
    "bones": [
      {
        "name": "root",
        "scaleX": 2,
        "scaleY": 2
      },
      {
        "name": "sparks1",
        "parent": "root"
      },
      {
        "name": "sparks2",
        "parent": "root"
      }
    ],
    "slots": [
      {
        "name": "wild_symbol_change_effect_00233",
        "bone": "root",
        "attachment": "updated/effect_lightning_15",
        "blend": "additive"
      },
      {
        "name": "sparks1",
        "bone": "sparks1",
        "attachment": "updated/effect_sparks1_07",
        "blend": "additive"
      },
      {
        "name": "sparks2",
        "bone": "sparks2",
        "attachment": "updated/effects_sparks2_09",
        "blend": "additive"
      }
    ],
    "skins": {
      "default": {
        "sparks1": {
          "updated/effect_sparks1_00": {
            "y": 0.5,
            "width": 168,
            "height": 151
          },
          "updated/effect_sparks1_01": {
            "y": 0.5,
            "width": 168,
            "height": 151
          },
          "updated/effect_sparks1_02": {
            "y": 0.5,
            "width": 168,
            "height": 151
          },
          "updated/effect_sparks1_03": {
            "y": 0.5,
            "width": 168,
            "height": 151
          },
          "updated/effect_sparks1_04": {
            "y": 0.5,
            "width": 168,
            "height": 151
          },
          "updated/effect_sparks1_05": {
            "y": 0.5,
            "width": 168,
            "height": 151
          },
          "updated/effect_sparks1_06": {
            "y": 0.5,
            "width": 168,
            "height": 151
          },
          "updated/effect_sparks1_07": {
            "y": 0.5,
            "width": 168,
            "height": 151
          }
        },
        "sparks2": {
          "updated/effects_sparks2_00": {
            "y": 0.5,
            "width": 194,
            "height": 411
          },
          "updated/effects_sparks2_01": {
            "y": 0.5,
            "width": 194,
            "height": 411
          },
          "updated/effects_sparks2_02": {
            "y": 0.5,
            "width": 194,
            "height": 411
          },
          "updated/effects_sparks2_03": {
            "y": 0.5,
            "width": 194,
            "height": 411
          },
          "updated/effects_sparks2_04": {
            "y": 0.5,
            "width": 194,
            "height": 411
          },
          "updated/effects_sparks2_05": {
            "y": 0.5,
            "width": 194,
            "height": 411
          },
          "updated/effects_sparks2_06": {
            "y": 0.5,
            "width": 194,
            "height": 411
          },
          "updated/effects_sparks2_07": {
            "y": 0.5,
            "width": 194,
            "height": 411
          },
          "updated/effects_sparks2_08": {
            "y": 0.5,
            "width": 194,
            "height": 411
          },
          "updated/effects_sparks2_09": {
            "y": 0.5,
            "width": 194,
            "height": 411
          }
        },
        "wild_symbol_change_effect_00233": {
          "updated/effect_lightning_00": {
            "x": 0.5,
            "width": 273,
            "height": 494
          },
          "updated/effect_lightning_01": {
            "x": 0.5,
            "width": 273,
            "height": 494
          },
          "updated/effect_lightning_02": {
            "x": 0.5,
            "width": 273,
            "height": 494
          },
          "updated/effect_lightning_03": {
            "x": 0.5,
            "width": 273,
            "height": 494
          },
          "updated/effect_lightning_04": {
            "x": 0.5,
            "width": 273,
            "height": 494
          },
          "updated/effect_lightning_05": {
            "x": 0.5,
            "width": 273,
            "height": 494
          },
          "updated/effect_lightning_06": {
            "x": 0.5,
            "width": 273,
            "height": 494
          },
          "updated/effect_lightning_07": {
            "x": 0.5,
            "width": 273,
            "height": 494
          },
          "updated/effect_lightning_08": {
            "x": 0.5,
            "width": 273,
            "height": 494
          },
          "updated/effect_lightning_09": {
            "x": 0.5,
            "width": 273,
            "height": 494
          },
          "updated/effect_lightning_10": {
            "x": 0.5,
            "width": 273,
            "height": 494
          },
          "updated/effect_lightning_11": {
            "x": 0.5,
            "width": 273,
            "height": 494
          },
          "updated/effect_lightning_12": {
            "x": 0.5,
            "width": 273,
            "height": 494
          },
          "updated/effect_lightning_13": {
            "x": 0.5,
            "width": 273,
            "height": 494
          },
          "updated/effect_lightning_14": {
            "x": 0.5,
            "width": 273,
            "height": 494
          },
          "updated/effect_lightning_15": {
            "x": 0.5,
            "width": 273,
            "height": 494
          }
        }
      }
    },
    "animations": {
      "gool_summon_effect_1": {
        "slots": {
          "sparks1": {
            "attachment": [
              {
                "time": 0,
                "name": null
              }
            ]
          },
          "sparks2": {
            "attachment": [
              {
                "time": 0,
                "name": null
              }
            ]
          },
          "wild_symbol_change_effect_00233": {
            "attachment": [
              {
                "time": 0,
                "name": null
              },
              {
                "time": 0.0333,
                "name": "updated/effect_lightning_00"
              },
              {
                "time": 0.1333,
                "name": "updated/effect_lightning_01"
              },
              {
                "time": 0.2,
                "name": "updated/effect_lightning_02"
              },
              {
                "time": 0.3,
                "name": "updated/effect_lightning_03"
              },
              {
                "time": 0.3667,
                "name": null
              }
            ]
          }
        }
      },
      "gool_summon_effect_2": {
        "slots": {
          "sparks1": {
            "attachment": [
              {
                "time": 0,
                "name": null
              }
            ]
          },
          "sparks2": {
            "attachment": [
              {
                "time": 0,
                "name": null
              }
            ]
          },
          "wild_symbol_change_effect_00233": {
            "attachment": [
              {
                "time": 0,
                "name": null
              },
              {
                "time": 0.0333,
                "name": "updated/effect_lightning_04"
              },
              {
                "time": 0.1333,
                "name": "updated/effect_lightning_05"
              },
              {
                "time": 0.2,
                "name": "updated/effect_lightning_06"
              },
              {
                "time": 0.3,
                "name": "updated/effect_lightning_07"
              },
              {
                "time": 0.3667,
                "name": null
              }
            ]
          }
        }
      },
      "gool_summon_effect_3": {
        "slots": {
          "sparks1": {
            "attachment": [
              {
                "time": 0,
                "name": null
              },
              {
                "time": 0.1,
                "name": "updated/effect_sparks1_00"
              },
              {
                "time": 0.1667,
                "name": "updated/effect_sparks1_02"
              },
              {
                "time": 0.2333,
                "name": "updated/effect_sparks1_04"
              },
              {
                "time": 0.3,
                "name": "updated/effect_sparks1_06"
              },
              {
                "time": 0.3667,
                "name": null
              }
            ]
          },
          "sparks2": {
            "attachment": [
              {
                "time": 0,
                "name": null
              }
            ]
          },
          "wild_symbol_change_effect_00233": {
            "attachment": [
              {
                "time": 0,
                "name": null
              },
              {
                "time": 0.0333,
                "name": "updated/effect_lightning_08"
              },
              {
                "time": 0.1333,
                "name": "updated/effect_lightning_09"
              },
              {
                "time": 0.2,
                "name": "updated/effect_lightning_10"
              },
              {
                "time": 0.3,
                "name": "updated/effect_lightning_11"
              },
              {
                "time": 0.3667,
                "name": null
              }
            ]
          }
        },
        "bones": {
          "sparks1": {
            "translate": [
              {
                "time": 0,
                "x": 0,
                "y": -187.65
              }
            ],
            "scale": [
              {
                "time": 0,
                "x": 1.2,
                "y": 1.2
              }
            ]
          },
          "sparks2": {
            "translate": [
              {
                "time": 0,
                "x": 0,
                "y": -187.65
              }
            ],
            "scale": [
              {
                "time": 0,
                "x": 1.5,
                "y": 1.5
              }
            ]
          }
        }
      },
      "gool_summon_effect_4": {
        "slots": {
          "sparks1": {
            "attachment": [
              {
                "time": 0,
                "name": null
              }
            ]
          },
          "sparks2": {
            "attachment": [
              {
                "time": 0,
                "name": null
              },
              {
                "time": 0.1,
                "name": "updated/effects_sparks2_00"
              },
              {
                "time": 0.1333,
                "name": "updated/effects_sparks2_02"
              },
              {
                "time": 0.1667,
                "name": "updated/effects_sparks2_04"
              },
              {
                "time": 0.2333,
                "name": "updated/effects_sparks2_06"
              },
              {
                "time": 0.3,
                "name": "updated/effects_sparks2_08"
              },
              {
                "time": 0.3667,
                "name": null
              }
            ]
          },
          "wild_symbol_change_effect_00233": {
            "attachment": [
              {
                "time": 0,
                "name": null
              },
              {
                "time": 0.0333,
                "name": "updated/effect_lightning_12"
              },
              {
                "time": 0.1333,
                "name": "updated/effect_lightning_13"
              },
              {
                "time": 0.2,
                "name": "updated/effect_lightning_14"
              },
              {
                "time": 0.3,
                "name": "updated/effect_lightning_15"
              },
              {
                "time": 0.3667,
                "name": null
              }
            ]
          }
        },
        "bones": {
          "sparks2": {
            "translate": [
              {
                "time": 0,
                "x": -5.02,
                "y": -80.28
              }
            ]
          }
        }
      }
    }
  },
  "textures": [
    {
      "__uuid__": "3ba65763-b3f6-46f5-8794-a2f571868899@6c48a",
      "__expectedType__": "cc.Texture2D"
    }
  ],
  "textureNames": [
    "gool_summon_effect.png"
  ],
  "scale": 1,
  "_atlasText": "\ngool_summon_effect.png\nsize: 1961,1682\nformat: RGBA8888\nfilter: Linear,Linear\nrepeat: none\nupdated/effect_lightning_00\n  rotate: false\n  xy: 0, 1188\n  size: 273, 494\n  orig: 273, 494\n  offset: 0, 0\n  index: -1\nupdated/effect_lightning_08\n  rotate: false\n  xy: 825, 1188\n  size: 273, 494\n  orig: 273, 494\n  offset: 0, 0\n  index: -1\nupdated/effect_lightning_01\n  rotate: false\n  xy: 0, 692\n  size: 273, 494\n  orig: 273, 494\n  offset: 0, 0\n  index: -1\nupdated/effect_lightning_02\n  rotate: false\n  xy: 275, 1188\n  size: 273, 494\n  orig: 273, 494\n  offset: 0, 0\n  index: -1\nupdated/effect_lightning_03\n  rotate: false\n  xy: 0, 196\n  size: 273, 494\n  orig: 273, 494\n  offset: 0, 0\n  index: -1\nupdated/effect_lightning_04\n  rotate: false\n  xy: 275, 692\n  size: 273, 494\n  orig: 273, 494\n  offset: 0, 0\n  index: -1\nupdated/effect_lightning_05\n  rotate: false\n  xy: 550, 1188\n  size: 273, 494\n  orig: 273, 494\n  offset: 0, 0\n  index: -1\nupdated/effect_lightning_06\n  rotate: false\n  xy: 275, 196\n  size: 273, 494\n  orig: 273, 494\n  offset: 0, 0\n  index: -1\nupdated/effect_lightning_07\n  rotate: false\n  xy: 550, 692\n  size: 273, 494\n  orig: 273, 494\n  offset: 0, 0\n  index: -1\nupdated/effect_lightning_09\n  rotate: false\n  xy: 550, 196\n  size: 273, 494\n  orig: 273, 494\n  offset: 0, 0\n  index: -1\nupdated/effect_lightning_10\n  rotate: false\n  xy: 825, 692\n  size: 273, 494\n  orig: 273, 494\n  offset: 0, 0\n  index: -1\nupdated/effect_lightning_11\n  rotate: false\n  xy: 1100, 1188\n  size: 273, 494\n  orig: 273, 494\n  offset: 0, 0\n  index: -1\nupdated/effect_lightning_12\n  rotate: false\n  xy: 825, 196\n  size: 273, 494\n  orig: 273, 494\n  offset: 0, 0\n  index: -1\nupdated/effect_lightning_13\n  rotate: false\n  xy: 1100, 692\n  size: 273, 494\n  orig: 273, 494\n  offset: 0, 0\n  index: -1\nupdated/effect_lightning_14\n  rotate: false\n  xy: 1375, 1188\n  size: 273, 494\n  orig: 273, 494\n  offset: 0, 0\n  index: -1\nupdated/effect_lightning_15\n  rotate: false\n  xy: 1100, 196\n  size: 273, 494\n  orig: 273, 494\n  offset: 0, 0\n  index: -1\nupdated/effect_sparks1_00\n  rotate: false\n  xy: 1767, 705\n  size: 168, 151\n  orig: 168, 151\n  offset: 0, 0\n  index: -1\nupdated/effects_sparks2_04\n  rotate: false\n  xy: 826, 0\n  size: 411, 194\n  orig: 411, 194\n  offset: 0, 0\n  index: -1\nupdated/effect_sparks1_01\n  rotate: false\n  xy: 1767, 552\n  size: 168, 151\n  orig: 168, 151\n  offset: 0, 0\n  index: -1\nupdated/effects_sparks2_05\n  rotate: false\n  xy: 1571, 775\n  size: 194, 411\n  orig: 194, 411\n  offset: 0, 0\n  index: -1\nupdated/effect_sparks1_02\n  rotate: false\n  xy: 1767, 399\n  size: 168, 151\n  orig: 168, 151\n  offset: 0, 0\n  index: -1\nupdated/effects_sparks2_06\n  rotate: false\n  xy: 1571, 362\n  size: 194, 411\n  orig: 194, 411\n  offset: 0, 0\n  index: -1\nupdated/effect_sparks1_03\n  rotate: false\n  xy: 1788, 229\n  size: 151, 168\n  orig: 151, 168\n  offset: 0, 0\n  index: -1\nupdated/effects_sparks2_07\n  rotate: false\n  xy: 1375, 166\n  size: 411, 194\n  orig: 411, 194\n  offset: 0, 0\n  index: -1\nupdated/effect_sparks1_04\n  rotate: false\n  xy: 1788, 76\n  size: 168, 151\n  orig: 168, 151\n  offset: 0, 0\n  index: -1\nupdated/effects_sparks2_00\n  rotate: false\n  xy: 1375, 775\n  size: 194, 411\n  orig: 194, 411\n  offset: 0, 0\n  index: -1\nupdated/effect_sparks1_05\n  rotate: false\n  xy: 1239, 13\n  size: 168, 151\n  orig: 168, 151\n  offset: 0, 0\n  index: -1\nupdated/effects_sparks2_01\n  rotate: false\n  xy: 1650, 1271\n  size: 194, 411\n  orig: 194, 411\n  offset: 0, 0\n  index: -1\nupdated/effect_sparks1_06\n  rotate: false\n  xy: 1409, 13\n  size: 168, 151\n  orig: 168, 151\n  offset: 0, 0\n  index: -1\nupdated/effects_sparks2_02\n  rotate: false\n  xy: 413, 0\n  size: 411, 194\n  orig: 411, 194\n  offset: 0, 0\n  index: -1\nupdated/effect_sparks1_07\n  rotate: false\n  xy: 1579, 13\n  size: 168, 151\n  orig: 168, 151\n  offset: 0, 0\n  index: -1\nupdated/effects_sparks2_03\n  rotate: false\n  xy: 1375, 362\n  size: 194, 411\n  orig: 194, 411\n  offset: 0, 0\n  index: -1\nupdated/effects_sparks2_08\n  rotate: false\n  xy: 1767, 858\n  size: 194, 411\n  orig: 194, 411\n  offset: 0, 0\n  index: -1\nupdated/effects_sparks2_09\n  rotate: false\n  xy: 0, 0\n  size: 411, 194\n  orig: 411, 194\n  offset: 0, 0\n  index: -1\n\n"
}