[
    1,
    0,
    0,
    [
        "cc.SpriteAtlas"
    ],
    0,
    [
        {
            "name": "strp_winframe",
            "spriteFrames": [
                "strp_winframe_01",
                "6fadeb05-316a-4728-8b61-bf503996b573@77b82",
                "strp_winframe_02",
                "6fadeb05-316a-4728-8b61-bf503996b573@0e814",
                "strp_winframe_03",
                "6fadeb05-316a-4728-8b61-bf503996b573@59f7a",
                "strp_winframe_04",
                "6fadeb05-316a-4728-8b61-bf503996b573@058de",
                "strp_winframe_05",
                "6fadeb05-316a-4728-8b61-bf503996b573@6da12",
                "strp_winframe_06",
                "6fadeb05-316a-4728-8b61-bf503996b573@06560",
                "strp_winframe_07",
                "6fadeb05-316a-4728-8b61-bf503996b573@ece8b",
                "strp_winframe_08",
                "6fadeb05-316a-4728-8b61-bf503996b573@4e484",
                "strp_winframe_09",
                "6fadeb05-316a-4728-8b61-bf503996b573@a5fe3"
            ]
        }
    ],
    [
        0
    ],
    0,
    [],
    [],
    []
]
