{
  "__type__": "cc.SpriteFrame",
  "content": {
    "name": "turbo_lightning_04",
    "atlas": "",
    "rect": {
      "x": 24,
      "y": 19,
      "width": 13,
      "height": 28
    },
    "offset": {
      "x": 0.5,
      "y": -3
    },
    "originalSize": {
      "width": 60,
      "height": 60
    },
    "rotated": false,
    "capInsets": [
      0,
      0,
      0,
      0
    ],
    "texture": "0b59ad75-6bce-4fa6-b8c9-7f93ec2b4c07@6c48a",
    "packable": true
  }
}