[
    1,
    0,
    0,
    [
        "cc.Texture2D"
    ],
    0,
    [
        {
            "base": "2,2,2,2,0,0",
            "mipmaps": [
                "58a96be5-ce6f-4178-9a75-76c190eb26b3"
            ]
        }
    ],
    [
        0
    ],
    0,
    [],
    [],
    []
]
