[
    1,
    [
        "821e546b-36b5-4adb-afe4-e5f9260cd2db@6c48a"
    ],
    [
        "_textureSource"
    ],
    [
        "cc.SpriteFrame"
    ],
    0,
    [
        {
            "name": "text_info3_int",
            "rect": {
                "x": 427,
                "y": 2,
                "width": 546,
                "height": 44
            },
            "offset": {
                "x": 0,
                "y": 0
            },
            "originalSize": {
                "width": 546,
                "height": 44
            },
            "rotated": true,
            "capInsets": [
                0,
                0,
                0,
                0
            ],
            "packable": true
        }
    ],
    [
        0
    ],
    0,
    [
        0
    ],
    [
        0
    ],
    [
        0
    ]
]
