[
    1,
    0,
    0,
    [
        "cc.Texture2D"
    ],
    0,
    [
        {
            "base": "2,2,2,2,0,0",
            "mipmaps": [
                "3ba65763-b3f6-46f5-8794-a2f571868899"
            ]
        }
    ],
    [
        0
    ],
    0,
    [],
    [],
    []
]
