{
    "depend": [
        "b145bccd-5106-4741-bae6-3ea6bc32fd22@69421",
        "b145bccd-5106-4741-bae6-3ea6bc32fd22@ad1fd",
        "b145bccd-5106-4741-bae6-3ea6bc32fd22@0094d",
        "b145bccd-5106-4741-bae6-3ea6bc32fd22@264f2",
        "b145bccd-5106-4741-bae6-3ea6bc32fd22@e1304",
        "b145bccd-5106-4741-bae6-3ea6bc32fd22@cce91",
        "b145bccd-5106-4741-bae6-3ea6bc32fd22@4c863",
        "b145bccd-5106-4741-bae6-3ea6bc32fd22@da678",
        "b145bccd-5106-4741-bae6-3ea6bc32fd22@fa359",
        "b145bccd-5106-4741-bae6-3ea6bc32fd22@7e2a8",
        "b145bccd-5106-4741-bae6-3ea6bc32fd22@4142a",
        "b145bccd-5106-4741-bae6-3ea6bc32fd22@9ce0d",
        "b145bccd-5106-4741-bae6-3ea6bc32fd22@c1f56",
        "b145bccd-5106-4741-bae6-3ea6bc32fd22@7c7ec"
    ]
}
