{
  "__type__": "cc.SpriteFrame",
  "content": {
    "name": "VN",
    "atlas": "",
    "rect": {
      "x": 3,
      "y": 2,
      "width": 118,
      "height": 758
    },
    "offset": {
      "x": -2,
      "y": 131
    },
    "originalSize": {
      "width": 128,
      "height": 1024
    },
    "rotated": false,
    "capInsets": [
      0,
      0,
      0,
      0
    ],
    "texture": "61baf426-b812-4ea8-b1bb-952d3995104d@6c48a",
    "packable": true
  }
}