[
    1,
    [
        "a8c74f5c-fc48-404d-8bbd-bcef3fe4172a@f9941",
        "aa14cdee-418d-409e-bb4b-c85af114bf7f@f9941",
        "d5e023df-992f-40bb-a4b8-2c5003a98e61@f9941"
    ],
    [
        "node",
        "_spriteFrame",
        "root",
        "closeArea",
        "imgCopyNode",
        "data",
        "_parent"
    ],
    [
        [
            "cc.Node",
            [
                "_name",
                "_layer",
                "_active",
                "_components",
                "_prefab",
                "_parent",
                "_children",
                "_lpos"
            ],
            0,
            9,
            4,
            1,
            2,
            5
        ],
        [
            "cc.Sprite",
            [
                "_sizeMode",
                "_type",
                "_isTrimmedMode",
                "node",
                "__prefab",
                "_spriteFrame",
                "_color"
            ],
            0,
            1,
            4,
            6,
            5
        ],
        [
            "cc.UITransform",
            [
                "node",
                "__prefab",
                "_contentSize",
                "_anchorPoint"
            ],
            3,
            1,
            4,
            5,
            5
        ],
        [
            "cc.Widget",
            [
                "_alignFlags",
                "_originalWidth",
                "_originalHeight",
                "node",
                "__prefab"
            ],
            0,
            1,
            4
        ],
        [
            "cc.Prefab",
            [
                "_name"
            ],
            2
        ],
        [
            "cc.CompPrefabInfo",
            [
                "fileId"
            ],
            2
        ],
        [
            "cc.PrefabInfo",
            [
                "fileId",
                "root",
                "asset"
            ],
            2,
            1,
            1
        ],
        [
            "cc.Label",
            [
                "_string",
                "_actualFontSize",
                "_fontSize",
                "_lineHeight",
                "_enableWrapText",
                "node",
                "__prefab"
            ],
            -2,
            1,
            4
        ],
        [
            "fd748a06KdIv4lB1Iwlqp0T",
            [
                "key",
                "node",
                "__prefab"
            ],
            2,
            1,
            4
        ],
        [
            "cc.Button",
            [
                "_transition",
                "node",
                "__prefab"
            ],
            2,
            1,
            4
        ],
        [
            "cc.Layout",
            [
                "_resizeMode",
                "_layoutType",
                "_isAlign",
                "node",
                "__prefab"
            ],
            0,
            1,
            4
        ],
        [
            "cc.Mask",
            [
                "node",
                "__prefab"
            ],
            3,
            1,
            4
        ],
        [
            "cc.ScrollView",
            [
                "bounceDuration",
                "brake",
                "horizontal",
                "node",
                "__prefab",
                "_content"
            ],
            0,
            1,
            4,
            1
        ],
        [
            "cc.BlockInputEvents",
            [
                "node",
                "__prefab"
            ],
            3,
            1,
            4
        ],
        [
            "ddc96einkZBzJ1NEVd6vArr",
            [
                "customLoadPath",
                "node",
                "__prefab",
                "imgCopyNode",
                "closeArea"
            ],
            2,
            1,
            4,
            1,
            1
        ]
    ],
    [
        [
            5,
            0,
            2
        ],
        [
            6,
            0,
            1,
            2,
            2
        ],
        [
            2,
            0,
            1,
            2,
            1
        ],
        [
            0,
            0,
            1,
            5,
            6,
            3,
            4,
            3
        ],
        [
            3,
            0,
            1,
            2,
            3,
            4,
            4
        ],
        [
            0,
            0,
            1,
            5,
            3,
            4,
            3
        ],
        [
            0,
            0,
            1,
            5,
            6,
            3,
            4,
            7,
            3
        ],
        [
            2,
            0,
            1,
            2,
            3,
            1
        ],
        [
            4,
            0,
            2
        ],
        [
            0,
            0,
            1,
            6,
            3,
            4,
            3
        ],
        [
            0,
            0,
            1,
            5,
            3,
            4,
            7,
            3
        ],
        [
            0,
            0,
            1,
            6,
            3,
            4,
            7,
            3
        ],
        [
            0,
            0,
            2,
            1,
            5,
            3,
            4,
            4
        ],
        [
            2,
            0,
            1,
            1
        ],
        [
            1,
            0,
            3,
            4,
            6,
            5,
            2
        ],
        [
            1,
            1,
            0,
            3,
            4,
            5,
            3
        ],
        [
            1,
            3,
            4,
            5,
            1
        ],
        [
            1,
            0,
            2,
            3,
            4,
            3
        ],
        [
            3,
            0,
            1,
            3,
            4,
            3
        ],
        [
            7,
            0,
            1,
            2,
            3,
            4,
            5,
            6,
            6
        ],
        [
            8,
            0,
            1,
            2,
            2
        ],
        [
            9,
            0,
            1,
            2,
            2
        ],
        [
            10,
            0,
            1,
            2,
            3,
            4,
            4
        ],
        [
            11,
            0,
            1,
            1
        ],
        [
            12,
            0,
            1,
            2,
            3,
            4,
            5,
            4
        ],
        [
            13,
            0,
            1,
            1
        ],
        [
            14,
            0,
            1,
            2,
            3,
            4,
            2
        ]
    ],
    [
        [
            8,
            "UISubGameIntro"
        ],
        [
            9,
            "UISubGameIntro",
            33554432,
            [
                -7
            ],
            [
                [
                    2,
                    -2,
                    [
                        0,
                        "ebpUkCGghJiIg+bRG3qP9M"
                    ],
                    [
                        5,
                        1280,
                        720
                    ]
                ],
                [
                    4,
                    45,
                    100,
                    100,
                    -3,
                    [
                        0,
                        "f72aRJWA5PzLMpmW2p1jTn"
                    ]
                ],
                [
                    26,
                    "intro/paytable/",
                    -6,
                    [
                        0,
                        "3eYCQfftVNJ6WGQnpqO+bn"
                    ],
                    -5,
                    -4
                ]
            ],
            [
                1,
                "1a6X0bpsBPY4Qr7Nvop1/C",
                -1,
                0
            ]
        ],
        [
            3,
            "main",
            33554432,
            1,
            [
                -11,
                -12,
                -13,
                -14
            ],
            [
                [
                    2,
                    -8,
                    [
                        0,
                        "1eJvyUpftCg5UTTi6ZvJP3"
                    ],
                    [
                        5,
                        1280,
                        720
                    ]
                ],
                [
                    4,
                    45,
                    100,
                    100,
                    -9,
                    [
                        0,
                        "18RJkS9ipO66MwzHUMHMhm"
                    ]
                ],
                [
                    25,
                    -10,
                    [
                        0,
                        "e1pyt85VFCPL20nr/Y4BOa"
                    ]
                ]
            ],
            [
                1,
                "bbqf44qyBGto9zTFEqbCZU",
                1,
                0
            ]
        ],
        [
            11,
            "content",
            33554432,
            [
                -18
            ],
            [
                [
                    7,
                    -15,
                    [
                        0,
                        "b12J/TYZBJMYzdBfykgU4I"
                    ],
                    [
                        5,
                        998.4,
                        0
                    ],
                    [
                        0,
                        0.5,
                        1
                    ]
                ],
                [
                    18,
                    41,
                    220,
                    -16,
                    [
                        0,
                        "5brCvww2NOAo2XFWVUnGij"
                    ]
                ],
                [
                    22,
                    1,
                    2,
                    true,
                    -17,
                    [
                        0,
                        "03dAmgwwpJuY3z5KlLx6z3"
                    ]
                ]
            ],
            [
                1,
                "3cBuc4pHxOGoE4Sdcalu56",
                1,
                0
            ],
            [
                1,
                0,
                252,
                0
            ]
        ],
        [
            6,
            "close",
            33554432,
            2,
            [
                -21
            ],
            [
                [
                    13,
                    -19,
                    [
                        0,
                        "bcAPCWrEhNEbeAQtha1076"
                    ]
                ],
                [
                    21,
                    3,
                    -20,
                    [
                        0,
                        "01ZvpWMldDq5VOb9wEYfMH"
                    ]
                ]
            ],
            [
                1,
                "a0Z08ub+NMYan6Hye2nKoX",
                1,
                0
            ],
            [
                1,
                449.2,
                259.6,
                0
            ]
        ],
        [
            5,
            "mask",
            33554432,
            2,
            [
                [
                    2,
                    -22,
                    [
                        0,
                        "6bNV4VoelBabZ4rXffhkSL"
                    ],
                    [
                        5,
                        1280,
                        720
                    ]
                ],
                [
                    14,
                    0,
                    -23,
                    [
                        0,
                        "229yD6X69NZIW7Ncf5wkh5"
                    ],
                    [
                        4,
                        2130706432
                    ],
                    0
                ],
                [
                    4,
                    45,
                    30,
                    30,
                    -24,
                    [
                        0,
                        "04SRJTundJOZ7DGcrGkpk6"
                    ]
                ]
            ],
            [
                1,
                "2a2Wk7BwlC5qX/8ukWCBbi",
                1,
                0
            ]
        ],
        [
            3,
            "bg",
            33554432,
            2,
            [
                -27
            ],
            [
                [
                    2,
                    -25,
                    [
                        0,
                        "fcLqKLJW1CvpAKyoBNf5PO"
                    ],
                    [
                        5,
                        998.4,
                        604.8
                    ]
                ],
                [
                    15,
                    1,
                    0,
                    -26,
                    [
                        0,
                        "61Qq8Mg7hKrL1O/W3VQxFz"
                    ],
                    1
                ]
            ],
            [
                1,
                "99CRsrEHdAMqBEe2fxVLoR",
                1,
                0
            ]
        ],
        [
            10,
            "Label",
            33554432,
            6,
            [
                [
                    2,
                    -28,
                    [
                        0,
                        "98bEiqiF1EUayuySiMB+81"
                    ],
                    [
                        5,
                        0,
                        52.92
                    ]
                ],
                [
                    19,
                    "",
                    42,
                    42,
                    0,
                    false,
                    -29,
                    [
                        0,
                        "69Zg8gaHZLcbIQXpPPAWmr"
                    ]
                ],
                [
                    20,
                    "rules",
                    -30,
                    [
                        0,
                        "ddfANiaYRDUYefMIw8HxkR"
                    ]
                ]
            ],
            [
                1,
                "4eEQ/rD69P9rCE9Zjlk6Qi",
                1,
                0
            ],
            [
                1,
                0,
                259.601,
                0
            ]
        ],
        [
            6,
            "ScrollView",
            33554432,
            2,
            [
                -33
            ],
            [
                [
                    2,
                    -31,
                    [
                        0,
                        "2craba+1hMBZ9VwP5mRM+4"
                    ],
                    [
                        5,
                        998.4,
                        504
                    ]
                ],
                [
                    24,
                    0.23,
                    0.75,
                    false,
                    -32,
                    [
                        0,
                        "a4Z2ZZorpO65NajZacRtU2"
                    ],
                    3
                ]
            ],
            [
                1,
                "60TKWXu39MgY3ugcVvNeTk",
                1,
                0
            ],
            [
                1,
                0,
                -36,
                0
            ]
        ],
        [
            3,
            "view",
            33554432,
            8,
            [
                3
            ],
            [
                [
                    2,
                    -34,
                    [
                        0,
                        "689VmId65MzpHnIxIES/Ho"
                    ],
                    [
                        5,
                        998.4,
                        504
                    ]
                ],
                [
                    23,
                    -35,
                    [
                        0,
                        "88xELI6tBASqeNZZsltEpu"
                    ]
                ]
            ],
            [
                1,
                "afkYOFWgtGn4JHYw2gDgId",
                1,
                0
            ]
        ],
        [
            12,
            "img",
            false,
            33554432,
            3,
            [
                [
                    7,
                    -36,
                    [
                        0,
                        "65f1Lcn4RJY5IGHeFImEO8"
                    ],
                    [
                        5,
                        1280,
                        2048
                    ],
                    [
                        0,
                        0.5,
                        1
                    ]
                ],
                [
                    17,
                    2,
                    false,
                    -37,
                    [
                        0,
                        "2928cqpUZBy6eHG9Muyo9/"
                    ]
                ]
            ],
            [
                1,
                "3cm8xUkvhGfLwTgr/9+b17",
                1,
                0
            ]
        ],
        [
            5,
            "img",
            33554432,
            4,
            [
                [
                    2,
                    -38,
                    [
                        0,
                        "a8T87kLwVBtIbY5MapXJQs"
                    ],
                    [
                        5,
                        30,
                        30
                    ]
                ],
                [
                    16,
                    -39,
                    [
                        0,
                        "cdhTulx9tHgJirvmijqS0O"
                    ],
                    2
                ]
            ],
            [
                1,
                "eelzrNgz9AZoY4y6hDBLEs",
                1,
                0
            ]
        ]
    ],
    0,
    [
        0,
        2,
        1,
        0,
        0,
        1,
        0,
        0,
        1,
        0,
        3,
        4,
        0,
        4,
        10,
        0,
        0,
        1,
        0,
        -1,
        2,
        0,
        0,
        2,
        0,
        0,
        2,
        0,
        0,
        2,
        0,
        -1,
        5,
        0,
        -2,
        6,
        0,
        -3,
        4,
        0,
        -4,
        8,
        0,
        0,
        3,
        0,
        0,
        3,
        0,
        0,
        3,
        0,
        -1,
        10,
        0,
        0,
        4,
        0,
        0,
        4,
        0,
        -1,
        11,
        0,
        0,
        5,
        0,
        0,
        5,
        0,
        0,
        5,
        0,
        0,
        6,
        0,
        0,
        6,
        0,
        -1,
        7,
        0,
        0,
        7,
        0,
        0,
        7,
        0,
        0,
        7,
        0,
        0,
        8,
        0,
        0,
        8,
        0,
        -1,
        9,
        0,
        0,
        9,
        0,
        0,
        9,
        0,
        0,
        10,
        0,
        0,
        10,
        0,
        0,
        11,
        0,
        0,
        11,
        0,
        5,
        1,
        3,
        6,
        9,
        39
    ],
    [
        0,
        0,
        0
    ],
    [
        1,
        1,
        1
    ],
    [
        0,
        1,
        2
    ]
]
