{
  "__type__": "cc.SpriteFrame",
  "content": {
    "name": "icon_exit",
    "atlas": "",
    "rect": {
      "x": 2,
      "y": 1,
      "width": 32,
      "height": 34
    },
    "offset": {
      "x": 0,
      "y": 0
    },
    "originalSize": {
      "width": 36,
      "height": 36
    },
    "rotated": false,
    "capInsets": [
      0,
      0,
      0,
      0
    ],
    "texture": "22ee1e7d-4296-4ba0-9675-14ba6670a796@6c48a",
    "packable": true
  }
}