[
    1,
    0,
    0,
    [
        "cc.Texture2D"
    ],
    0,
    [
        {
            "base": "2,2,2,2,0,0",
            "mipmaps": [
                "dfbc596e-91a7-4f68-addb-4ad42e5ea80e"
            ]
        }
    ],
    [
        0
    ],
    0,
    [],
    [],
    []
]
