[
    1,
    [
        "a238bd0f-a704-4775-9991-24d0342fc1a3@6c48a"
    ],
    [
        "_textureSource"
    ],
    [
        "cc.SpriteFrame"
    ],
    0,
    [
        {
            "name": "MultBlue_blur",
            "rect": {
                "x": 506,
                "y": 1147,
                "width": 222,
                "height": 173
            },
            "offset": {
                "x": 0,
                "y": 3
            },
            "originalSize": {
                "width": 262,
                "height": 195
            },
            "rotated": true,
            "capInsets": [
                0,
                0,
                0,
                0
            ],
            "packable": true
        }
    ],
    [
        0
    ],
    0,
    [
        0
    ],
    [
        0
    ],
    [
        0
    ]
]
