{
  "__type__": "cc.SpriteFrame",
  "content": {
    "name": "stpr_freegame_idle",
    "atlas": "",
    "rect": {
      "x": 2,
      "y": 2,
      "width": 2034,
      "height": 1823
    },
    "offset": {
      "x": -5,
      "y": 110.5
    },
    "originalSize": {
      "width": 2048,
      "height": 2048
    },
    "rotated": false,
    "capInsets": [
      0,
      0,
      0,
      0
    ],
    "texture": "6054da60-b40c-4eb1-89d2-6ac08f6b26a2@6c48a",
    "packable": true
  }
}