{
  "__type__": "cc.SpriteFrame",
  "content": {
    "name": "ic_rule",
    "atlas": "",
    "rect": {
      "x": 15,
      "y": 12,
      "width": 78,
      "height": 81
    },
    "offset": {
      "x": 0,
      "y": 1.5
    },
    "originalSize": {
      "width": 108,
      "height": 108
    },
    "rotated": false,
    "capInsets": [
      0,
      0,
      0,
      0
    ],
    "texture": "a1ab07c1-08ca-47da-8243-ac5a0da39181@6c48a",
    "packable": true
  }
}