{
  "__type__": "cc.SpriteFrame",
  "content": {
    "name": "turbo_lightning_13",
    "atlas": "",
    "rect": {
      "x": 20,
      "y": 5,
      "width": 19,
      "height": 32
    },
    "offset": {
      "x": -0.5,
      "y": 9
    },
    "originalSize": {
      "width": 60,
      "height": 60
    },
    "rotated": false,
    "capInsets": [
      0,
      0,
      0,
      0
    ],
    "texture": "1bd8f124-f899-47be-8be4-a478e6da1ca5@6c48a",
    "packable": true
  }
}