{
  "__type__": "cc.SpriteFrame",
  "content": {
    "name": "bg_round_solid",
    "atlas": "",
    "rect": {
      "x": 0,
      "y": 0,
      "width": 50,
      "height": 50
    },
    "offset": {
      "x": 0,
      "y": 0
    },
    "originalSize": {
      "width": 50,
      "height": 50
    },
    "rotated": false,
    "capInsets": [
      18,
      18,
      18,
      18
    ],
    "texture": "1d1b5594-247c-4808-85b5-385917ac0371@6c48a",
    "packable": true
  }
}