[
    1,
    [
        "06a1abc3-a240-4b9f-bcda-ed3e9f1c9a7d@f9941"
    ],
    [
        "spriteFrame"
    ],
    [
        [
            "cc.BitmapFont",
            [
                "_name",
                "fontSize",
                "fntConfig"
            ],
            0
        ]
    ],
    [
        [
            0,
            0,
            1,
            2,
            4
        ]
    ],
    [
        [
            0,
            "Num7",
            36,
            {
                "commonHeight": 36,
                "fontSize": 36,
                "atlasName": "Num7_0.png",
                "fontDefDictionary": {
                    "48": {
                        "xOffset": -1,
                        "yOffset": -1,
                        "xAdvance": 42,
                        "rect": {
                            "x": 0,
                            "y": 0,
                            "width": 44,
                            "height": 53
                        }
                    },
                    "49": {
                        "xOffset": -1,
                        "yOffset": -1,
                        "xAdvance": 42,
                        "rect": {
                            "x": 44,
                            "y": 0,
                            "width": 44,
                            "height": 53
                        }
                    },
                    "50": {
                        "xOffset": -1,
                        "yOffset": -1,
                        "xAdvance": 42,
                        "rect": {
                            "x": 88,
                            "y": 0,
                            "width": 44,
                            "height": 53
                        }
                    },
                    "51": {
                        "xOffset": -1,
                        "yOffset": -1,
                        "xAdvance": 42,
                        "rect": {
                            "x": 132,
                            "y": 0,
                            "width": 44,
                            "height": 53
                        }
                    },
                    "52": {
                        "xOffset": -1,
                        "yOffset": -1,
                        "xAdvance": 42,
                        "rect": {
                            "x": 176,
                            "y": 0,
                            "width": 44,
                            "height": 53
                        }
                    },
                    "53": {
                        "xOffset": -1,
                        "yOffset": -1,
                        "xAdvance": 42,
                        "rect": {
                            "x": 0,
                            "y": 53,
                            "width": 44,
                            "height": 53
                        }
                    },
                    "54": {
                        "xOffset": -1,
                        "yOffset": -1,
                        "xAdvance": 42,
                        "rect": {
                            "x": 44,
                            "y": 53,
                            "width": 44,
                            "height": 53
                        }
                    },
                    "55": {
                        "xOffset": -1,
                        "yOffset": -1,
                        "xAdvance": 42,
                        "rect": {
                            "x": 88,
                            "y": 53,
                            "width": 44,
                            "height": 53
                        }
                    },
                    "56": {
                        "xOffset": -1,
                        "yOffset": -1,
                        "xAdvance": 42,
                        "rect": {
                            "x": 132,
                            "y": 53,
                            "width": 44,
                            "height": 53
                        }
                    },
                    "57": {
                        "xOffset": -1,
                        "yOffset": -1,
                        "xAdvance": 42,
                        "rect": {
                            "x": 176,
                            "y": 53,
                            "width": 44,
                            "height": 53
                        }
                    }
                },
                "kerningDict": {}
            }
        ]
    ],
    0,
    0,
    [
        0
    ],
    [
        0
    ],
    [
        0
    ]
]
