{
  "__type__": "cc.SpriteFrame",
  "content": {
    "name": "AUTO",
    "atlas": "",
    "rect": {
      "x": 0,
      "y": 0,
      "width": 56,
      "height": 17
    },
    "offset": {
      "x": 0,
      "y": 0
    },
    "originalSize": {
      "width": 56,
      "height": 17
    },
    "rotated": false,
    "capInsets": [
      0,
      0,
      0,
      0
    ],
    "texture": "9a6d5fdc-3750-4e6d-9cf0-3021ee1a0ab6@6c48a",
    "packable": true
  }
}