{
  "__type__": "cc.SpriteFrame",
  "content": {
    "name": "btn_menu",
    "atlas": "",
    "rect": {
      "x": 0,
      "y": 0,
      "width": 58,
      "height": 58
    },
    "offset": {
      "x": 0,
      "y": 0
    },
    "originalSize": {
      "width": 58,
      "height": 58
    },
    "rotated": false,
    "capInsets": [
      0,
      0,
      0,
      0
    ],
    "texture": "9aac929e-0a99-4971-aef6-e009a5ae55bd@6c48a",
    "packable": true
  }
}