[
    1,
    [
        "c5b83979-21e2-48af-84a2-cf5d98cc69a4@6c48a"
    ],
    [
        "_textureSource"
    ],
    [
        "cc.SpriteFrame"
    ],
    0,
    [
        {
            "name": "text_info5_int",
            "rect": {
                "x": 171,
                "y": 311,
                "width": 527,
                "height": 67
            },
            "offset": {
                "x": 0,
                "y": 5
            },
            "originalSize": {
                "width": 527,
                "height": 77
            },
            "rotated": true,
            "capInsets": [
                0,
                0,
                0,
                0
            ],
            "packable": true
        }
    ],
    [
        0
    ],
    0,
    [
        0
    ],
    [
        0
    ],
    [
        0
    ]
]
