{
  "__type__": "cc.SpriteFrame",
  "content": {
    "name": "center_turbo_on",
    "atlas": "",
    "rect": {
      "x": 29,
      "y": 24,
      "width": 32,
      "height": 42
    },
    "offset": {
      "x": 0,
      "y": 0
    },
    "originalSize": {
      "width": 90,
      "height": 90
    },
    "rotated": false,
    "capInsets": [
      0,
      0,
      0,
      0
    ],
    "texture": "7c78dce2-9635-4919-a20d-d174b3d74bf9@6c48a",
    "packable": true
  }
}