[
    1,
    0,
    0,
    [
        "cc.Texture2D"
    ],
    0,
    [
        {
            "base": "2,2,2,2,0,0",
            "mipmaps": [
                "30e24e1c-026b-4c56-8565-b9e29068c9bb"
            ]
        }
    ],
    [
        0
    ],
    0,
    [],
    [],
    []
]
