[
    1,
    [
        "0c297f58-5e02-4347-afb5-96c212476bb0@6c48a"
    ],
    [
        "_textureSource"
    ],
    [
        "cc.SpriteFrame"
    ],
    0,
    [
        {
            "name": "stpr_lv1",
            "rect": {
                "x": 2,
                "y": 2,
                "width": 1466,
                "height": 502
            },
            "offset": {
                "x": -289,
                "y": 3
            },
            "originalSize": {
                "width": 2048,
                "height": 512
            },
            "rotated": false,
            "capInsets": [
                0,
                0,
                0,
                0
            ],
            "packable": true
        }
    ],
    [
        0
    ],
    0,
    [
        0
    ],
    [
        0
    ],
    [
        0
    ]
]
