{
  "__type__": "cc.Material",
  "_name": "",
  "_objFlags": 0,
  "_native": "",
  "_effectAsset": {
    "__uuid__": "d1346436-ac96-4271-b863-1f4fdead95b0",
    "__expectedType__": "cc.EffectAsset"
  },
  "_techIdx": "4",
  "_defines": [
    {}
  ],
  "_states": [
    {
      "rasterizerState": {},
      "depthStencilState": {},
      "blendState": {
        "targets": [
          {}
        ]
      }
    }
  ],
  "_props": [
    {
      "mainTexture": {
        "__uuid__": "4abbc52f-2142-4ec8-9ca3-9846073b5c44@6c48a",
        "__expectedType__": "cc.Texture2D"
      }
    }
  ]
}