{
  "__type__": "cc.SpriteFrame",
  "content": {
    "name": "txt_auto",
    "atlas": "",
    "rect": {
      "x": 0,
      "y": 0,
      "width": 90,
      "height": 90
    },
    "offset": {
      "x": 0,
      "y": 0
    },
    "originalSize": {
      "width": 90,
      "height": 90
    },
    "rotated": false,
    "capInsets": [
      0,
      0,
      0,
      0
    ],
    "texture": "317cb79d-82c1-4a2a-84e6-a75877736e05@6c48a",
    "packable": true
  }
}