{
  "__type__": "cc.SpriteFrame",
  "content": {
    "name": "stpr_transition2",
    "atlas": "",
    "rect": {
      "x": 2,
      "y": 2,
      "width": 1778,
      "height": 1890
    },
    "offset": {
      "x": -133,
      "y": 77
    },
    "originalSize": {
      "width": 2048,
      "height": 2048
    },
    "rotated": false,
    "capInsets": [
      0,
      0,
      0,
      0
    ],
    "texture": "92da31af-93d1-4d13-a102-84bedee2c353@6c48a",
    "packable": true
  }
}