[
    1,
    0,
    0,
    [
        "cc.Texture2D"
    ],
    0,
    [
        {
            "base": "2,2,2,2,0,0",
            "mipmaps": [
                "46d5c248-f54c-4836-9f22-c9c2aa3972b6"
            ]
        }
    ],
    [
        0
    ],
    0,
    [],
    [],
    []
]
