{
  "__type__": "cc.SpriteFrame",
  "content": {
    "name": "turbo_lightning_10",
    "atlas": "",
    "rect": {
      "x": 59,
      "y": 59,
      "width": 1,
      "height": 1
    },
    "offset": {
      "x": 29.5,
      "y": -29.5
    },
    "originalSize": {
      "width": 60,
      "height": 60
    },
    "rotated": false,
    "capInsets": [
      0,
      0,
      0,
      0
    ],
    "texture": "13c1e5d8-470f-4c23-af5d-10b6a99449b5@6c48a",
    "packable": true
  }
}