[
    1,
    0,
    0,
    [
        "cc.SpriteAtlas"
    ],
    0,
    [
        {
            "name": "Symbols",
            "spriteFrames": [
                "MultBlue",
                "6a534a57-4370-4166-96dc-bb907568f4f0@3a4fc",
                "MultBlue_blur",
                "6a534a57-4370-4166-96dc-bb907568f4f0@8bbdd",
                "MultGreen",
                "6a534a57-4370-4166-96dc-bb907568f4f0@f4a42",
                "MultGreen_blur",
                "6a534a57-4370-4166-96dc-bb907568f4f0@e70e7",
                "MultPink",
                "6a534a57-4370-4166-96dc-bb907568f4f0@46db6",
                "MultPink_blur",
                "6a534a57-4370-4166-96dc-bb907568f4f0@cc4fc",
                "MultYellow",
                "6a534a57-4370-4166-96dc-bb907568f4f0@f3a2c",
                "MultYellow_blur",
                "6a534a57-4370-4166-96dc-bb907568f4f0@4db3b",
                "S01",
                "6a534a57-4370-4166-96dc-bb907568f4f0@4d87d",
                "S01_blur",
                "6a534a57-4370-4166-96dc-bb907568f4f0@21f4f",
                "S03",
                "6a534a57-4370-4166-96dc-bb907568f4f0@ee8ae",
                "S03_blur",
                "6a534a57-4370-4166-96dc-bb907568f4f0@96552",
                "S04",
                "6a534a57-4370-4166-96dc-bb907568f4f0@44375",
                "S04_blur",
                "6a534a57-4370-4166-96dc-bb907568f4f0@c025b",
                "S05",
                "6a534a57-4370-4166-96dc-bb907568f4f0@5b39a",
                "S05_blur",
                "6a534a57-4370-4166-96dc-bb907568f4f0@e6808",
                "S06",
                "6a534a57-4370-4166-96dc-bb907568f4f0@2d84b",
                "S06_blur",
                "6a534a57-4370-4166-96dc-bb907568f4f0@75495",
                "S07",
                "6a534a57-4370-4166-96dc-bb907568f4f0@df707",
                "S07_blur",
                "6a534a57-4370-4166-96dc-bb907568f4f0@49178",
                "S08",
                "6a534a57-4370-4166-96dc-bb907568f4f0@74ece",
                "S08_blur",
                "6a534a57-4370-4166-96dc-bb907568f4f0@4aed0",
                "S09",
                "6a534a57-4370-4166-96dc-bb907568f4f0@5731a",
                "S09_blur",
                "6a534a57-4370-4166-96dc-bb907568f4f0@8e1c1",
                "S10",
                "6a534a57-4370-4166-96dc-bb907568f4f0@2b57e",
                "S10_blur",
                "6a534a57-4370-4166-96dc-bb907568f4f0@f8f5f",
                "S11",
                "6a534a57-4370-4166-96dc-bb907568f4f0@71c1e",
                "S11_blur",
                "6a534a57-4370-4166-96dc-bb907568f4f0@e8e03"
            ]
        }
    ],
    [
        0
    ],
    0,
    [],
    [],
    []
]
