[
    1,
    [
        "e1093685-a0ce-4184-84a8-485eb0d06061@6c48a"
    ],
    [
        "_textureSource"
    ],
    [
        "cc.SpriteFrame"
    ],
    0,
    [
        {
            "name": "golden_coin",
            "rect": {
                "x": 45,
                "y": 0,
                "width": 1672,
                "height": 850
            },
            "offset": {
                "x": 14,
                "y": 28
            },
            "originalSize": {
                "width": 1734,
                "height": 906
            },
            "rotated": false,
            "capInsets": [
                0,
                0,
                0,
                0
            ],
            "packable": true
        }
    ],
    [
        0
    ],
    0,
    [
        0
    ],
    [
        0
    ],
    [
        0
    ]
]
