{
  "__type__": "cc.SpriteFrame",
  "content": {
    "name": "chip_particle",
    "atlas": "",
    "rect": {
      "x": 0,
      "y": 0,
      "width": 256,
      "height": 256
    },
    "offset": {
      "x": 0,
      "y": 0
    },
    "originalSize": {
      "width": 256,
      "height": 256
    },
    "rotated": false,
    "capInsets": [
      0,
      0,
      0,
      0
    ],
    "texture": "8a91b74a-de1f-483b-8e0c-060fb77cc3bd@6c48a",
    "packable": true
  }
}