{
  "__type__": "cc.BitmapFont",
  "_name": "Num5",
  "_objFlags": 0,
  "_native": "",
  "fntDataStr": "",
  "spriteFrame": {
    "__uuid__": "2f952b71-f35c-4901-982e-623119cd8b72@f9941",
    "__expectedType__": "cc.SpriteFrame"
  },
  "fontSize": 32,
  "fntConfig": {
    "commonHeight": 32,
    "fontSize": 32,
    "atlasName": "Num5_0.png",
    "fontDefDictionary": {
      "44": {
        "rect": {
          "x": 110,
          "y": 0,
          "width": 12,
          "height": 34
        },
        "xOffset": 0,
        "yOffset": 0,
        "xAdvance": 12
      },
      "46": {
        "rect": {
          "x": 110,
          "y": 35,
          "width": 12,
          "height": 34
        },
        "xOffset": 0,
        "yOffset": 0,
        "xAdvance": 12
      },
      "48": {
        "rect": {
          "x": 0,
          "y": 0,
          "width": 21,
          "height": 34
        },
        "xOffset": 0,
        "yOffset": 0,
        "xAdvance": 21
      },
      "49": {
        "rect": {
          "x": 22,
          "y": 0,
          "width": 21,
          "height": 34
        },
        "xOffset": 0,
        "yOffset": 0,
        "xAdvance": 21
      },
      "50": {
        "rect": {
          "x": 44,
          "y": 0,
          "width": 21,
          "height": 34
        },
        "xOffset": 0,
        "yOffset": 0,
        "xAdvance": 21
      },
      "51": {
        "rect": {
          "x": 66,
          "y": 0,
          "width": 21,
          "height": 34
        },
        "xOffset": 0,
        "yOffset": 0,
        "xAdvance": 21
      },
      "52": {
        "rect": {
          "x": 88,
          "y": 0,
          "width": 21,
          "height": 34
        },
        "xOffset": 0,
        "yOffset": 0,
        "xAdvance": 21
      },
      "53": {
        "rect": {
          "x": 0,
          "y": 35,
          "width": 21,
          "height": 34
        },
        "xOffset": 0,
        "yOffset": 0,
        "xAdvance": 21
      },
      "54": {
        "rect": {
          "x": 22,
          "y": 35,
          "width": 21,
          "height": 34
        },
        "xOffset": 0,
        "yOffset": 0,
        "xAdvance": 21
      },
      "55": {
        "rect": {
          "x": 44,
          "y": 35,
          "width": 21,
          "height": 34
        },
        "xOffset": 0,
        "yOffset": 0,
        "xAdvance": 21
      },
      "56": {
        "rect": {
          "x": 66,
          "y": 35,
          "width": 21,
          "height": 34
        },
        "xOffset": 0,
        "yOffset": 0,
        "xAdvance": 21
      },
      "57": {
        "rect": {
          "x": 0,
          "y": 70,
          "width": 21,
          "height": 27
        },
        "xOffset": 0,
        "yOffset": 0,
        "xAdvance": 21
      },
      "120": {
        "rect": {
          "x": 88,
          "y": 35,
          "width": 21,
          "height": 34
        },
        "xOffset": 0,
        "yOffset": 0,
        "xAdvance": 21
      }
    },
    "kerningDict": {}
  }
}